,APT#,ADDRESS,STATE,ZIP,BATH,BED,RENT,RETAIL SF,UNIT SF,RENT PSF,ASKING PRICE,PRICE PSF,COMM,BUILD OUT,A B C CLASS,LINK,LISTING ID,PROPERTY TYPE,YEAR BUILT,RETAIL BASEMENT,RETAIL GROUND,RETAIL HIGH FLOOR,APARTMENT STYLE,OCCUP,GSF,CAP RATE,EFFECTIVE GROSS INCOME,# FLOORS,GROSS RENT MULTIPLIER,GROSS RENTAL INCOME,LAND SF,NET OPERATING INCOME,# UNITS,OPERATING EXPENSES,RE TAXES,VACANCY,WASHER/DRYER,PET POLICY,CONCIERGE,DATE CREATED,LAST UPDATED,PRICE CHANGE,SCRAPED DATE
0,nan,1385 PACIFIC STREET,NY,11216.0,,,,,,,2650000.0,505.7251908396947,0,,C,https://www.loopnet.com/Listing/1385-Pacific-St-Brooklyn-NY/15906065/,15906065,Multifamily,1915,,,,Mid Rise,,5240,6.00%,165300.0,4,16.6,174000.0,1742.4,158180.0,4,3650.0,3470.0,8700.0,,,,4/30/2019,2019-11-09,,
1,nan,37 AVON PLACE,NY,10301.0,,,,,,,3199000.0,341.48163962425275,0,,C,https://www.loopnet.com/Listing/37-Avon-Pl-Staten-Island-NY/15567128/,15567128,Multifamily,1926,,,,Mid Rise,100%,9368,5.00%,250000.0,4,,250000.0,6098.400000000001,0.0,17,,,0.0,,,,3/21/2019,2019-11-09,,
2,nan,1443 BEACH AVENUE,NY,10460.0,,,,,,,1099000.0,366.3333333333333,0,,C,https://www.loopnet.com/Listing/1443-Beach-Ave-Bronx-NY/15121466/,15121466,Multifamily,1929,,,,Low Rise,50%,3000,6.66%,,3,,,2613.6,,4,,,,,,,2/6/2019,2019-11-09,,
3,nan,97 2 AVENUE,NY,10003.0,,,,,,,14500000.0,1324.4428206065036,0,,C,https://www.loopnet.com/Listing/97-2nd-Ave-New-York-NY/15046799/,15046799,Multifamily,1900,,,,Mid Rise,100%,10948,4.62%,,6,,,2613.6,,11,,,,,,,2/1/2019,2019-11-09,,
4,nan,882 METROPOLITAN AVENUE,NY,11211.0,,,,,,,3879000.0,813.5486577181208,0,,C,https://www.loopnet.com/Listing/882-Metropolitan-Ave-Brooklyn-NY/15037858/,15037858,Multifamily,2016,,,,Mid Rise,,4768,5.02%,220005.0,4,17.6,220005.0,,197605.0,7,14400.0,8000.0,0.0,,,,1/31/2019,2019-11-09,,
5,nan,1904-1906 3 AVENUE,NY,10029.0,,,,,,,10950000.0,558.2462401223553,0,,B,https://www.loopnet.com/Listing/1904-1906-3rd-Ave-New-York-NY/14816143/,14816143,Multifamily,1910,,,,Mid Rise,,19615,4.14%,,5,,,4791.6,,23,,,,,,,1/9/2019,2019-11-09,,
6,nan,4132 53 STREET,NY,11377.0,,,,,,,3795000.0,501.984126984127,0,,C,https://www.loopnet.com/Listing/4132-53rd-St-Woodside-NY/13745087/,13745087,Multifamily,1931,,,,Low Rise,,7560,5.76%,,3,13.92,,2613.6,,12,,,,,,,9/10/2018,2019-11-09,,
7,nan,93 MCGUINNESS BOULEVARD,NY,11222.0,,,,,,,2300000.0,718.75,0,,C,https://www.loopnet.com/Listing/93-McGuinness-Blvd-Brooklyn-NY/15999916/,15999916,Multifamily,1925,,,,,,3200,5.83%,144000.0,4,,144000.0,2613.6,0.0,3,,,0.0,,,,5/9/2019,2019-11-09,,
8,nan,46 SOUTH BLEEKER STREET,NY,10550.0,,,,,,,1150000.0,383.3333333333333,0,,C,https://www.loopnet.com/Listing/46-S-Bleeker-St-Mount-Vernon-NY/17665013/,17665013,Multifamily,1920,,,,Low Rise,100%,3000,7.22%,125485.0,3,8.71,132090.0,3484.8,83038.0,6,0.0,0.0,6605.0,,,,11/7/2019,2019-11-09,,
9,nan,118 OLIVER AVENUE,NY,10701.0,,,,,,,1100000.0,384.3466107617051,0,,C,https://www.loopnet.com/Listing/118-Oliver-Ave-Yonkers-NY/17664910/,17664910,Multifamily,1927,,,,Low Rise,100%,2862,7.03%,,3,9.03,,3484.8,,7,,,,,,,11/7/2019,2019-11-09,,
10,nan,16020 79 AVENUE,NY,,,,,,,,1488000.0,396.8,0,,C,https://www.loopnet.com/Listing/16020-79th-Ave-Fresh-Meadows-NY/17662042/,17662042,Multifamily,1940,,,,Low Rise,,3750,,,2,,,3920.3999999999996,,2,,,,,,,10/10/2019,2019-11-09,,
11,nan,62 FILLMORE STREET,NY,10301.0,,,,,,,499000.0,282.23981900452486,0,,,https://www.loopnet.com/Listing/62-Fillmore-St-Staten-Island-NY/17661114/,17661114,Multifamily,1910,,,,,,1768,10.50%,,3,,,,,3,,,,,,,11/7/2019,2019-11-09,,
12,nan,351-353 BOWERY,NY,10003.0,,,,,,,6915032.0,3198.4421831637374,0,,B,https://www.loopnet.com/Listing/351-353-Bowery-New-York-NY/17660384/,17660384,Multifamily,2009,,,,High Rise,,2162,4.75%,,1,,,8276.4,,14,,,,,,,11/7/2019,2019-11-09,,
13,nan,136 MCLEAN AVENUE,NY,10705.0,,,,,,,2200000.0,135.4679802955665,0,,C,https://www.loopnet.com/Listing/136-Mclean-Ave-Yonkers-NY/17649438/,17649438,Multifamily,1967,,,,Mid Rise,100%,16240,4.80%,,5,11.4,,4791.6,,11,,,,,,,11/6/2019,2019-11-09,,
14,nan,1916-1918 PROSPECT PLACE,NY,11233.0,,,,,,,1500000.0,479.8464491362764,0,,C,https://www.loopnet.com/Listing/1916-1918-Prospect-Pl-Brooklyn-NY/17646243/,17646243,Multifamily,1899,,,,Low Rise,100%,3126,5.80%,,3,14,,1306.8,,4,,,,,,,11/5/2019,2019-11-09,,
15,nan,11117 NORTHERN BOULEVARD,NY,11368.0,,,,,,,5700000.0,177.10663683818046,0,,,https://www.loopnet.com/Listing/11117-Northern-Blvd-Corona-NY/17641859/,17641859,Multifamily,1931,,,,Mid Rise,,32184,,,4,,,11325.6,,38,,,,,,,11/5/2019,2019-11-09,,
16,nan,3909 210 STREET,NY,11361.0,,,,,,,2200000.0,567.0103092783505,0,,,https://www.loopnet.com/Listing/3909-210th-St-Bayside-NY/17640732/,17640732,Multifamily,1927,,,,,,3880,,,3,,,,,4,,,,,,,11/5/2019,2019-11-09,,
17,nan,39 VILLAGE CIRCLE,NY,14850.0,,,,,,,10000000.0,325.2032520325203,0,,B,https://www.loopnet.com/Listing/39-Village-Cir-Ithaca-NY/17638729/,17638729,Multifamily,1980,,,,Garden,98%,30750,,,2,,,4268880.0,,42,,,,,,,11/5/2019,2019-11-09,,
18,nan,6611 AUSTIN STREET,NY,14813.0,,,,,,,1200000.0,340.90909090909093,0,,,https://www.loopnet.com/Listing/6611-Austin-St-Rego-Park-NY/17638572/,17638572,Multifamily,1979,,,,,,3520,,,3,,,,,3,,,,,,,11/5/2019,2019-11-09,,
19,nan,1943 GLEASON AVENUE,NY,10472.0,,,,,,,3200000.0,370.3703703703704,0,,B,https://www.loopnet.com/Listing/1943-Gleason-Ave-Bronx-NY/17634235/,17634235,Multifamily,1928,,,,Low Rise,,8640,5.78%,228324.0,3,13.13,198924.0,2613.6,184824.0,12,21000.0,22500.0,0.0,,,,11/4/2019,2019-11-09,,
20,nan,3059 VALENTINE AVENUE,NY,10458.0,,,,,,,999000.0,675.0,0,,,https://www.loopnet.com/Listing/3059-Valentine-Ave-Bronx-NY/17634163/,17634163,Multifamily,1910,,,,Low Rise,100%,1480,4.00%,,2,,,1742.4,,2,,,,,,,11/4/2019,2019-11-09,,
21,nan,1066 HANCOCK STREET,NY,11221.0,,,,,,,1795000.0,623.2638888888889,0,,,https://www.loopnet.com/Listing/1066-Hancock-St-Brooklyn-NY/17632395/,17632395,Multifamily,1915,,,,,,2880,6.17%,118800.0,3,,118800.0,,110696.0,3,5800.0,2304.0,0.0,,,,11/4/2019,2019-11-09,,
22,nan,75 SOUTH 9 STREET,NY,11249.0,,,,,,,3499000.0,940.5913978494624,0,,C,https://www.loopnet.com/Listing/75-S-9th-St-Brooklyn-NY/17630566/,17630566,Multifamily,1910,,,,Low Rise,,3720,4.50%,,3,,,3049.2000000000003,,4,,,,,,,11/4/2019,2019-11-09,,
23,nan,1867 LINDEN STREET,NY,11385.0,,,,,,,1348000.0,276.5128205128205,0,,,https://www.loopnet.com/Listing/1867-Linden-St-Ridgewood-NY/17630435/,17630435,Multifamily,1930,,,,Mid Rise,,4875,,70000.0,3,,70000.0,2613.6,0.0,6,0.0,12500.0,0.0,,,,11/4/2019,2019-11-09,,
24,nan,36 LINCOLN AVENUE,NY,11208.0,,,,,,,1640000.0,337.4485596707819,0,,,https://www.loopnet.com/Listing/36-Lincoln-Ave-Brooklyn-NY/17628897/,17628897,Multifamily,1925,,,,,,4860,5.00%,120342.0,3,,120342.0,,82044.0,6,0.0,0.0,0.0,,,,11/4/2019,2019-11-09,,
25,nan,739 GENESEE STREET,NY,14611.0,,,,,,,279900.0,47.121212121212125,0,,C,https://www.loopnet.com/Listing/739-Genesee-St-Rochester-NY/17628677/,17628677,Multifamily,1920,,,,,100%,5940,11.70%,,2,,,3920.3999999999996,,4,,,,,,,11/4/2019,2019-11-09,,
26,nan,2-4 HOLLAND AVENUE,NY,11003.0,,,,,,,1145000.0,310.3822174030903,0,,C,https://www.loopnet.com/Listing/2-4-Holland-Ave-Elmont-NY/17628361/,17628361,Multifamily,1922,,,,Low Rise,100%,3689,6.00%,,2,,,4356.0,,5,,,,,,,11/4/2019,2019-11-09,,
27,nan,56 ANTONE MOUNTAIN ROAD,NY,12822.0,,,,,,,985000.0,197.0,0,,B,https://www.loopnet.com/Listing/56-Antone-Mountain-Rd-Corinth-NY/17628337/,17628337,Multifamily,1970,,,,Garden,84%,5000,8.79%,153504.0,1,,183744.0,,86601.0,37,52932.0,13971.0,30240.0,,,,11/4/2019,2019-11-09,,
28,nan,329 ATOMIC PROJECT ROAD,NY,12020.0,,,,,,,1250000.0,125.0,0,,C,https://www.loopnet.com/Listing/329-Atomic-Project-Rd-Ballston-Spa-NY/17628196/,17628196,Multifamily,1970,,,,Garden,68%,10000,7.26%,135924.0,1,,205044.0,1454032.8,90774.0,31,31610.0,13540.0,69120.0,,,,11/4/2019,2019-11-09,,
29,nan,12202 25 ROAD,NY,11354.0,,,,,,,4500000.0,384.22131147540983,0,,C,https://www.loopnet.com/Listing/12202-25th-Rd-Flushing-NY/17611012/,17611012,Multifamily,1978,,,,Low Rise,,11712,3.32%,242700.0,3,,0.0,7405.200000000001,0.0,15,0.0,59000.0,0.0,,,,11/1/2019,2019-11-09,,
30,nan,125 NEPTUNE AVENUE,NY,11235.0,,,,,,,1450000.0,500.0,0,,C,https://www.loopnet.com/Listing/125-Neptune-Ave-Brooklyn-NY/17609166/,17609166,Multifamily,1915,,,,,,2900,5.19%,,3,,,,,3,,,,,,,4/22/2019,2019-11-09,,
31,nan,142-27 BARCLAY AVENUE,NY,11355.0,,,,,,,15500000.0,378.0487804878049,0,,C,https://www.loopnet.com/Listing/142-27-Barclay-Ave-Flushing-NY/17606695/,17606695,Multifamily,1962,,,,Mid Rise,100%,41000,4.20%,,7,15.4,,9147.6,,50,,,,,,,7/26/2019,2019-11-09,,
32,nan,39 AUGUSTINE STREET,NY,14613.0,,,,,,,149000.0,38.96443514644351,0,,C,https://www.loopnet.com/Listing/39-Augustine-St-Rochester-NY/17601071/,17601071,Multifamily,1900,,,,Low Rise,,3824,19.50%,,3,3.7,,5662.8,,7,,,,,,,10/31/2019,2019-11-09,,
33,nan,216 MALCOLM X BOULEVARD,NY,10037.0,,,,,,,1600000.0,592.5925925925926,0,,C,https://www.loopnet.com/Listing/216-Malcolm-X-Blvd-Brooklyn-NY/17597137/,17597137,Multifamily,1927,,,,Low Rise,,2700,,,3,,,2178.0,,5,,,,,,,10/31/2019,2019-11-09,,
34,nan,682 HUMBOLDT STREET,NY,11222.0,,,,,,,1895000.0,746.6509062253743,0,,B,https://www.loopnet.com/Listing/682-Humboldt-St-Brooklyn-NY/17596839/,17596839,Multifamily,1901,,,,Low Rise,100%,2538,3.85%,84252.0,3,22.5,84252.0,1742.4,73006.0,3,6300.0,4946.0,0.0,,,,10/31/2019,2019-11-09,,
35,nan,431-433 WYTHE AVENUE,NY,11249.0,,,,,,,7900000.0,897.7272727272727,0,,C,https://www.loopnet.com/Listing/431-433-Wythe-Ave-Brooklyn-NY/17596822/,17596822,Multifamily,1920,,,,Mid Rise,100%,8800,4.65%,,4,,,1306.8,,16,,,,,,,10/31/2019,2019-11-09,,
36,nan,960 MYRTLE AVENUE,NY,11206.0,,,,,,,5500000.0,916.6666666666666,0,,C,https://www.loopnet.com/Listing/960-Myrtle-Ave-Brooklyn-NY/17591148/,17591148,Multifamily,1931,,,,Mid Rise,20%,6000,,84000.0,4,,84000.0,2613.6,0.0,10,,,0.0,,,,7/17/2019,2019-11-09,,
37,nan,957 SENECA AVENUE,NY,11385.0,,,,,,,1549000.0,264.78632478632477,0,,C,https://www.loopnet.com/Listing/957-Seneca-Ave-Ridgewood-NY/17590686/,17590686,Multifamily,1931,,,,Low Rise,,5850,7.05%,,3,,,2613.6,,6,,,,,,,10/30/2019,2019-11-09,,
38,nan,1013 HART STREET,NY,11237.0,,,,,,,899000.0,499.44444444444446,0,,,https://www.loopnet.com/Listing/1013-Hart-St-Brooklyn-NY/17588264/,17588264,Multifamily,1930,,,,Low Rise,,1800,,,2,,,1306.8,,2,,,,,,,10/30/2019,2019-11-09,,
39,nan,12-22 30 AVENUE,NY,11102.0,,,,,,,18000000.0,452.88715561705874,0,,A,https://www.loopnet.com/Listing/12-22-30th-Ave-Astoria-NY/17586797/,17586797,Multifamily,2008,,,,Mid Rise,100%,39745,4.70%,,5,,,13503.6,,36,,,,,,,10/8/2019,2019-11-09,,
40,nan,4801 108 STREET,NY,11368.0,,,,,,,2999999.0,560.747476635514,0,,,https://www.loopnet.com/Listing/4801-108th-St-Corona-NY/17580640/,17580640,Multifamily,1920,,,,,100%,5350,4.76%,,3,,,2613.6,,6,,,,,,,10/29/2019,2019-11-09,,
41,nan,51 EAST HOUSTON STREET,NY,10012.0,,,,,,,9995000.0,994.4284150830763,0,,C,https://www.loopnet.com/Listing/51-E-Houston-St-New-York-NY/17580414/,17580414,Multifamily,1900,,,,Mid Rise,,10051,4.80%,,5,17.3,,2178.0,,8,,,,,,,10/29/2019,2019-11-09,,
42,nan,4116 34 AVENUE,NY,11101.0,,,,,,,3975000.0,465.89310829817157,0,,,https://www.loopnet.com/Listing/4116-34th-Ave-Long-Island-City-NY/17580167/,17580167,Multifamily,1924,,,,High Rise,100%,8532,4.50%,,4,,,,,13,,,,,,,10/29/2019,2019-11-09,,
43,nan,400 DELAWARE AVENUE,NY,10305.0,,,,,,,3056376.0,82.05036241610738,0,,B,https://www.loopnet.com/Listing/400-Delaware-Ave-Albany-NY/17577152/,17577152,Multifamily,1926,,,,Low Rise,,37250,,,3,,,16117.199999999999,,47,,,,,,,10/29/2019,2019-11-09,,
44,nan,99 MURRAY AVENUE,NY,10704.0,,,,,,,937000.0,225.67437379576108,0,,,https://www.loopnet.com/Listing/99-Murray-Ave-Yonkers-NY/17576882/,17576882,Multifamily,1920,,,,,,4152,,,3,,,,,5,,,,,,,10/29/2019,2019-11-09,,
45,nan,507 NIAGARA STREET,NY,13204.0,,,,,,,450000.0,30.048076923076923,0,,,https://www.loopnet.com/Listing/507-Niagara-St-Buffalo-NY/17576394/,17576394,Multifamily,1900,,,,Mid Rise,1%,14976,,,3,,,,,18,,,,,,,10/29/2019,2019-11-09,,
46,nan,40-42 SOUTH FRONT STREET,NY,12534.0,,,,,,,879000.0,169.85507246376812,0,,C,https://www.loopnet.com/Listing/40-42-S-Front-St-Hudson-NY/17571137/,17571137,Multifamily,1900,,,,Low Rise,100%,5175,3.53%,,3,15.36,,3920.3999999999996,,5,,,,,,,10/28/2019,2019-11-09,,
47,nan,11-28 31DRIVEIVE,NY,11106.0,,,,,,,7500000.0,836.4001338240214,0,,F,https://www.loopnet.com/Listing/11-28-31st-Dr-Long-Island-City-NY/17570492/,17570492,Multifamily,2019,,,,Mid Rise,,8967,4.42%,,6,,,2178.0,,9,,,,,,,10/28/2019,2019-11-09,,
48,nan,12-16 WATSON PLACE,NY,13502.0,,,,,,,560000.0,22.793878215564963,0,,B,https://www.loopnet.com/Listing/12-16-Watson-Pl-Utica-NY/17568869/,17568869,Multifamily,1935,,,,Low Rise,,24568,10.39%,,3,,,9583.2,,14,,,,,,,10/28/2019,2019-11-09,,
49,nan,917 EAST 15 STREET,NY,11230.0,,,,,,,1250000.0,796.6857871255577,0,,,https://www.loopnet.com/Listing/917-E-15th-St-Brooklyn-NY/17562748/,17562748,Multifamily,1910,,,,Low Rise,50%,1569,,,3,,,,,3,,,,,,,10/26/2019,2019-11-09,,
50,nan,690 LINWOOD STREET,NY,11208.0,,,,,,,2175000.0,621.4285714285714,0,,B,https://www.loopnet.com/Listing/690-Linwood-St-Brooklyn-NY/17549265/,17549265,Multifamily,1915,,,,Low Rise,100%,3500,,,3,,,1742.4,,5,,,,,,,10/25/2019,2019-11-09,,
51,nan,142 MORTON AVENUE,NY,12202.0,,,,,,,851204.0,186.66754385964913,0,,C,https://www.loopnet.com/Listing/142-Morton-Ave-Albany-NY/17549168/,17549168,Multifamily,1895,,,,Low Rise,,4560,,,3,,,,,13,,,,,,,10/25/2019,2019-11-09,,
52,nan,529-531 MAPLE STREET,NY,11225.0,,,,,,,9250000.0,459.1482180085377,0,,B,https://www.loopnet.com/Listing/529-531-Maple-St-Brooklyn-NY/17545715/,17545715,Multifamily,2016,,,,Mid Rise,,20146,,,7,,,6534.0,,10,,,,,,,10/24/2019,2019-11-09,,
53,nan,1715 ZEREGA AVENUE,NY,10462.0,,,,,,,735000.0,228.47373329188684,0,,,https://www.loopnet.com/Listing/1715-Zerega-Ave-Bronx-NY/17543008/,17543008,Multifamily,1927,,,,Low Rise,100%,3217,6.32%,,3,9,,1306.8,,6,,,,,,,10/24/2019,2019-11-09,,
54,nan,234 PARKRIDGE AVENUE,NY,14215.0,,,,,,,399000.0,36.94444444444444,0,,,https://www.loopnet.com/Listing/234-Parkridge-Ave-Buffalo-NY/17542569/,17542569,Multifamily,1947,,,,Low Rise,100%,10800,8.29%,,2,,,,,8,,,,,,,10/24/2019,2019-11-09,,
55,nan,1700 LEXINGTON AVENUE,NY,10029.0,,,,,,,2600000.0,706.5217391304348,0,,F,https://www.loopnet.com/Listing/1700-Lexington-Ave-New-York-NY/17541686/,17541686,Multifamily,1890,,,,Mid Rise,90%,3680,4.49%,137400.0,4,,137400.0,1306.8,116829.0,5,16999.0,3572.0,0.0,,,,10/24/2019,2019-11-09,,
56,nan,288 8 AVENUE,NY,10001.0,,,,,,,8300000.0,1098.4647961884596,0,,C,https://www.loopnet.com/Listing/288-Eighth-Ave-New-York-NY/17540324/,17540324,Multifamily,1920,,,,Mid Rise,,7556,4.92%,480792.0,4,,480792.0,2613.6,408106.0,12,12300.0,60386.0,0.0,,,,7/11/2019,2019-11-09,,
57,nan,736 4 AVENUE,NY,11232.0,,,,,,,2395000.0,556.9767441860465,0,,C,https://www.loopnet.com/Listing/736-4th-Ave-Brooklyn-NY/17536572/,17536572,Multifamily,1931,,,,Mid Rise,,4300,,,4,,,1306.8,,4,,,,,,,10/23/2019,2019-11-09,,
58,nan,185-189 WOODPOINT ROAD,NY,11211.0,,,,,,,11175000.0,892.9998401789995,0,,C,https://www.loopnet.com/Listing/185-189-Woodpoint-Rd-Brooklyn-NY/17535447/,17535447,Multifamily,1999,,,,Low Rise,100%,12514,4.33%,,5,,,12632.4,,12,,,,,,,10/23/2019,2019-11-09,,
59,nan,2115 DIX AVENUE,NY,11691.0,,,,,,,679000.0,216.58692185007973,0,,,https://www.loopnet.com/Listing/2115-Dix-Ave-Far-Rockaway-NY/17534842/,17534842,Multifamily,2006,,,,,,3135,,,3,,,,,3,,,,,,,10/23/2019,2019-11-09,,
60,nan,30-22 32 STREET,NY,10003.0,,,,,,,3600000.0,480.0,0,,C,https://www.loopnet.com/Listing/30-22-32nd-St-Long-Island-City-NY/17532293/,17532293,Multifamily,1910,,,,Mid Rise,,7500,3.98%,191493.0,4,18.8,191493.0,2613.6,143371.0,8,0.0,0.0,0.0,,,,10/23/2019,2019-11-09,,
61,nan,11-38 44DRIVEIVE,NY,11369.0,,,,,,,3600000.0,338.2187147688839,0,,C,https://www.loopnet.com/Listing/11-38-44th-Dr-Long-Island-City-NY/17531758/,17531758,Multifamily,1907,,,,Mid Rise,,10644,3.56%,208479.0,4,17.26,204879.0,3920.3999999999996,128222.0,17,0.0,0.0,0.0,,,,10/23/2019,2019-11-09,,
62,nan,155 SUMMERSET ROAD,NY,12173.0,,,,,,,2990000.0,1.3597652290294868,0,,C,https://www.loopnet.com/Listing/155-Summerset-Rd-Stuyvesant-NY/17531097/,17531097,Specialty,1994,,,,,,2198909,7.02%,,1,,,2198908.8,,,,,,,,,4/21/2016,2019-11-09,,
63,nan,2202 MAIN STREET,NY,12936.0,,,,,,,495000.0,76.93503263910476,0,,,https://www.loopnet.com/Listing/2202-Main-St-Buffalo-NY/17528247/,17528247,Multifamily,1900,,,,,100%,6434,6.81%,41340.0,3,,41340.0,5662.8,32800.0,6,5171.0,3369.0,0.0,,,,10/22/2019,2019-11-09,,
64,nan,553 58 STREET,NY,14616.0,,,,,,,4700000.0,270.9870848708487,0,,C,https://www.loopnet.com/Listing/553-58th-St-Brooklyn-NY/17525480/,17525480,Multifamily,1911,,,,Mid Rise,,17344,5.59%,,4,,,6098.400000000001,,24,,,,,,,6/11/2019,2019-11-09,,
65,nan,546 51 AVENUE,NY,11101.0,,,,,,,3800000.0,779.4871794871794,0,,B,https://www.loopnet.com/Listing/546-51st-Ave-Long-Island-City-NY/17524764/,17524764,Multifamily,1931,,,,Low Rise,,4875,4.00%,,3,,,2613.6,,6,,,,,,,10/22/2019,2019-11-09,,
66,nan,117 WEST 111 STREET,NY,10026.0,,,,,,,2750000.0,634.3713956170703,0,,B,https://www.loopnet.com/Listing/117-W-111th-St-New-York-NY/17522034/,17522034,Multifamily,1900,,,,Mid Rise,,4335,5.52%,,5,,,1306.8,,8,,,,,,,10/22/2019,2019-11-09,,
67,nan,1865 2 AVENUE,NY,10029.0,,,,,,,2500000.0,128.67363219928973,0,,B,https://www.loopnet.com/Listing/1865-2nd-Ave-New-York-NY/17521966/,17521966,Multifamily,1987,,,,Mid Rise,,19429,5.03%,,10,,,2613.6,,18,,,,,,,10/22/2019,2019-11-09,,
68,nan,1314 STERLING PLACE,NY,11213.0,,,,,,,999999.0,198.1373092926491,0,,C,https://www.loopnet.com/Listing/1314-Sterling-Pl-Brooklyn-NY/17521938/,17521938,Multifamily,1931,,,,Low Rise,,5047,2.96%,75537.0,3,,75537.0,3049.2000000000003,29645.0,6,34366.0,11526.0,0.0,,,,10/22/2019,2019-11-09,,
69,nan,171-175 BAY 17 STREET,NY,11214.0,,,,,,,3840000.0,296.2962962962963,0,,B,https://www.loopnet.com/Listing/171-175-Bay-17th-St-Brooklyn-NY/17521824/,17521824,Multifamily,1912,,,,Mid Rise,100%,12960,6.73%,,4,,,3920.3999999999996,,18,,,,,,,10/22/2019,2019-11-09,,
70,nan,855 EAST 217 STREET,NY,10467.0,,,,,,,6000000.0,188.00526414739613,0,,C,https://www.loopnet.com/Listing/855-E-217th-St-Bronx-NY/17521719/,17521719,Multifamily,2006,,,,Mid Rise,,31914,7.07%,501648.0,6,,501648.0,11325.6,424498.0,20,0.0,0.0,0.0,,,,10/22/2019,2019-11-09,,
71,nan,195 BAY 29 STREET,NY,11214.0,,,,,,,3750000.0,283.4467120181406,0,,C,https://www.loopnet.com/Listing/195-Bay-29Th-St-Brooklyn-NY/17513631/,17513631,Multifamily,1931,,,,Low Rise,100%,13230,4.00%,,3,18,,5662.8,,14,,,,,,,10/21/2019,2019-11-09,,
72,nan,1471 STRAIGHT PATH,NY,11798.0,,,,,,,1599000.0,114.10018552875695,0,,C,https://www.loopnet.com/Listing/1471-Straight-Path-Wyandanch-NY/17511092/,17511092,Multifamily,1950,,,,Low Rise,,14014,8.50%,183216.0,2,,183216.0,13939.2,145936.0,8,0.0,0.0,0.0,,,,10/21/2019,2019-11-09,,
73,nan,112 ANDREWS AVENUE,NY,13760.0,,,,,,,2800000.0,51.82210212655698,0,,B,https://www.loopnet.com/Listing/112-Andrews-Ave-Endicott-NY/17494490/,17494490,Multifamily,1980,,,,Low Rise,95%,54031,8.64%,477065.0,3,,470070.0,56628.0,248601.0,53,93268.0,135196.0,5.0,,,,10/18/2019,2019-11-09,,
74,nan,101 OSTROM AVENUE,NY,13210.0,,,,,,,600000.0,107.29613733905579,0,,,https://www.loopnet.com/Listing/101-Ostrom-Ave-Syracuse-NY/17490421/,17490421,Multifamily,1920,,,,Low Rise,70%,5592,,,3,,,,,4,,,,,,,10/18/2019,2019-11-09,,
75,nan,42 DOUGLAS AVENUE,NY,10310.0,,,,,,,1199000.0,173.66743916570104,0,,B,https://www.loopnet.com/Listing/42-Douglas-Ave-Yonkers-NY/17486876/,17486876,Multifamily,1970,,,,Low Rise,100%,6904,,,3,,,,,5,,,,,,,10/17/2019,2019-11-09,,
76,nan,76 WEST 11 STREET,NY,11746.0,,,,,,,480000.0,94.11764705882354,0,,,https://www.loopnet.com/Listing/76-W-11th-St-Huntington-Station-NY/17481766/,17481766,Multifamily,1978,,,,,,5100,9.52%,,3,,,,,2,,,,,,,10/17/2019,2019-11-09,,
77,nan,120 SOUTH UNION STREET,NY,14607.0,,,,,,,995000.0,114.01397960352928,0,,C,https://www.loopnet.com/Listing/120-S-Union-St-Rochester-NY/17477591/,17477591,Multifamily,1925,,,,Low Rise,100%,8727,9.33%,,3,7.2,,11325.6,,15,,,,,,,10/17/2019,2019-11-09,,
78,nan,1740 EAST 4 STREET,NY,,,,,,,,1825000.0,351.43462353167723,0,,C,https://www.loopnet.com/Listing/1740-E-4th-St-Brooklyn-NY/17471804/,17471804,Multifamily,1927,,,,Low Rise,,5193,,,3,,,2613.6,,6,,,,,,,10/16/2019,2019-11-09,,
79,nan,226 EAST 32 STREET,NY,,,,,,,,5400000.0,1228.3894449499544,0,,C,https://www.loopnet.com/Listing/226-E-32nd-St-New-York-NY/17468047/,17468047,Multifamily,1910,,,,Mid Rise,,4396,,,4,,,1742.4,,4,,,,,,,10/16/2019,2019-11-09,,
80,nan,10619 GUY R BREWER BOULEVARD,NY,11433.0,,,,,,,748000.0,188.31822759315207,0,,,https://www.loopnet.com/Listing/10619-Guy-R-Brewer-Blvd-Jamaica-NY/17457139/,17457139,Multifamily,1931,,,,,,3972,,,3,,,1742.4,,3,,,,,,,10/15/2019,2019-11-09,,
81,nan,69 6 AVENUE,NY,11214.0,,,,,,,2795000.0,913.3986928104575,0,,,https://www.loopnet.com/Listing/69-6th-Ave-Brooklyn-NY/17442309/,17442309,Multifamily,1931,,,,Low Rise,,3060,,,3,,,,,4,,,,,,,10/13/2019,2019-11-09,,
82,nan,1611 ROUTE 376 STREET,NY,10003.0,,,,,,,2750000.0,158.26427255985266,0,,C,https://www.loopnet.com/Listing/1611-Route-376-Wappingers-Falls-NY/17432224/,17432224,Multifamily,1960,,,,Garden,,17376,7.53%,,1,,,78408.0,,30,,,,,,,10/11/2019,2019-11-09,,
83,nan,122 30 STREET,NY,11232.0,,,,,,,999000.0,444.0,0,,,https://www.loopnet.com/Listing/122-30th-St-Brooklyn-NY/17424235/,17424235,Multifamily,1910,,,,,,2250,,,3,,,,,2,,,,,,,10/10/2019,2019-11-09,,
84,nan,86-39 90 STREET,NY,10003.0,,,,,,,3600000.0,264.70588235294116,0,,C,https://www.loopnet.com/Listing/86-39-90th-St-Woodhaven-NY/17422582/,17422582,Multifamily,1931,,,,Mid Rise,,13600,,,4,,,3920.3999999999996,,16,,,,,,,10/10/2019,2019-11-09,,
85,nan,535 WESTCOTT STREET,NY,13210.0,,,,,,,560000.0,71.83170856849667,0,,,https://www.loopnet.com/Listing/535-Westcott-St-Syracuse-NY/17422408/,17422408,Multifamily,1940,,,,,,7796,,,2,,,,,6,,,,,,,10/10/2019,2019-11-09,,
86,nan,5 TAMARACK HILLDRIVEIVE,NY,12603.0,,,,,,,1500000.0,132.41525423728814,0,,B,https://www.loopnet.com/Listing/5-Tamarack-Hill-Dr-Poughkeepsie-NY/17415102/,17415102,Multifamily,1920,,,,,,11328,,131400.0,2,,131400.0,102366.0,93000.0,8,14400.0,24000.0,0.0,,,,10/9/2019,2019-11-09,,
87,nan,7 EASTMAN TERRACE,NY,12601.0,,,,,,,950000.0,135.71428571428572,0,,C,https://www.loopnet.com/Listing/7-Eastman-Ter-Poughkeepsie-NY/17412542/,17412542,Multifamily,1900,,,,Mid Rise,,7000,8.80%,,4,,,3484.8,,10,,,,,,,10/9/2019,2019-11-09,,
88,nan,4451 BARNES AVENUE,NY,10466.0,,,,,,,739000.0,221.52278177458032,0,,,https://www.loopnet.com/Listing/4451-Barnes-Ave-Bronx-NY/17412513/,17412513,Multifamily,1940,,,,,,3336,,,3,,,,,3,,,,,,,10/9/2019,2019-11-09,,
89,nan,34 WEST 128 STREET,NY,11223.0,,,,,,,2650000.0,530.0,0,,B,https://www.loopnet.com/Listing/34-W-128th-St-New-York-NY/17412458/,17412458,Multifamily,2000,,,,,,5000,6.87%,,4,,,2613.6,,3,,,,,,,6/5/2019,2019-11-09,,
90,nan,48 BEDFORD STREET,NY,10014.0,,,,,,,8900000.0,1327.3676360924683,0,,C,https://www.loopnet.com/Listing/48-Bedford-St-New-York-NY/17411920/,17411920,Multifamily,1900,,,,Mid Rise,90%,6705,4.36%,,5,19.25,,1742.4,,10,,,,,,,10/9/2019,2019-11-09,,
91,nan,139 EAST 45 STREET,NY,10017.0,,,,,,,15000000.0,1923.076923076923,0,,C,https://www.loopnet.com/Listing/139-E-45th-St-New-York-NY/17400928/,17400928,Multifamily,1926,,,,Mid Rise,100%,7800,4.20%,754400.0,5,,754400.0,2178.0,620071.0,6,15720.0,118609.0,0.0,,,,6/5/2018,2019-11-09,,
92,nan,339 LENOX ROAD,NY,11226.0,,,,,,,4400000.0,1179.308496381667,0,,C,https://www.loopnet.com/Listing/339-Lenox-Rd-Brooklyn-NY/17397119/,17397119,Multifamily,1901,,,,Low Rise,,3731,,,2,,,,,2,,,,,,,10/8/2019,2019-11-09,,
93,nan,419 WEST 146 STREET,NY,10031.0,,,,,,,1400000.0,311.1111111111111,0,,C,https://www.loopnet.com/Listing/419-W-146th-St-New-York-NY/17391207/,17391207,Multifamily,1926,,,,Mid Rise,,4500,,,5,,,1306.8,,9,,,,,,,10/7/2019,2019-11-09,,
94,nan,1477 WEBSTER AVENUE,NY,10456.0,,,,,,,2300000.0,383.3333333333333,0,,,https://www.loopnet.com/Listing/1477-Webster-Ave-Bronx-NY/17389660/,17389660,Multifamily,1931,,,,Low Rise,,6000,3.50%,,4,,,,,8,,,,,,,10/7/2019,2019-11-09,,
95,nan,247 EAST 121 STREET,NY,10035.0,,,,,,,3800000.0,795.9782153330541,0,,C,https://www.loopnet.com/Listing/247-E-121st-St-New-York-NY/17389618/,17389618,Multifamily,1920,,,,,,4774,,,3,,,2178.0,,3,,,,,,,10/7/2019,2019-11-09,,
96,nan,1723 WOODBINE STREET,NY,11385.0,,,,,,,5850000.0,364.1683266932271,0,,C,https://www.loopnet.com/Listing/1723-Woodbine-St-Ridgewood-NY/17387601/,17387601,Multifamily,1930,,,,Mid Rise,100%,16064,5.08%,,4,,,6098.400000000001,,24,,,,,,,10/7/2019,2019-11-09,,
97,nan,162 WEST 123 STREET,NY,10011.0,,,,,,,2095000.0,623.5119047619048,0,,C,https://www.loopnet.com/Listing/162-W-123rd-St-New-York-NY/17386705/,17386705,Multifamily,1910,,,,Mid Rise,100%,3360,3.10%,,4,,,1306.8,,4,,,,,,,10/7/2019,2019-11-09,,
98,nan,115 STANHOPE STREET,NY,11221.0,,,,,,,875000.0,416.6666666666667,0,,,https://www.loopnet.com/Listing/115-Stanhope-St-Brooklyn-NY/17382987/,17382987,Multifamily,1920,,,,,100%,2100,10.57%,,3,,,,,3,,,,,,,10/5/2019,2019-11-09,,
99,nan,223 WEST MAIN STREET,NY,10549.0,,,,,,,549900.0,249.95454545454547,0,,C,https://www.loopnet.com/Listing/223-W-Main-St-Mount-Kisco-NY/17378664/,17378664,Multifamily,1940,,,,,,2200,,,2,,,,,1,,,,,,,10/5/2019,2019-11-09,,
100,nan,5412 69 STREET,NY,11378.0,,,,,,,1595000.0,360.85972850678735,0,,C,https://www.loopnet.com/Listing/5412-69th-St-Maspeth-NY/17371956/,17371956,Multifamily,1929,,,,Low Rise,,4420,5.70%,,2,,,6534.0,,5,,,,,,,10/4/2019,2019-11-09,,
101,nan,2149 PROSPECT AVENUE,NY,10457.0,,,,,,,820000.0,331.3131313131313,0,,,https://www.loopnet.com/Listing/2149-Prospect-Ave-Bronx-NY/17371810/,17371810,Multifamily,1910,,,,Mid Rise,100%,2475,6.71%,60000.0,2,,60000.0,,55000.0,2,2809.0,2191.0,0.0,,,,10/4/2019,2019-11-09,,
102,nan,202 FISHER AVENUE,NY,10307.0,,,,,,,875000.0,300.6872852233677,0,,C,https://www.loopnet.com/Listing/202-Fisher-Ave-White-Plains-NY/17368240/,17368240,Multifamily,1924,,,,Low Rise,,2910,7.93%,,3,,,9147.6,,5,,,,,,,10/4/2019,2019-11-09,,
103,nan,514 RIVERSIDE BOULEVARD,NY,11561.0,,,,,,,599000.0,199.66666666666666,0,,C,https://www.loopnet.com/Listing/514-Riverside-Blvd-Long-Beach-NY/17368048/,17368048,Multifamily,1926,,,,Low Rise,100%,3000,6.68%,65400.0,2,9.11,65400.0,4356.0,43400.0,2,9000.0,13000.0,0.0,,,,10/4/2019,2019-11-09,,
104,nan,6 EAST SIDNEY AVENUE,NY,10550.0,,,,,,,8500000.0,314.81481481481484,0,,C,https://www.loopnet.com/Listing/6-E-Sidney-Ave-Mount-Vernon-NY/17367945/,17367945,Multifamily,1948,,,,Mid Rise,,27000,,,4,,,7405.200000000001,,30,,,,,,,10/4/2019,2019-11-09,,
105,nan,111-15 37 AVENUE,NY,11368.0,,,,,,,1800000.0,372.67080745341616,0,,C,https://www.loopnet.com/Listing/111-15-37th-Ave-Corona-NY/17367807/,17367807,Multifamily,2005,,,,Mid Rise,,4830,,,4,,,2178.0,,4,,,,,,,10/4/2019,2019-11-09,,
106,nan,41 SAINT NICHOLAS AVENUE,NY,11237.0,,,,,,,2400000.0,467.8362573099415,0,,B,https://www.loopnet.com/Listing/41-Saint-Nicholas-Ave-Brooklyn-NY/17362116/,17362116,Multifamily,1931,,,,Low Rise,,5130,6.02%,,3,,,1742.4,,6,,,,,,,10/3/2019,2019-11-09,,
107,nan,25-35 18 STREET,NY,10003.0,,,,,,,10250000.0,498.15318818040436,0,,A,https://www.loopnet.com/Listing/25-35-18th-St-Astoria-NY/17357605/,17357605,Multifamily,2019,,,,Mid Rise,,20576,5.32%,517800.0,4,,508200.0,,430274.0,12,0.0,0.0,0.0,,,,10/3/2019,2019-11-09,,
108,nan,1389 SAINT JOHNS PLACE,NY,11213.0,,,,,,,1225000.0,178.05232558139534,0,,,https://www.loopnet.com/Listing/1389-Saint-Johns-Pl-Brooklyn-NY/17357556/,17357556,Multifamily,1915,,,,Mid Rise,,6880,,,4,,,2178.0,,8,,,,,,,10/3/2019,2019-11-09,,
109,nan,1928 LINDEN STREET,NY,11385.0,,,,,,,1300000.0,251.20772946859904,0,,,https://www.loopnet.com/Listing/1928-Linden-St-Ridgewood-NY/17344388/,17344388,Multifamily,1930,,,,Low Rise,66%,5175,5.80%,,3,,,,,6,,,,,,,10/2/2019,2019-11-09,,
110,nan,1421 HAWLEY AVENUE,NY,13203.0,,,,,,,1275000.0,70.83333333333333,0,,B,https://www.loopnet.com/Listing/1421-Hawley-Ave-Syracuse-NY/17343743/,17343743,Multifamily,1970,,,,Garden,100%,18000,9.12%,,3,,,31363.199999999997,,17,,,,,,,10/2/2019,2019-11-09,,
111,nan,4535 FRANCIS LEWIS BOULEVARD,NY,11361.0,,,,,,,1930000.0,1649.5726495726497,0,,,https://www.loopnet.com/Listing/4535-Francis-Lewis-Blvd-Bayside-NY/17339332/,17339332,Multifamily,2019,,,,Low Rise,,1170,,,2,,,3484.8,,2,,,,,,,10/1/2019,2019-11-09,,
112,nan,16 HALL PLACE,NY,10709.0,,,,,,,4795000.0,299.6875,0,,C,https://www.loopnet.com/Listing/16-Hall-Pl-Eastchester-NY/17335294/,17335294,Multifamily,1920,,,,Low Rise,,16000,4.73%,335152.0,4,,336916.0,4791.6,226662.0,12,35500.0,72990.0,7264.0,,,,9/29/2019,2019-11-09,,
113,nan,515 NEW SCOTLAND AVENUE,NY,12208.0,,,,,,,399000.0,128.7512100677638,0,,,https://www.loopnet.com/Listing/515-New-Scotland-Ave-Albany-NY/17334889/,17334889,Multifamily,1947,,,,Garden,100%,3099,7.50%,,2,,,13068.0,,5,,,,,,,10/1/2019,2019-11-09,,
114,nan,65 EAST 2 STREET,NY,10003.0,,,,,,,4950000.0,1736.842105263158,0,,C,https://www.loopnet.com/Listing/65-E-2nd-St-New-York-NY/17329723/,17329723,Multifamily,1900,,,,Low Rise,,2850,,,3,,,1306.8,,3,,,,,,,9/30/2019,2019-11-09,,
115,nan,147 EAST 18 STREET,NY,10003.0,,,,,,,5450000.0,1644.5383222691612,0,,C,https://www.loopnet.com/Listing/147-E-18th-St-New-York-NY/17329481/,17329481,Multifamily,1910,,,,Mid Rise,,3314,,,4,,,1742.4,,3,,,,,,,9/30/2019,2019-11-09,,
116,nan,180-188 JASPER STREET,NY,13203.0,,,,,,,489900.0,45.78504672897196,0,,C,https://www.loopnet.com/Listing/180-188-Jasper-St-Syracuse-NY/17329309/,17329309,Multifamily,1945,,,,Low Rise,100%,10700,7.89%,76800.0,2,,76800.0,871.2,38656.0,10,0.0,0.0,0.0,,,,9/30/2019,2019-11-09,,
117,nan,330 STATE ROUTE 55 STREET,NY,12458.0,,,,,,,349900.0,57.94005630071204,0,,,https://www.loopnet.com/Listing/330-State-Route-55-Napanoch-NY/17327804/,17327804,Multifamily,1950,,,,,,6039,9.03%,0.0,2,,0.0,65340.0,31596.0,8,,,0.0,,,,9/30/2019,2019-11-09,,
118,nan,363 MACON STREET,NY,11233.0,,,,,,,1550000.0,484.375,0,,C,https://www.loopnet.com/Listing/363-Macon-St-Brooklyn-NY/17325438/,17325438,Multifamily,1910,,,,Mid Rise,3%,3200,,,4,,,,,6,,,,,,,9/29/2019,2019-11-09,,
119,nan,561 CLINTON STREET,NY,11231.0,,,,,,,5650000.0,1130.0,0,,C,https://www.loopnet.com/Listing/561-Clinton-St-Brooklyn-NY/17309875/,17309875,Multifamily,1931,,,,Mid Rise,90%,5000,4.15%,,4,,,1742.4,,10,,,,,,,9/27/2019,2019-11-09,,
120,nan,615 EAST 17 STREET,NY,,,,,,,,7950000.0,621.09375,0,,B,https://www.loopnet.com/Listing/615-E-17th-St-Brooklyn-NY/17302965/,17302965,Multifamily,1931,,,,Low Rise,,12800,5.71%,,3,,,3920.3999999999996,,12,,,,,,,9/26/2019,2019-11-09,,
121,nan,153 AVENUE PATH,NY,,,,,,,,1690000.0,505.38277511961724,0,,C,https://www.loopnet.com/Listing/153-Avenue-P-Brooklyn-NY/17301041/,17301041,Multifamily,1930,,,,Low Rise,,3344,,,2,,,2613.6,,2,,,,,,,9/26/2019,2019-11-09,,
122,nan,317 EAST MONTAUK HIGHWAY,NY,11946.0,,,,,,,1850000.0,251.70068027210885,0,,C,https://www.loopnet.com/Listing/317-E-Montauk-Hwy-Hampton-Bays-NY/17299588/,17299588,Multifamily,1987,,,,Low Rise,100%,7350,6.74%,154200.0,2,,154200.0,21344.399999999998,124718.0,13,15650.0,13832.0,0.0,,,,9/26/2019,2019-11-09,,
123,nan,256 10 STREET,NY,11215.0,,,,,,,2300000.0,958.3333333333334,0,,,https://www.loopnet.com/Listing/256-10th-St-Brooklyn-NY/17299475/,17299475,Multifamily,1901,,,,Low Rise,,2400,,,2,,,,,2,,,,,,,9/26/2019,2019-11-09,,
124,nan,533 BERGEN STREET,NY,11217.0,,,,,,,4995000.0,713.5714285714286,0,,C,https://www.loopnet.com/Listing/533-Bergen-St-Brooklyn-NY/17299474/,17299474,Multifamily,1930,,,,Mid Rise,,7000,,,4,,,3049.2000000000003,,8,,,,,,,9/26/2019,2019-11-09,,
125,nan,6702-6706 5 AVENUE,NY,11220.0,,,,,,,5975000.0,356.75901600191065,0,,C,https://www.loopnet.com/Listing/6702-6706-5th-Ave-Brooklyn-NY/17299455/,17299455,Multifamily,1925,,,,Mid Rise,,16748,5.20%,,4,,,4791.6,,21,,,,,,,9/26/2019,2019-11-09,,
126,nan,1650 MONTGOMERY AVENUE,NY,10453.0,,,,,,,999000.0,301.6304347826087,0,,,https://www.loopnet.com/Listing/1650-Montgomery-Ave-Bronx-NY/17295298/,17295298,Multifamily,1920,,,,Mid Rise,100%,3312,8.80%,98400.0,2,,98400.0,,87885.0,4,6900.0,3615.0,0.0,,,,9/25/2019,2019-11-09,,
127,nan,3865 9 STREET,NY,12553.0,,,,,,,5000000.0,544.3658138268917,0,,,https://www.loopnet.com/Listing/3865-9th-St-Long-Island-City-NY/17292696/,17292696,Multifamily,1916,,,,,,9185,,,4,,,,,12,,,,,,,9/25/2019,2019-11-09,,
128,nan,64 ARGYLE STREET,NY,14607.0,,,,,,,525000.0,127.05711519845111,0,,C,https://www.loopnet.com/Listing/64-Argyle-St-Rochester-NY/17291728/,17291728,Multifamily,1882,,,,Low Rise,100%,4132,8.57%,,3,,,,,4,,,,,,,9/25/2019,2019-11-09,,
129,nan,1406 EDWARDS AVENUE,NY,10461.0,,,,,,,1275000.0,364.49399656946827,0,,C,https://www.loopnet.com/Listing/1406-Edwards-Ave-Bronx-NY/17291143/,17291143,Multifamily,1931,,,,Low Rise,100%,3498,5.40%,92100.0,3,,92100.0,4791.6,69813.0,4,12000.0,10287.0,0.0,,,,9/25/2019,2019-11-09,,
130,nan,3402 106 STREET,NY,11368.0,,,,,,,2850000.0,232.46329526916801,0,,C,https://www.loopnet.com/Listing/3402-106th-St-Corona-NY/17291035/,17291035,Multifamily,1931,,,,Mid Rise,100%,12260,3.63%,,4,,,3920.3999999999996,,17,,,,,,,9/25/2019,2019-11-09,,
131,nan,232 EAST 116 STREET,NY,10029.0,,,,,,,6500000.0,399.0912998096641,0,,B,https://www.loopnet.com/Listing/232-E-116th-St-New-York-NY/17284415/,17284415,Multifamily,1910,,,,Mid Rise,100%,16287,4.20%,547225.0,6,,564150.0,3920.3999999999996,275078.0,30,151000.0,121147.0,16925.0,,,,9/24/2019,2019-11-09,,
132,nan,3130 BUHRE AVENUE,NY,10461.0,,,,,,,1350000.0,292.2077922077922,0,,C,https://www.loopnet.com/Listing/3130-Buhre-Ave-Bronx-NY/17281413/,17281413,Multifamily,1926,,,,Low Rise,,4620,5.00%,,3,,,2178.0,,6,,,,,,,9/24/2019,2019-11-09,,
133,nan,1168 WILLMOHR STREET,NY,11212.0,,,,,,,2180000.0,341.96078431372547,0,,C,https://www.loopnet.com/Listing/1168-Willmohr-St-Brooklyn-NY/17280714/,17280714,Multifamily,1920,,,,Low Rise,,6375,6.08%,,3,,,2613.6,,7,,,,,,,9/24/2019,2019-11-09,,
134,nan,449 BERRIMAN STREET,NY,11208.0,,,,,,,489000.0,244.5,0,,,https://www.loopnet.com/Listing/449-Berriman-St-Brooklyn-NY/17278302/,17278302,Multifamily,1950,,,,Low Rise,,2000,,,2,,,,,2,,,,,,,9/24/2019,2019-11-09,,
135,nan,2079 CONEY ISLAND AVENUE,NY,11223.0,,,,,,,3500000.0,530.3030303030303,0,,,https://www.loopnet.com/Listing/2079-Coney-Island-Ave-Brooklyn-NY/17271395/,17271395,Multifamily,1910,,,,,,6600,,,3,,,,,6,,,,,,,9/23/2019,2019-11-09,,
136,nan,81 MACON STREET,NY,11216.0,,,,,,,2795000.0,767.8571428571429,0,,C,https://www.loopnet.com/Listing/81-Macon-St-Brooklyn-NY/17265244/,17265244,Multifamily,1900,,,,,,3640,5.01%,,4,,,,,5,,,,,,,9/22/2019,2019-11-09,,
137,nan,1666-1668 BROADWAY,NY,,,,,,,,4750000.0,404.87555404023186,0,,B,https://www.loopnet.com/Listing/1666-1668-Broadway-Brooklyn-NY/17262233/,17262233,Multifamily,2016,,,,Mid Rise,100%,11732,4.88%,,4,17,,,,10,,,,,,,9/21/2019,2019-11-09,,
138,nan,83 MERCER STREET,NY,10012.0,,,,,,,33800000.0,2088.095385185643,0,,C,https://www.loopnet.com/Listing/83-Mercer-St-New-York-NY/17257680/,17257680,Multifamily,1892,,,,Mid Rise,83%,16187,,,7,,,2613.6,,6,,,,,,,9/20/2019,2019-11-09,,
139,nan,4317-4323 8 AVENUE,NY,11232.0,,,,,,,10000000.0,523.4505862646566,0,,C,https://www.loopnet.com/Listing/4317-4323-Eighth-Ave-Brooklyn-NY/17255021/,17255021,Multifamily,1935,,,,Mid Rise,,19104,,,4,,,6098.400000000001,,18,,,,,,,9/20/2019,2019-11-09,,
140,nan,285A KINGSLAND AVENUE,NY,11222.0,,,,,,,1799000.0,475.42283298097254,0,,,https://www.loopnet.com/Listing/285A-Kingsland-Ave-Brooklyn-NY/17244789/,17244789,Multifamily,1901,,,,Low Rise,,3784,,,3,,,1742.4,,3,,,,,,,9/19/2019,2019-11-09,,
141,nan,180 STOCKHOLM STREET,NY,11221.0,,,,,,,1200000.0,285.7142857142857,0,,,https://www.loopnet.com/Listing/180-Stockholm-St-Brooklyn-NY/17244059/,17244059,Multifamily,1910,,,,Low Rise,83%,4200,4.27%,,3,,,2613.6,,6,,,,,,,7/8/2019,2019-11-09,,
142,nan,63-67 EAST 236 STREET,NY,10470.0,,,,,,,3350000.0,291.71020550330894,0,,C,https://www.loopnet.com/Listing/63-67-E-236th-St-Bronx-NY/17240358/,17240358,Multifamily,1927,,,,Low Rise,,11484,,,3,,,3484.8,,14,,,,,,,9/19/2019,2019-11-09,,
143,nan,367 EAST 201 STREET,NY,10458.0,,,,,,,6950000.0,217.1875,0,,C,https://www.loopnet.com/Listing/367-E-201st-St-Bronx-NY/17236127/,17236127,Multifamily,1928,,,,Mid Rise,100%,32000,,614423.0,5,,614423.0,3484.8,295798.0,39,225074.0,93551.0,0.0,,,,9/18/2019,2019-11-09,,
144,nan,123 EAST 54 STREET,NY,10022.0,,,,,,,63000000.0,961.421071908192,0,,B,https://www.loopnet.com/Listing/123-E-54th-St-New-York-NY/17233467/,17233467,Multifamily,1977,,,,High Rise,100%,65528,,4200000.0,15,,0.0,6969.6,0.0,67,,,0.0,,,,9/18/2019,2019-11-09,,
145,nan,165 WEST END AVENUE,NY,10023.0,,,,,,,5000000.0,443.26241134751774,0,,C,https://www.loopnet.com/Listing/165-W-End-Ave-Brooklyn-NY/17231823/,17231823,Multifamily,1938,,,,Low Rise,96%,11280,5.71%,,3,,,6098.400000000001,,13,,,,,,,9/18/2019,2019-11-09,,
146,nan,225 BUSHWICK AVENUE,NY,11206.0,,,,,,,2499000.0,454.3636363636364,0,,C,https://www.loopnet.com/Listing/225-Bushwick-Ave-Brooklyn-NY/17231475/,17231475,Multifamily,1920,,,,Mid Rise,100%,5500,5.36%,,4,,,2613.6,,7,,,,,,,9/18/2019,2019-11-09,,
147,nan,25 BLEECKER STREET,NY,10012.0,,,,,,,6995000.0,864.4340088976767,0,,C,https://www.loopnet.com/Listing/25-Bleecker-St-New-York-NY/17229872/,17229872,Multifamily,1899,,,,Mid Rise,,8092,,,7,,,1306.8,,1,,,,,,,9/18/2019,2019-11-09,,
148,nan,567 VANDERBILT AVENUE,NY,11238.0,,,,,,,3995000.0,821.3404605263158,0,,C,https://www.loopnet.com/Listing/567-Vanderbilt-Ave-Brooklyn-NY/17229124/,17229124,Multifamily,1930,,,,Mid Rise,,4864,4.89%,,4,17.98,,1742.4,,7,,,,,,,9/18/2019,2019-11-09,,
149,nan,2545 23 STREET,NY,11102.0,,,,,,,1999000.0,666.3333333333334,0,,,https://www.loopnet.com/Listing/2545-23rd-St-Astoria-NY/17222459/,17222459,Multifamily,1970,,,,Low Rise,100%,3000,3.33%,78000.0,3,4,78000.0,2178.0,66600.0,3,1600.0,9800.0,0.0,,,,9/17/2019,2019-11-09,,
150,nan,318 EAST 160 STREET,NY,10451.0,,,,,,,1685000.0,278.05280528052805,0,,B,https://www.loopnet.com/Listing/318-E-160th-St-Bronx-NY/17218797/,17218797,Multifamily,1931,,,,Mid Rise,,6060,,,4,,,2613.6,,10,,,,,,,9/17/2019,2019-11-09,,
151,nan,355 GROVE STREET,NY,11237.0,,,,,,,1400000.0,287.1794871794872,0,,,https://www.loopnet.com/Listing/355-Grove-St-Brooklyn-NY/17211258/,17211258,Multifamily,1931,,,,,50%,4875,,,3,,,,,6,,,,,,,9/16/2019,2019-11-09,,
152,nan,2118-2120 COLLEGE POINT BOULEVARD,NY,11356.0,,,,,,,1798888.0,339.47688243064727,0,,B,https://www.loopnet.com/Listing/2118-2120-College-Point-Blvd-College-Point-NY/17211028/,17211028,Multifamily,1930,,,,Low Rise,100%,5299,4.57%,121260.0,3,,121260.0,,82260.0,5,0.0,0.0,0.0,,,,9/16/2019,2019-11-09,,
153,nan,8716 AVON STREET,NY,12203.0,,,,,,,5650000.0,313.8888888888889,0,,B,https://www.loopnet.com/Listing/8716-Avon-St-Jamaica-NY/17210848/,17210848,Multifamily,2013,,,,Mid Rise,100%,18000,5.94%,409752.0,4,,409752.0,7840.799999999999,335869.0,11,25370.0,48513.0,0.0,,,,9/16/2019,2019-11-09,,
154,nan,1740 RICHMOND TERRACE,NY,10310.0,,,,,,,1200000.0,259.9090318388564,0,,C,https://www.loopnet.com/Listing/1740-Richmond-Ter-Staten-Island-NY/17188863/,17188863,Multifamily,1930,,,,Low Rise,,4617,6.36%,,3,,,1306.8,,6,,,,,,,9/13/2019,2019-11-09,,
155,nan,88 HORTON AVENUE,NY,10801.0,,,,,,,699000.0,226.94805194805195,0,,C,https://www.loopnet.com/Listing/88-Horton-Ave-New-Rochelle-NY/17181415/,17181415,Multifamily,1927,,,,Garden,,3080,,,2,,,3920.3999999999996,,4,,,,,,,9/12/2019,2019-11-09,,
156,nan,780 BARTHOLDI STREET,NY,10467.0,,,,,,,899000.0,359.6,0,,C,https://www.loopnet.com/Listing/780-Bartholdi-St-Bronx-NY/17170724/,17170724,Multifamily,1910,,,,Mid Rise,,2500,4.96%,,3,,,,,3,,,,,,,9/11/2019,2019-11-09,,
157,nan,1727 EAST 14 STREET,NY,11229.0,,,,,,,1888000.0,359.6190476190476,0,,,https://www.loopnet.com/Listing/1727-E-14th-St-Brooklyn-NY/17165170/,17165170,Multifamily,1985,,,,,,5250,,,2,,,,,4,,,,,,,9/11/2019,2019-11-09,,
158,nan,1221 FOREST HILL ROAD,NY,10314.0,,,,,,,7990000.0,503.1486146095718,0,,C,https://www.loopnet.com/Listing/1221-Forest-Hill-Rd-Staten-Island-NY/17164667/,17164667,Multifamily,2021,,,,,,15880,,,2,,,26571.6,,18,,,,,,,9/11/2019,2019-11-09,,
159,nan,820 EAST 227 STREET,NY,10466.0,,,,,,,945000.0,314.37125748502996,0,,C,https://www.loopnet.com/Listing/820-E-227th-St-Bronx-NY/17158840/,17158840,Multifamily,1920,,,,Mid Rise,,3006,8.46%,86600.0,3,,86400.0,2613.6,79964.0,3,900.0,5736.0,0.0,,,,9/10/2019,2019-11-09,,
160,nan,316 TROUTMAN STREET,NY,11237.0,,,,,,,1262000.0,305.93939393939394,0,,,https://www.loopnet.com/Listing/316-Troutman-St-Brooklyn-NY/17154860/,17154860,Multifamily,1931,,,,Low Rise,100%,4125,5.76%,,3,,,2613.6,,6,,,,,,,9/10/2019,2019-11-09,,
161,nan,4617 4 AVENUE,NY,,,,,,,,1895000.0,509.40860215053766,0,,C,https://www.loopnet.com/Listing/4617-4th-Ave-Brooklyn-NY/17149380/,17149380,Multifamily,1899,,,,,,3720,,,5,,,,,2,,,,,,,9/9/2019,2019-11-09,,
162,nan,3354 99 STREET,NY,11368.0,,,,,,,8999998.0,684.9313546423135,0,,C,https://www.loopnet.com/Listing/3354-99th-St-Flushing-NY/17148993/,17148993,Multifamily,1927,,,,Mid Rise,,13140,,,4,,,3920.3999999999996,,32,,,,,,,9/9/2019,2019-11-09,,
163,nan,1129-1131 FOREST AVENUE,NY,11510.0,,,,,,,1600000.0,261.5233736515201,0,,C,https://www.loopnet.com/Listing/1129-1131-Forest-Ave-Bronx-NY/17146678/,17146678,Multifamily,1910,,,,Low Rise,,6118,8.02%,,3,,,3484.8,,6,,,,,,,9/9/2019,2019-11-09,,
164,nan,1916 OCEAN AVENUE,NY,11716.0,,,,,,,7000000.0,279.9552071668533,0,,B,https://www.loopnet.com/Listing/1916-Ocean-Ave-Brooklyn-NY/17124211/,17124211,Multifamily,2018,,,,Mid Rise,50%,25004,4.83%,,9,,,5227.2,,13,,,,,,,9/6/2019,2019-11-09,,
165,nan,336 EAST 53 STREET,NY,,,,,,,,13500000.0,1185.3542892264466,0,,C,https://www.loopnet.com/Listing/336-E-53rd-St-New-York-NY/17115973/,17115973,Multifamily,1920,,,,Mid Rise,,11389,,,6,,,2613.6,,6,,,,,,,9/5/2019,2019-11-09,,
166,nan,190 CHERRYTOWN ROAD,NY,12446.0,,,,,,,745000.0,372.5,0,,,https://www.loopnet.com/Listing/190-Cherrytown-Rd-Kerhonkson-NY/17114612/,17114612,Multifamily,1970,,,,,95%,2000,8.45%,104295.0,1,,110068.0,,62933.0,18,23932.0,17430.0,5773.0,,,,9/5/2019,2019-11-09,,
167,nan,73 HAMILTON AVENUE,NY,10705.0,,,,,,,1300000.0,469.82291290206,0,,C,https://www.loopnet.com/Listing/73-Hamilton-Ave-Yonkers-NY/17112304/,17112304,Multifamily,1950,,,,Low Rise,,2767,6.26%,119480.0,1,10.6,123175.0,3920.3999999999996,81430.0,8,24850.0,13200.0,3695.0,,,,9/5/2019,2019-11-09,,
168,nan,21 VAN CORTLANDT PARK AVENUE,NY,10701.0,,,,,,,1150000.0,262.0186830713146,0,,B,https://www.loopnet.com/Listing/21-Van-Cortlandt-Pk-Ave-Yonkers-NY/17094712/,17094712,Multifamily,1947,,,,,,4389,7.80%,,3,,,2178.0,,5,,,,,,,9/3/2019,2019-11-09,,
169,nan,409-413 BROADWAY,NY,11968.0,,,,,,,11950000.0,531.2527785187161,0,,B,https://www.loopnet.com/Listing/409-413-Broadway-Brooklyn-NY/17094268/,17094268,Multifamily,2011,,,,Mid Rise,,22494,6.00%,,6,,,,,22,,,,,,,9/3/2019,2019-11-09,,
170,nan,623 LORIMER STREET,NY,11211.0,,,,,,,2399000.0,740.4320987654321,0,,,https://www.loopnet.com/Listing/623-Lorimer-St-Brooklyn-NY/17094185/,17094185,Multifamily,1899,,,,,,3240,,,4,,,,,4,,,,,,,9/3/2019,2019-11-09,,
171,nan,365 STERLING PLACE,NY,11238.0,,,,,,,3795000.0,1096.820809248555,0,,C,https://www.loopnet.com/Listing/365-Sterling-Pl-Brooklyn-NY/17093561/,17093561,Multifamily,1900,,,,Mid Rise,,3460,2.94%,147000.0,4,,147000.0,,111717.0,5,21133.0,14150.0,0.0,,,,9/3/2019,2019-11-09,,
172,nan,133 HILLSIDE PLACE,NY,10709.0,,,,,,,4295000.0,340.14413558248197,0,,C,https://www.loopnet.com/Listing/133-Hillside-Pl-Eastchester-NY/17092222/,17092222,Multifamily,1928,,,,Low Rise,,12627,6.09%,346590.0,3,,327359.0,6969.6,261686.0,8,18625.0,66279.0,4354.0,,,,8/28/2019,2019-11-09,,
173,nan,439 WEST FERRY STREET,NY,14213.0,,,,,,,525000.0,79.2572463768116,0,,B,https://www.loopnet.com/Listing/439-W-Ferry-St-Buffalo-NY/17089407/,17089407,Multifamily,1910,,,,Mid Rise,100%,6624,7.06%,51165.0,3,,53100.0,4356.0,37078.0,6,0.0,0.0,2655.0,,,,9/2/2019,2019-11-09,,
174,nan,5 RIVINGTON STREET,NY,10002.0,,,,,,,8750000.0,894.5001022285832,0,,C,https://www.loopnet.com/Listing/5-Rivington-St-New-York-NY/17064385/,17064385,Multifamily,1900,,,,Mid Rise,,9782,5.06%,527131.0,5,,527131.0,2613.6,433183.0,18,0.0,0.0,0.0,,,,8/29/2019,2019-11-09,,
175,nan,385 MONROE STREET,NY,11221.0,,,,,,,3850000.0,226.47058823529412,0,,B,https://www.loopnet.com/Listing/385-Monroe-St-Brooklyn-NY/17047653/,17047653,Multifamily,1913,,,,Mid Rise,62%,17000,,,4,,,5227.2,,17,,,,,,,8/28/2019,2019-11-09,,
176,nan,1049 ELMWOOD AVENUE,NY,14739.0,,,,,,,374000.0,128.3459162663006,0,,,https://www.loopnet.com/Listing/1049-Elmwood-Ave-Buffalo-NY/17039808/,17039808,Multifamily,1900,,,,Mid Rise,,2914,,,3,,,,,3,,,,,,,8/27/2019,2019-11-09,,
177,nan,409 SUYDAM STREET,NY,11237.0,,,,,,,1500000.0,307.6923076923077,0,,B,https://www.loopnet.com/Listing/409-Suydam-St-Brooklyn-NY/17032356/,17032356,Multifamily,1931,,,,High Rise,100%,4875,,97708.0,3,,97708.0,2613.6,74794.0,6,0.0,0.0,0.0,,,,8/26/2019,2019-11-09,,
178,nan,155 WEST 9 STREET,NY,11231.0,,,,,,,2200000.0,1078.4313725490197,0,,,https://www.loopnet.com/Listing/155-W-9th-St-Brooklyn-NY/17030109/,17030109,Multifamily,1920,,,,,,2040,,,3,,,,,3,,,,,,,8/26/2019,2019-11-09,,
179,nan,1648 LIBRARY AVENUE,NY,10465.0,,,,,,,1398000.0,456.8627450980392,0,,,https://www.loopnet.com/Listing/1648-Library-Ave-Bronx-NY/17025261/,17025261,Multifamily,1925,,,,,,3060,,,3,,,7405.200000000001,,2,,,,,,,8/25/2019,2019-11-09,,
180,nan,4725 44 STREET,NY,11377.0,,,,,,,1800000.0,349.65034965034965,0,,B,https://www.loopnet.com/Listing/4725-44th-St-Woodside-NY/17022891/,17022891,Multifamily,1928,,,,Low Rise,,5148,3.25%,,3,,,,,6,,,,,,,8/24/2019,2019-11-09,,
181,nan,469 JAMES STREET,NY,13057.0,,,,,,,1200000.0,114.95353961107386,0,,C,https://www.loopnet.com/Listing/469-James-St-Syracuse-NY/17009532/,17009532,Multifamily,1965,,,,Low Rise,,10439,,,4,,,9583.2,,34,,,,,,,8/23/2019,2019-11-09,,
182,nan,161 BALLANTYNE ROAD,NY,13205.0,,,,,,,8590000.0,68.58283433133732,0,,C,https://www.loopnet.com/Listing/161-Ballantyne-Rd-Syracuse-NY/17006741/,17006741,Multifamily,1964,,,,Garden,95%,125250,7.79%,1211060.0,3,6.86,1252752.0,141570.0,669493.0,140,408739.0,132828.0,80552.0,,,,8/22/2019,2019-11-09,,
183,nan,1363 HANCOCK STREET,NY,11237.0,,,,,,,2700000.0,618.1318681318681,0,,,https://www.loopnet.com/Listing/1363-Hancock-St-Brooklyn-NY/16998926/,16998926,Multifamily,1901,,,,Low Rise,,4368,5.78%,,4,,,,,6,,,,,,,8/22/2019,2019-11-09,,
184,nan,2208 LIGHT STREET,NY,10466.0,,,,,,,950000.0,299.87373737373736,0,,,https://www.loopnet.com/Listing/2208-Light-St-Bronx-NY/16993373/,16993373,Multifamily,1930,,,,Low Rise,100%,3168,5.87%,,3,11.8,,4791.6,,4,,,,,,,7/31/2019,2019-11-09,,
185,nan,163 WEST 161 STREET,NY,12550.0,,,,,,,950000.0,241.73027989821884,0,,B,https://www.loopnet.com/Listing/163-W-161st-St-Bronx-NY/16993371/,16993371,Multifamily,2003,,,,Low Rise,100%,3930,4.00%,,4,,,,,4,,,,,,,5/14/2019,2019-11-09,,
186,nan,711 CROTONA PARK NORTH,NY,10457.0,,,,,,,925000.0,264.2857142857143,0,,,https://www.loopnet.com/Listing/711-Crotona-Park-N-Bronx-NY/16993369/,16993369,Multifamily,1931,,,,Low Rise,100%,3500,8.70%,,4,7.6,,3049.2000000000003,,8,,,,,,,4/1/2019,2019-11-09,,
187,nan,477 JAMES STREET,NY,12207.0,,,,,,,449000.0,20.348046768784556,0,,C,https://www.loopnet.com/Listing/477-James-St-Syracuse-NY/16982800/,16982800,Multifamily,1890,,,,Low Rise,,22066,,,3,,,8712.0,,38,,,,,,,8/21/2019,2019-11-09,,
188,nan,137 MADISON AVENUE,NY,12202.0,,,,,,,825000.0,95.93023255813954,0,,B,https://www.loopnet.com/Listing/137-Madison-Ave-Albany-NY/16974556/,16974556,Multifamily,1894,,,,Low Rise,,8600,7.15%,,3,,,4356.0,,9,,,,,,,8/20/2019,2019-11-09,,
189,nan,115 MOFFAT STREET,NY,11207.0,,,,,,,1799000.0,899.5,0,,,https://www.loopnet.com/Listing/115-Moffat-St-Brooklyn-NY/16974167/,16974167,Multifamily,1926,,,,,,2000,5.14%,,3,,,,,5,,,,,,,8/20/2019,2019-11-09,,
190,nan,509 EAST 87 STREET,NY,10128.0,,,,,,,11450000.0,966.2447257383966,0,,B,https://www.loopnet.com/Listing/509-E-87th-St-New-York-NY/16973291/,16973291,Multifamily,1910,,,,Mid Rise,100%,11850,4.00%,,6,20,,2613.6,,10,,,,,,,8/20/2019,2019-11-09,,
191,nan,1321 1323 1325 PURDY STREET,NY,10462.0,,,,,,,6000000.0,347.62456546929315,0,,C,https://www.loopnet.com/Listing/1321-1323-1325-Purdy-St-Bronx-NY/16971016/,16971016,Multifamily,2008,,,,Mid Rise,100%,17260,5.29%,429000.0,4,,429000.0,9147.6,312142.0,23,49023.0,67835.0,0.0,,,,8/20/2019,2019-11-09,,
192,nan,104 SAINT MARKS PLACE,NY,10301.0,,,,,,,749900.0,159.96160409556313,0,,,https://www.loopnet.com/Listing/104-Saint-Marks-Pl-Staten-Island-NY/16965289/,16965289,Multifamily,1887,,,,Low Rise,,4688,,,3,10,,,,7,,,,,,,8/19/2019,2019-11-09,,
193,nan,184 RICHMOND STREET,NY,11208.0,,,,,,,830000.0,332.0,0,,,https://www.loopnet.com/Listing/184-Richmond-St-Brooklyn-NY/16960895/,16960895,Multifamily,1930,,,,Mid Rise,,2500,,,2,,,,,2,,,,,,,8/18/2019,2019-11-09,,
194,nan,1100 BLAKE AVENUE,NY,11208.0,,,,,,,985000.0,246.1884528867783,0,,B,https://www.loopnet.com/Listing/1100-Blake-Ave-Brooklyn-NY/16939187/,16939187,Multifamily,1905,,,,Low Rise,,4001,,,3,,,,,3,,,,,,,8/16/2019,2019-11-09,,
195,nan,45 CEDAR STREET,NY,11221.0,,,,,,,4200000.0,633.6753168376584,0,,,https://www.loopnet.com/Listing/45-Cedar-St-Brooklyn-NY/16932075/,16932075,Multifamily,2015,,,,,,6628,,,4,,,,,8,,,,,,,8/15/2019,2019-11-09,,
196,nan,53 ELMWOOD AVENUE,NY,10308.0,,,,,,,479900.0,110.78024007386888,0,,C,https://www.loopnet.com/Listing/53-Elmwood-Ave-Buffalo-NY/16928419/,16928419,Multifamily,1960,,,,Low Rise,100%,4332,8.63%,,3,,,3920.3999999999996,,6,,,,,,,8/15/2019,2019-11-09,,
197,nan,1117 JEFFERSON AVENUE,NY,11221.0,,,,,,,2695000.0,484.3637670740475,0,,C,https://www.loopnet.com/Listing/1117-Jefferson-Ave-Brooklyn-NY/16928391/,16928391,Multifamily,1905,,,,Low Rise,100%,5564,,166800.0,4,,166800.0,2178.0,148202.0,4,18598.0,0.0,0.0,,,,8/15/2019,2019-11-09,,
198,nan,148 BAXTER STREET,NY,10013.0,,,,,,,5500000.0,1007.3260073260074,0,,B,https://www.loopnet.com/Listing/148-Baxter-St-New-York-NY/16928320/,16928320,Multifamily,1920,,,,Mid Rise,,5460,5.50%,,5,,,1306.8,,5,,,,,,,8/15/2019,2019-11-09,,
199,nan,2909 CORTELYOU ROAD,NY,11226.0,,,,,,,849900.0,379.41964285714283,0,,,https://www.loopnet.com/Listing/2909-Cortelyou-Rd-Brooklyn-NY/16928149/,16928149,Multifamily,1925,,,,Low Rise,100%,2240,,,2,,,2178.0,,2,,,,,,,8/15/2019,2019-11-09,,
200,nan,5821 69 AVENUE,NY,11385.0,,,,,,,1150000.0,336.2573099415205,0,,,https://www.loopnet.com/Listing/5821-69th-Ave-Ridgewood-NY/16921702/,16921702,Multifamily,1909,,,,Low Rise,,3420,,,2,,,2178.0,,2,,,,,,,8/14/2019,2019-11-09,,
201,nan,271 BROAD STREET,NY,12202.0,,,,,,,699000.0,364.0625,0,,B,https://www.loopnet.com/Listing/271-Broad-St-Staten-Island-NY/16918764/,16918764,Multifamily,2019,,,,Low Rise,0%,1920,7.50%,,3,,,,,3,,,,,,,8/14/2019,2019-11-09,,
202,nan,1027 EAST 215 STREET,NY,10469.0,,,,,,,499000.0,290.454016298021,0,,,https://www.loopnet.com/Listing/1027-E-215th-St-Bronx-NY/16915141/,16915141,Multifamily,1925,,,,Low Rise,,1718,,,2,,,,,2,,,,,,,8/14/2019,2019-11-09,,
203,nan,1564 PROSPECT PLACE,NY,11233.0,,,,,,,2000000.0,343.64261168384877,0,,C,https://www.loopnet.com/Listing/1564-Prospect-Pl-Brooklyn-NY/16906018/,16906018,Multifamily,2006,,,,Low Rise,,5820,6.30%,,3,,,3049.2000000000003,,6,,,,,,,8/13/2019,2019-11-09,,
204,nan,281 23 STREET,NY,11215.0,,,,,,,3499000.0,658.5733107472238,0,,C,https://www.loopnet.com/Listing/281-23rd-St-Brooklyn-NY/16901826/,16901826,Multifamily,1931,,,,Low Rise,,5313,,,3,,,2613.6,,12,,,,,,,8/13/2019,2019-11-09,,
205,nan,84 MEAD STREET,NY,13856.0,,,,,,,199000.0,38.8671875,0,,B,https://www.loopnet.com/Listing/84-Mead-St-Walton-NY/16891952/,16891952,Multifamily,1850,,,,,100%,5120,10.00%,31000.0,2,5.5,36000.0,10890.0,15200.0,5,13000.0,2800.0,5000.0,,,,8/12/2019,2019-11-09,,
206,nan,101 DANIEL LOW TERRACE,NY,10301.0,,,,,,,12999000.0,105.16990291262135,0,,,https://www.loopnet.com/Listing/101-Daniel-Low-Ter-Staten-Island-NY/16891297/,16891297,Multifamily,1966,,,,High Rise,,123600,5.60%,1940000.0,6,,2000000.0,61855.2,729106.0,112,936500.0,274394.0,60000.0,,,,8/12/2019,2019-11-09,,
207,nan,482 JEFFERSON AVENUE,NY,11221.0,,,,,,,1399000.0,431.7901234567901,0,,,https://www.loopnet.com/Listing/482-Jefferson-Ave-Brooklyn-NY/16890007/,16890007,Multifamily,1899,,,,Low Rise,100%,3240,7.48%,,3,,,,,3,,,,,,,8/12/2019,2019-11-09,,
208,nan,203 GRAND STREET,NY,12550.0,,,,,,,789000.0,200.86558044806517,0,,C,https://www.loopnet.com/Listing/203-Grand-St-Newburgh-NY/16887352/,16887352,Multifamily,1880,,,,Low Rise,,3928,7.00%,84900.0,3,9.9,84900.0,3920.3999999999996,53577.0,6,14880.0,16443.0,0.0,,,,8/12/2019,2019-11-09,,
209,nan,97 WAVERLY STREET,NY,10701.0,,,,,,,900000.0,182.62987012987014,0,,B,https://www.loopnet.com/Listing/97-Waverly-St-Yonkers-NY/16872326/,16872326,Multifamily,1965,,,,,,4928,,,3,,,1742.4,,5,,,,,,,8/9/2019,2019-11-09,,
210,nan,67 CARYL AVENUE,NY,10705.0,,,,,,,795000.0,201.3677811550152,0,,C,https://www.loopnet.com/Listing/67-Caryl-Ave-Yonkers-NY/16872191/,16872191,Multifamily,1967,,,,,,3948,,,2,,,,,4,,,,,,,8/9/2019,2019-11-09,,
211,nan,66 3 AVENUE,NY,11223.0,,,,,,,299000.0,122.04081632653062,0,,,https://www.loopnet.com/Listing/66-3rd-Ave-Kingston-NY/16871702/,16871702,Multifamily,1928,,,,Mid Rise,100%,2450,6.13%,,3,9.7,,7840.799999999999,,3,,,,,,,8/9/2019,2019-11-09,,
212,nan,353 MADISON AVENUE,NY,12210.0,,,,,,,939000.0,123.55263157894737,0,,B,https://www.loopnet.com/Listing/353-Madison-Ave-Albany-NY/16849594/,16849594,Multifamily,1827,,,,Low Rise,100%,7600,8.37%,,4,,,5662.8,,10,,,,,,,8/7/2019,2019-11-09,,
213,nan,37 APOLLO STREET,NY,11222.0,,,,,,,2000000.0,701.7543859649123,0,,,https://www.loopnet.com/Listing/37-Apollo-St-Brooklyn-NY/16830192/,16830192,Multifamily,1899,,,,Garden,,2850,5.00%,,3,,,,,2,,,,,,,8/6/2019,2019-11-09,,
214,nan,58 DECATUR STREET,NY,11216.0,,,,,,,1795000.0,535.1818723911747,0,,C,https://www.loopnet.com/Listing/58-Decatur-St-Brooklyn-NY/16829635/,16829635,Multifamily,1910,,,,Mid Rise,,3354,5.34%,,4,,,1306.8,,7,,,,,,,8/6/2019,2019-11-09,,
215,nan,2538 43 STREET,NY,11103.0,,,,,,,5000000.0,456.2043795620438,0,,C,https://www.loopnet.com/Listing/2538-43rd-St-Astoria-NY/16829622/,16829622,Multifamily,1928,,,,Mid Rise,,10960,,,4,,,4356.0,,20,,,,,,,8/6/2019,2019-11-09,,
216,nan,2848 WEST 15 STREET,NY,11224.0,,,,,,,9500000.0,522.0640764961257,0,,A,https://www.loopnet.com/Listing/2848-W-15th-St-Brooklyn-NY/16829429/,16829429,Multifamily,2019,,,,Mid Rise,,18197,6.39%,699000.0,5,,699000.0,6969.6,607000.0,21,0.0,0.0,0.0,,,,6/9/2019,2019-11-09,,
217,nan,31-01 21 STREET,NY,11106.0,,,,,,,3900000.0,696.4285714285714,0,,C,https://www.loopnet.com/Listing/31-01-21st-St-Long-Island-City-NY/16825504/,16825504,Multifamily,1930,,,,Mid Rise,100%,5600,4.30%,,4,,,1742.4,,7,,,,,,,8/5/2019,2019-11-09,,
218,nan,287 PROSPECT AVENUE,NY,11215.0,,,,,,,24500000.0,744.047619047619,0,,B,https://www.loopnet.com/Listing/287-Prospect-Ave-Brooklyn-NY/16822352/,16822352,Multifamily,1998,,,,Mid Rise,100%,32928,4.82%,,8,,,13503.6,,52,,,,,,,8/5/2019,2019-11-09,,
219,nan,4214 111 STREET,NY,11368.0,,,,,,,1675000.0,957.1428571428571,0,,,https://www.loopnet.com/Listing/4214-111th-St-Corona-NY/16793111/,16793111,Multifamily,1925,,,,Low Rise,100%,1750,,,2,,,4791.6,,2,,,,,,,8/2/2019,2019-11-09,,
220,nan,10018 40 ROAD,NY,11963.0,,,,,,,3200000.0,488.1025015253203,0,,B,https://www.loopnet.com/Listing/10018-40th-Rd-Corona-NY/16792255/,16792255,Multifamily,2006,,,,Mid Rise,100%,6556,5.34%,,4,,,2613.6,,10,,,,,,,8/2/2019,2019-11-09,,
221,nan,85-35 118 STREET,NY,11415.0,,,,,,,1075000.0,231.68103448275863,0,,C,https://www.loopnet.com/Listing/85-35-118th-St-Kew-Gardens-NY/16791842/,16791842,Multifamily,1972,,,,Garden,,4640,,,3,,,4356.0,,6,,,,,,,8/2/2019,2019-11-09,,
222,nan,215 21 STREET,NY,11232.0,,,,,,,2295000.0,355.1532033426184,0,,C,https://www.loopnet.com/Listing/215-21st-St-Brooklyn-NY/16786335/,16786335,Multifamily,1931,,,,Low Rise,,6462,,,3,,,2613.6,,6,,,,,,,8/1/2019,2019-11-09,,
223,nan,357 WEST 54 STREET,NY,10019.0,,,,,,,9200000.0,1008.7719298245614,0,,C,https://www.loopnet.com/Listing/357-W-54th-St-New-York-NY/16784541/,16784541,Multifamily,1910,,,,Mid Rise,,9120,3.40%,,5,,,2613.6,,21,,,,,,,7/15/2019,2019-11-09,,
224,nan,34 LAKEVIEWDRIVEIVE,NY,11949.0,,,,,,,975000.0,423.9130434782609,0,,C,https://www.loopnet.com/Listing/34-Lakeview-Dr-Monroe-NY/16777539/,16777539,Multifamily,2000,,,,,,2300,,,2,,,,,3,,,,,,,7/31/2019,2019-11-09,,
225,nan,18 COYLE PLACE,NY,10705.0,,,,,,,4200000.0,219.89528795811518,0,,C,https://www.loopnet.com/Listing/18-Coyle-Pl-Yonkers-NY/16767117/,16767117,Multifamily,1910,,,,Mid Rise,100%,19100,5.49%,,4,11.37,,6534.0,,21,,,,,,,7/30/2019,2019-11-09,,
226,nan,6645 MYRTLE AVENUE,NY,12208.0,,,,,,,1850000.0,483.1548707234265,0,,,https://www.loopnet.com/Listing/6645-Myrtle-Ave-Glendale-NY/16762581/,16762581,Multifamily,1931,,,,Low Rise,100%,3829,,,3,,,,,3,,,,,,,7/30/2019,2019-11-09,,
227,nan,4276 BAILEY AVENUE,NY,14226.0,,,,,,,425000.0,65.62693020382953,0,,C,https://www.loopnet.com/Listing/4276-Bailey-Ave-Buffalo-NY/16761972/,16761972,Multifamily,1950,,,,Low Rise,,6476,8.50%,,2,,,10018.800000000001,,2,,,,,,,7/30/2019,2019-11-09,,
228,nan,4279 KATONAH AVENUE,NY,10470.0,,,,,,,1225000.0,324.0740740740741,0,,C,https://www.loopnet.com/Listing/4279-Katonah-Ave-Bronx-NY/16761469/,16761469,Multifamily,1930,,,,Low Rise,100%,3780,,,3,,,2178.0,,5,,,,,,,7/30/2019,2019-11-09,,
229,nan,600 WYONA STREET,NY,11207.0,,,,,,,1300000.0,235.80627607473244,0,,C,https://www.loopnet.com/Listing/600-Wyona-St-Brooklyn-NY/16761353/,16761353,Multifamily,1930,,,,Low Rise,100%,5513,6.63%,,3,,,2178.0,,6,,,,,,,7/30/2019,2019-11-09,,
230,nan,117 MORRIS STREET,NY,12208.0,,,,,,,889000.0,204.367816091954,0,,C,https://www.loopnet.com/Listing/117-Morris-St-Yonkers-NY/16754671/,16754671,Multifamily,1905,,,,Low Rise,100%,4350,7.58%,,3,9.05,,2613.6,,4,,,,,,,7/29/2019,2019-11-09,,
231,nan,15 MAIN STREET,NY,12589.0,,,,,,,695000.0,136.27450980392157,0,,C,https://www.loopnet.com/Listing/15-Main-St-Wallkill-NY/16752266/,16752266,Multifamily,1911,,,,Low Rise,100%,5100,8.47%,,3,,,16117.199999999999,,6,,,,,,,4/30/2019,2019-11-09,,
232,nan,194 UTICA AVENUE,NY,11213.0,,,,,,,3600000.0,470.95761381475666,0,,B,https://www.loopnet.com/Listing/194-Utica-Ave-Brooklyn-NY/16734898/,16734898,Multifamily,1906,,,,Mid Rise,,7644,,,4,,,3049.2000000000003,,16,,,,,,,7/26/2019,2019-11-09,,
233,nan,611-620 NORTH PEARL STREET,NY,12204.0,,,,,,,899000.0,70.8097038437303,0,,C,https://www.loopnet.com/Listing/611-620-N-Pearl-St-Albany-NY/16734862/,16734862,Multifamily,1930,,,,Low Rise,,12696,,161880.0,3,,161880.0,6969.6,93604.0,20,39876.0,28400.0,0.0,,,,7/26/2019,2019-11-09,,
234,nan,670A GREENE AVENUE,NY,11221.0,,,,,,,1999999.0,833.3329166666666,0,,C,https://www.loopnet.com/Listing/670a-Greene-Ave-Brooklyn-NY/16715256/,16715256,Multifamily,1931,,,,Low Rise,100%,2400,6.07%,,3,,,1742.4,,6,,,,,,,5/15/2019,2019-11-09,,
235,nan,1854 MADISON STREET,NY,11385.0,,,,,,,1875000.0,328.94736842105266,0,,C,https://www.loopnet.com/Listing/1854-Madison-St-Ridgewood-NY/16700924/,16700924,Multifamily,1930,,,,,,5700,6.80%,129600.0,3,11.07,129600.0,2613.6,92834.0,6,0.0,0.0,0.0,,,,7/24/2019,2019-11-09,,
236,nan,15 LANE STREET,NY,10701.0,,,,,,,789000.0,219.16666666666666,0,,,https://www.loopnet.com/Listing/15-Lane-St-Yonkers-NY/16698470/,16698470,Multifamily,1923,,,,Low Rise,100%,3600,6.34%,,3,,,,,4,,,,,,,7/23/2019,2019-11-09,,
237,nan,9415 54 AVENUE,NY,,,,,,,,1500000.0,516.5289256198347,0,,,https://www.loopnet.com/Listing/9415-54th-Ave-Elmhurst-NY/16689322/,16689322,Multifamily,1920,,,,Low Rise,,2904,,,2,,,,,3,,,,,,,7/22/2019,2019-11-09,,
238,nan,599 QUINCY STREET,NY,11221.0,,,,,,,3199000.0,604.0407854984894,0,,C,https://www.loopnet.com/Listing/599-Quincy-St-Brooklyn-NY/16683678/,16683678,Multifamily,1931,,,,Mid Rise,100%,5296,5.01%,,4,,,2178.0,,8,,,,,,,7/22/2019,2019-11-09,,
239,nan,32-57 STEINWAY STREET,NY,11103.0,,,,,,,4975000.0,414.72157385795265,0,,C,https://www.loopnet.com/Listing/32-57-Steinway-St-Astoria-NY/16663146/,16663146,Multifamily,1923,,,,Mid Rise,100%,11996,4.37%,370668.0,4,13.42,370668.0,3484.8,217460.0,16,86284.0,66924.0,0.0,,,,7/19/2019,2019-11-09,,
240,nan,3255 STEINWAY STREET,NY,11103.0,,,,,,,4975000.0,414.5833333333333,0,,C,https://www.loopnet.com/Listing/3255-Steinway-St-Astoria-NY/16662997/,16662997,Multifamily,1923,,,,Mid Rise,100%,12000,4.89%,390720.0,4,12.73,390720.0,12196.800000000001,243170.0,16,73395.0,74155.0,0.0,,,,7/19/2019,2019-11-09,,
241,nan,266 BOWERY,NY,10012.0,,,,,,,5500000.0,1065.0658404337723,0,,F,https://www.loopnet.com/Listing/266-Bowery-New-York-NY/16662705/,16662705,Multifamily,1920,,,,Mid Rise,,5164,,,4,,,1742.4,,4,,,,,,,7/19/2019,2019-11-09,,
242,nan,350 WEST 145 STREET,NY,11223.0,,,,,,,2000000.0,198.4126984126984,0,,C,https://www.loopnet.com/Listing/350-W-145th-St-New-York-NY/16662215/,16662215,Multifamily,1910,,,,Mid Rise,,10080,,,4,,,1742.4,,8,,,,,,,7/19/2019,2019-11-09,,
243,nan,1458 ROCHESTER STREET,NY,14485.0,,,,,,,325000.0,46.514956347502505,0,,,https://www.loopnet.com/Listing/1458-Rochester-St-Lima-NY/16660691/,16660691,Multifamily,1900,,,,Garden,100%,6987,,,1,,,87555.59999999999,,6,,,,,,,7/19/2019,2019-11-09,,
244,nan,142 WEST MILTON ROAD,NY,12020.0,,,,,,,899000.0,742.9752066115702,0,,C,https://www.loopnet.com/Listing/142-W-Milton-Rd-Ballston-Spa-NY/16654489/,16654489,Multifamily,1965,,,,Low Rise,88%,1210,7.56%,116160.0,1,,132000.0,268765.2,67994.0,16,33860.0,14306.0,15840.0,,,,7/18/2019,2019-11-09,,
245,nan,143 NOBLE STREET,NY,11222.0,,,,,,,4250000.0,704.2253521126761,0,,,https://www.loopnet.com/Listing/143-Noble-St-Brooklyn-NY/16650759/,16650759,Multifamily,1930,,,,Low Rise,75%,6035,,,4,,,2178.0,,4,,,,,,,7/18/2019,2019-11-09,,
246,nan,2598 36 STREET,NY,11103.0,,,,,,,19900000.0,390.88587703791006,0,,C,https://www.loopnet.com/Listing/2598-36th-St-Astoria-NY/16641092/,16641092,Multifamily,1931,,,,Mid Rise,,50910,3.88%,1233091.0,6,16.14,1233091.0,11325.6,771251.0,59,213088.0,248752.0,0.0,,,,7/17/2019,2019-11-09,,
247,nan,2020 23 STREET,NY,11939.0,,,,,,,1895000.0,683.6219336219336,0,,C,https://www.loopnet.com/Listing/2020-23rd-St-Astoria-NY/16636842/,16636842,Multifamily,1945,,,,Low Rise,100%,2772,4.16%,,3,,,3484.8,,3,,,,,,,7/17/2019,2019-11-09,,
248,nan,382 TROUTMAN STREET,NY,11237.0,,,,,,,2650000.0,576.0869565217391,0,,,https://www.loopnet.com/Listing/382-Troutman-St-Brooklyn-NY/16635329/,16635329,Multifamily,1910,,,,Low Rise,100%,4600,8.49%,144000.0,2,,144000.0,,120000.0,5,0.0,0.0,0.0,,,,7/17/2019,2019-11-09,,
249,nan,6522 80 STREET,NY,11379.0,,,,,,,968000.0,469.21958313136207,0,,,https://www.loopnet.com/Listing/6522-80th-St-Middle-Village-NY/16635156/,16635156,Specialty,1925,,,,,,2063,,50400.0,3,,50400.0,2178.0,0.0,,0.0,7571.0,0.0,,,,7/17/2019,2019-11-09,,
250,nan,596 BALTIC STREET,NY,11217.0,,,,,,,2895000.0,646.2053571428571,0,,,https://www.loopnet.com/Listing/596-Baltic-St-Brooklyn-NY/16627587/,16627587,Multifamily,1915,,,,,,4480,,,4,,,,,4,,,,,,,7/16/2019,2019-11-09,,
251,nan,397 COLUMBUS AVENUE,NY,10707.0,,,,,,,2495000.0,495.7281939201272,0,,,https://www.loopnet.com/Listing/397-Columbus-Ave-Tuckahoe-NY/16627413/,16627413,Multifamily,1920,,,,Mid Rise,,5033,5.56%,,3,,,4356.0,,8,,,,,,,7/16/2019,2019-11-09,,
252,nan,215 GENESEE STREET,NY,13021.0,,,,,,,3900000.0,144.46584679211736,0,,C,https://www.loopnet.com/Listing/215-Genesee-St-Auburn-NY/16626335/,16626335,Multifamily,1968,,,,Low Rise,100%,26996,9.53%,371697.0,3,,371697.0,47916.00000000001,136030.0,57,171157.0,64510.0,0.0,,,,7/16/2019,2019-11-09,,
253,nan,63-65 SOUTH STREET,NY,13021.0,,,,,,,4320000.0,94.01318796108899,0,,C,https://www.loopnet.com/Listing/63-65-South-St-Auburn-NY/16626324/,16626324,Multifamily,1930,,,,Low Rise,100%,45951,,414754.0,3,,414754.0,87120.0,189144.0,60,164117.0,61493.0,0.0,,,,7/16/2019,2019-11-09,,
254,nan,302 MOTT STREET,NY,10012.0,,,,,,,21500000.0,1060.3146422054544,0,,B,https://www.loopnet.com/Listing/302-Mott-St-New-York-NY/16621296/,16621296,Multifamily,1905,,,,Mid Rise,,20277,,,7,,,4791.6,,48,,,,,,,7/15/2019,2019-11-09,,
255,nan,2127 PACIFIC STREET,NY,11233.0,,,,,,,899000.0,358.7390263367917,0,,C,https://www.loopnet.com/Listing/2127-Pacific-St-Brooklyn-NY/16621060/,16621060,Multifamily,1901,,,,Low Rise,,2506,,,3,,,1742.4,,3,,,,,,,7/15/2019,2019-11-09,,
256,nan,355 NEW LOTS AVENUE,NY,11207.0,,,,,,,2036000.0,502.09617755856965,0,,,https://www.loopnet.com/Listing/355-New-Lots-Ave-Brooklyn-NY/16620624/,16620624,Multifamily,1930,,,,Low Rise,,4055,6.77%,,3,,,,,5,,,,,,,7/15/2019,2019-11-09,,
257,nan,44 CALVERT STREET,NY,10528.0,,,,,,,2495000.0,124.75,0,,C,https://www.loopnet.com/Listing/44-Calvert-St-Harrison-NY/16614244/,16614244,Multifamily,1967,,,,,100%,20000,6.59%,205247.0,3,,194136.0,2613.6,156711.0,10,22536.0,26000.0,4189.0,,,,7/14/2019,2019-11-09,,
258,nan,464 COLUMBUS AVENUE,NY,10024.0,,,,,,,9900000.0,907.9236977256053,0,,C,https://www.loopnet.com/Listing/464-Columbus-Ave-New-York-NY/16596303/,16596303,Multifamily,1900,,,,Mid Rise,100%,10904,,,5,,,2613.6,,8,,,,,,,7/12/2019,2019-11-09,,
259,nan,2519 34 STREET,NY,12553.0,,,,,,,2800000.0,455.2845528455285,0,,C,https://www.loopnet.com/Listing/2519-34th-St-Astoria-NY/16583498/,16583498,Multifamily,1923,,,,Low Rise,100%,6150,4.18%,153180.0,3,18.2,153180.0,2613.6,116958.0,6,20000.0,16222.0,0.0,,,,7/11/2019,2019-11-09,,
260,nan,150-01 NORTHERN BOULEVARD,NY,11354.0,,,,,,,4280000.0,545.2229299363057,0,,B,https://www.loopnet.com/Listing/150-01-Northern-Blvd-Flushing-NY/16577689/,16577689,Multifamily,2004,,,,Mid Rise,,7850,5.60%,,5,,,2178.0,,4,,,,,,,7/10/2019,2019-11-09,,
261,nan,2781 OCEAN AVENUE,NY,11229.0,,,,,,,499000.0,7.171085722497665,0,,B,https://www.loopnet.com/Listing/2781-Ocean-Ave-Brooklyn-NY/16575592/,16575592,Multifamily,1957,,,,Mid Rise,,69585,,,6,,,18730.8,,5,,,,,,,7/10/2019,2019-11-09,,
262,nan,147 DUANE STREET,NY,10013.0,,,,,,,7750000.0,1250.0,0,,C,https://www.loopnet.com/Listing/147-Duane-St-New-York-NY/16574778/,16574778,Multifamily,1915,,,,Mid Rise,100%,6200,,,5,,,1306.8,,5,,,,,,,7/10/2019,2019-11-09,,
263,nan,757 WHITEHALL,NY,10466.0,,,,,,,850000.0,179.36273475416755,0,,C,https://www.loopnet.com/Listing/757-Whitehall-Bronx-NY/16574103/,16574103,Multifamily,1930,,,,Mid Rise,100%,4739,5.54%,110280.0,3,,110280.0,1742.4,54052.0,7,35922.0,20306.0,0.0,,,,7/10/2019,2019-11-09,,
264,nan,126 OLD LIVERPOOL ROAD,NY,13088.0,,,,,,,299000.0,33.23699421965318,0,,C,https://www.loopnet.com/Listing/126-Old-Liverpool-Rd-Liverpool-NY/16569798/,16569798,Multifamily,1920,,,,Low Rise,75%,8996,9.56%,64380.0,2,,62580.0,26571.6,28573.0,8,22543.0,13264.0,0.0,,,,7/10/2019,2019-11-09,,
265,nan,819 DANFORTH STREET,NY,13208.0,,,,,,,129900.0,26.684470008216927,0,,,https://www.loopnet.com/Listing/819-Danforth-St-Syracuse-NY/16547157/,16547157,Multifamily,1940,,,,,,4868,,,2,,,,,4,,,,,,,7/8/2019,2019-11-09,,
266,nan,129 UNION STREET,NY,12601.0,,,,,,,3250000.0,214.94708994708995,0,,F,https://www.loopnet.com/Listing/129-Union-St-Poughkeepsie-NY/16547148/,16547148,Multifamily,1900,,,,,,15120,,,2,,,4356.0,,24,,,,,,,7/8/2019,2019-11-09,,
267,nan,579 UNIVERSITY AVENUE,NY,14607.0,,,,,,,1700000.0,132.6984622589962,0,,,https://www.loopnet.com/Listing/579-University-Ave-Rochester-NY/16538512/,16538512,Multifamily,1900,,,,Low Rise,100%,12811,8.92%,,3,,,,,19,,,,,,,7/6/2019,2019-11-09,,
268,nan,6 VAN CORTLANDT PARK AVENUE,NY,10701.0,,,,,,,1275000.0,168.20580474934036,0,,,https://www.loopnet.com/Listing/6-Van-Cortlandt-Pk-Ave-Yonkers-NY/16525328/,16525328,Multifamily,1965,,,,Low Rise,100%,7580,6.57%,145824.0,5,,148800.0,3049.2000000000003,83750.0,9,41941.0,20133.0,2976.0,,,,7/4/2019,2019-11-09,,
269,nan,701 GREENE AVENUE,NY,11221.0,,,,,,,2500000.0,718.3908045977012,0,,,https://www.loopnet.com/Listing/701-Greene-Ave-Brooklyn-NY/16507999/,16507999,Multifamily,1925,,,,,,3480,4.70%,129000.0,4,,129000.0,,113400.0,4,0.0,0.0,0.0,,,,7/2/2019,2019-11-09,,
270,nan,272 MAIN STREET,NY,,,,,,,,420000.0,73.6842105263158,0,,C,https://www.loopnet.com/Listing/272-Main-St-Binghamton-NY/16507478/,16507478,Multifamily,1960,,,,Mid Rise,100%,5700,11.10%,,3,,,10018.800000000001,,12,,,,,,,7/2/2019,2019-11-09,,
271,nan,1430 DEKALB AVENUE,NY,11237.0,,,,,,,1700000.0,390.8045977011494,0,,C,https://www.loopnet.com/Listing/1430-Dekalb-Ave-Brooklyn-NY/16507095/,16507095,Multifamily,1931,,,,Low Rise,,4350,,,3,,,2613.6,,6,,,,,,,7/2/2019,2019-11-09,,
272,nan,70 GROVE STREET,NY,10014.0,,,,,,,11000000.0,1517.2413793103449,0,,C,https://www.loopnet.com/Listing/70-Grove-St-New-York-NY/16503568/,16503568,Multifamily,1920,,,,Mid Rise,,7250,2.94%,472296.0,5,,472296.0,2613.6,323230.0,7,0.0,0.0,0.0,,,,7/2/2019,2019-11-09,,
273,nan,71 MAPLE STREET,NY,11225.0,,,,,,,899000.0,259.22722029988466,0,,C,https://www.loopnet.com/Listing/71-Maple-St-Yonkers-NY/16501893/,16501893,Multifamily,1898,,,,Low Rise,100%,3468,7.18%,,3,,,2178.0,,3,,,,,,,7/2/2019,2019-11-09,,
274,nan,1144 METCALF AVENUE,NY,10472.0,,,,,,,1200000.0,195.1219512195122,0,,C,https://www.loopnet.com/Listing/1144-Metcalf-Ave-Bronx-NY/16495648/,16495648,Multifamily,1929,,,,Low Rise,,6150,,,3,,,2613.6,,6,,,,,,,7/1/2019,2019-11-09,,
275,nan,188 MALCOLM X BOULEVARD,NY,10026.0,,,,,,,2250000.0,466.70815183571875,0,,C,https://www.loopnet.com/Listing/188-Malcolm-X-Blvd-New-York-NY/16472102/,16472102,Multifamily,1899,,,,Low Rise,,4821,,,4,,,1306.8,,4,,,,,,,6/28/2019,2019-11-09,,
276,nan,780 LIVONIA AVENUE,NY,11207.0,,,,,,,2375000.0,456.2920268972142,0,,,https://www.loopnet.com/Listing/780-Livonia-Ave-Brooklyn-NY/16462625/,16462625,Multifamily,2016,,,,Low Rise,,5205,5.41%,,4,,,,,1,,,,,,,6/27/2019,2019-11-09,,
277,nan,778 LIVONIA AVENUE,NY,11207.0,,,,,,,2375000.0,451.2635379061372,0,,,https://www.loopnet.com/Listing/778-Livonia-Ave-Brooklyn-NY/16462150/,16462150,Multifamily,2016,,,,Low Rise,,5263,5.41%,,4,,,,,8,,,,,,,6/27/2019,2019-11-09,,
278,nan,30 OVERLOOK AVENUE,NY,10304.0,,,,,,,999000.0,520.3125,0,,,https://www.loopnet.com/Listing/30-Overlook-Ave-Staten-Island-NY/16461842/,16461842,Specialty,1920,,,,,,1920,,,3,,,,,,,,,,,,6/24/2019,2019-11-09,,
279,nan,1858 PROSPECT PLACE,NY,11233.0,,,,,,,1500000.0,454.54545454545456,0,,C,https://www.loopnet.com/Listing/1858-Prospect-Pl-Brooklyn-NY/16461466/,16461466,Multifamily,1910,,,,Low Rise,0%,3300,5.20%,,3,,,2178.0,,3,,,,,,,6/27/2019,2019-11-09,,
280,nan,14411 BARCLAY AVENUE,NY,11355.0,,,,,,,2900000.0,517.8571428571429,0,,B,https://www.loopnet.com/Listing/14411-Barclay-Ave-Flushing-NY/16459880/,16459880,Multifamily,2002,,,,Mid Rise,,5600,2.83%,,4,,,2178.0,,9,,,,,,,6/27/2019,2019-11-09,,
281,nan,41-27 49 STREET,NY,11104.0,,,,,,,2490000.0,484.8130841121495,0,,C,https://www.loopnet.com/Listing/41-27-49-St-Sunnyside-NY/16454713/,16454713,Multifamily,1928,,,,Low Rise,100%,5136,4.43%,,3,,,2613.6,,6,,,,,,,6/26/2019,2019-11-09,,
282,nan,7142 EDSALL AVENUE,NY,11385.0,,,,,,,1350000.0,433.1087584215592,0,,,https://www.loopnet.com/Listing/7142-Edsall-Ave-Glendale-NY/16439037/,16439037,Multifamily,2007,,,,,,3117,6.01%,,3,,,,,4,,,,,,,6/25/2019,2019-11-09,,
283,nan,88 EAST END AVENUE,NY,10028.0,,,,,,,6750000.0,814.528780016894,0,,C,https://www.loopnet.com/Listing/88-E-End-Ave-New-York-NY/16434048/,16434048,Multifamily,1910,,,,Mid Rise,100%,8287,3.65%,,5,,,1742.4,,13,,,,,,,6/24/2019,2019-11-09,,
284,nan,4268 KETCHAM STREET,NY,11373.0,,,,,,,2249000.0,430.4306220095694,0,,C,https://www.loopnet.com/Listing/4268-Ketcham-St-Elmhurst-NY/16413806/,16413806,Multifamily,1961,,,,High Rise,100%,5225,4.40%,,4,,,2613.6,,10,,,,,,,6/21/2019,2019-11-09,,
285,nan,1125 ELM AVENUE,NY,11230.0,,,,,,,1200000.0,597.0149253731344,0,,C,https://www.loopnet.com/Listing/1125-Elm-Ave-Brooklyn-NY/16410797/,16410797,Multifamily,1910,,,,,,2010,6.95%,254400.0,3,,254400.0,,83400.0,9,0.0,0.0,0.0,,,,5/29/2019,2019-11-09,,
286,nan,4011 102 STREET,NY,10003.0,,,,,,,1350000.0,310.3448275862069,0,,C,https://www.loopnet.com/Listing/4011-102nd-St-Corona-NY/16400567/,16400567,Multifamily,1974,,,,Mid Rise,,4350,3.42%,94498.0,1,,94498.0,2613.6,39959.0,6,0.0,0.0,0.0,,,,6/20/2019,2019-11-09,,
287,nan,1100 GREENE AVENUE,NY,11221.0,,,,,,,1900000.0,181.41888666093766,0,,,https://www.loopnet.com/Listing/1100-Greene-Ave-Brooklyn-NY/16391910/,16391910,Multifamily,1901,,,,,,10473,,,4,,,,,9,,,,,,,6/19/2019,2019-11-09,,
288,nan,967 EAST 224 STREET,NY,,,,,,,,785000.0,140.30384271671136,0,,C,https://www.loopnet.com/Listing/967-E-224th-Bronx-NY/16382612/,16382612,Multifamily,1930,,,,Low Rise,,5595,,,3,,,2178.0,,6,,,,,,,6/18/2019,2019-11-09,,
289,nan,4821 30 AVENUE,NY,,,,,,,,1500000.0,681.8181818181819,0,,,https://www.loopnet.com/Listing/4821-30th-Ave-Astoria-NY/16380880/,16380880,Multifamily,1945,,,,,,2200,,,3,,,,,2,,,,,,,6/18/2019,2019-11-09,,
290,nan,96 SOUTH 2 STREET,NY,11249.0,,,,,,,3820000.0,1224.3589743589744,0,,,https://www.loopnet.com/Listing/96-S-2nd-St-Brooklyn-NY/16371281/,16371281,Multifamily,1899,,,,Low Rise,100%,3120,,,4,,,,,4,,,,,,,6/17/2019,2019-11-09,,
291,nan,21 CONSELYEA STREET,NY,11211.0,,,,,,,1849000.0,672.8529839883552,0,,,https://www.loopnet.com/Listing/21-Conselyea-St-Brooklyn-NY/16370938/,16370938,Multifamily,1901,,,,Low Rise,50%,2748,,,2,,,2178.0,,2,,,,,,,6/17/2019,2019-11-09,,
292,nan,31 SAINT JAMESDRIVEIVE,NY,11789.0,,,,,,,849000.0,385.90909090909093,0,,,https://www.loopnet.com/Listing/31-Saint-James-Dr-Sound-Beach-NY/16350717/,16350717,Multifamily,1965,,,,,,2200,,,2,,,10018.800000000001,,2,,,,,,,6/15/2019,2019-11-09,,
293,nan,117 NORTH 4 STREET,NY,11249.0,,,,,,,2999000.0,461.38461538461536,0,,,https://www.loopnet.com/Listing/117-N-4th-St-Brooklyn-NY/16346928/,16346928,Multifamily,1910,,,,,,6500,,,3,,,,,8,,,,,,,6/14/2019,2019-11-09,,
294,nan,27-29 NORWOOD AVENUE,NY,10304.0,,,,,,,1800000.0,486.749594375338,0,,C,https://www.loopnet.com/Listing/27-29-Norwood-Ave-Staten-Island-NY/16344742/,16344742,Multifamily,1930,,,,Low Rise,100%,3698,6.00%,114900.0,3,,116400.0,5662.8,103400.0,6,1500.0,10000.0,1500.0,,,,6/14/2019,2019-11-09,,
295,nan,18-53 MADISON STREET,NY,11385.0,,,,,,,1098000.0,196.07142857142858,0,,C,https://www.loopnet.com/Listing/18-53-Madison-St-Ridgewood-NY/16343040/,16343040,Multifamily,1930,,,,Low Rise,,5600,,,3,,,2613.6,,6,,,,,,,6/14/2019,2019-11-09,,
296,nan,3230 MORAN ROAD,NY,14424.0,,,,,,,1350000.0,56.25,0,,C,https://www.loopnet.com/Listing/3230-Moran-Rd-Canandaigua-NY/16342271/,16342271,Multifamily,1980,,,,Low Rise,100%,24000,6.50%,,2,7.4,,47916.00000000001,,24,,,,,,,6/14/2019,2019-11-09,,
297,nan,2621 SHORE PARKWAY,NY,11223.0,,,,,,,1440000.0,450.7042253521127,0,,,https://www.loopnet.com/Listing/2621-Shore-Pkwy-Brooklyn-NY/16340329/,16340329,Multifamily,2008,,,,Low Rise,,3195,,,3,,,4356.0,,3,,,,,,,6/13/2019,2019-11-09,,
298,nan,1548 72 STREET,NY,11228.0,,,,,,,4500000.0,242.86253980247182,0,,B,https://www.loopnet.com/Listing/1548-72nd-St-Brooklyn-NY/16326935/,16326935,Multifamily,2020,,,,Mid Rise,,18529,,,4,,,,,16,,,,,,,6/12/2019,2019-11-09,,
299,nan,3040 42 STREET,NY,10003.0,,,,,,,2150000.0,413.06436119116233,0,,,https://www.loopnet.com/Listing/3040-42nd-St-Astoria-NY/16324197/,16324197,Multifamily,1920,,,,Low Rise,100%,5205,4.14%,121551.0,3,,121551.0,,95113.0,6,13682.0,12756.0,0.0,,,,6/12/2019,2019-11-09,,
300,nan,10435 102 STREET,NY,11417.0,,,,,,,7950000.0,306.00461893764435,0,,B,https://www.loopnet.com/Listing/10435-102nd-St-Ozone-Park-NY/16324091/,16324091,Multifamily,1930,,,,Mid Rise,100%,25980,5.50%,,4,12.15,,10890.0,,33,,,,,,,6/12/2019,2019-11-09,,
301,nan,15015 BARCLAY AVENUE,NY,11355.0,,,,,,,2700000.0,1460.2487831260141,0,,C,https://www.loopnet.com/Listing/15015-Barclay-Ave-Flushing-NY/16305881/,16305881,Multifamily,1920,,,,,,1849,,,2,,,6098.400000000001,,1,,,,,,,6/10/2019,2019-11-09,,
302,nan,676 MANHATTAN AVENUE,NY,11222.0,,,,,,,4299000.0,716.5,0,,,https://www.loopnet.com/Listing/676-Manhattan-Ave-Brooklyn-NY/16292372/,16292372,Multifamily,1928,,,,,100%,6000,5.76%,249600.0,3,18.4,249600.0,,237878.0,5,3288.0,8434.0,0.0,,,,6/9/2019,2019-11-09,,
303,nan,288 LINDEN STREET,NY,11237.0,,,,,,,1750000.0,614.0350877192982,0,,,https://www.loopnet.com/Listing/288-Linden-St-Brooklyn-NY/16277503/,16277503,Multifamily,1908,,,,Mid Rise,,2850,5.96%,113400.0,3,16,113400.0,,0.0,3,0.0,4756.0,0.0,,,,6/7/2019,2019-11-09,,
304,nan,126 PIONEER STREET,NY,11231.0,,,,,,,1700000.0,900.4237288135594,0,,,https://www.loopnet.com/Listing/126-Pioneer-St-Brooklyn-NY/16275500/,16275500,Multifamily,1899,,,,Mid Rise,,1888,,,2,,,,,2,,,,,,,6/7/2019,2019-11-09,,
305,nan,2034 PALMETTO STREET,NY,11385.0,,,,,,,1399000.0,249.82142857142858,0,,C,https://www.loopnet.com/Listing/2034-Palmetto-St-Ridgewood-NY/16253242/,16253242,Multifamily,1930,,,,Low Rise,50%,5600,,,3,,,2613.6,,6,,,,,,,6/5/2019,2019-11-09,,
306,nan,45 MAIN STREET,NY,10706.0,,,,,,,899000.0,112.375,0,,A,https://www.loopnet.com/Listing/45-Main-St-Hastings-On-Hudson-NY/16252173/,16252173,Multifamily,2008,,,,,,8000,,,3,,,28314.0,,4,,,,,,,6/5/2019,2019-11-09,,
307,nan,5 ELDRIDGE STREET,NY,10002.0,,,,,,,7000000.0,836.3201911589008,0,,C,https://www.loopnet.com/Listing/5-Eldridge-St-New-York-NY/16252070/,16252070,Multifamily,1900,,,,Mid Rise,,8370,5.20%,,6,,,1742.4,,13,,,,,,,6/5/2019,2019-11-09,,
308,nan,135 EAST 63 STREET,NY,,,,,,,,10000000.0,1309.4146916328402,0,,B,https://www.loopnet.com/Listing/135-E-63rd-St-New-York-NY/16251690/,16251690,Multifamily,1910,,,,Mid Rise,,7637,,,5,,,1742.4,,8,,,,,,,6/5/2019,2019-11-09,,
309,nan,2730-2734 EAST 23 STREET,NY,11235.0,,,,,,,4800000.0,400.0,0,,B,https://www.loopnet.com/Listing/2730-2734-E-23rd-St-Brooklyn-NY/16231617/,16231617,Multifamily,2016,,,,Low Rise,100%,12000,5.00%,,4,,,8276.4,,12,,,,,,,3/29/2019,2019-11-09,,
310,nan,416 WOODWARD AVENUE,NY,11385.0,,,,,,,1899000.0,408.38709677419354,0,,,https://www.loopnet.com/Listing/416-Woodward-Ave-Ridgewood-NY/16231015/,16231015,Multifamily,1930,,,,Low Rise,50%,4650,5.79%,133500.0,3,,133500.0,,104228.0,6,11000.0,18272.0,0.0,,,,6/4/2019,2019-11-09,,
311,nan,3067 49 STREET,NY,11103.0,,,,,,,2900000.0,1380.952380952381,0,,C,https://www.loopnet.com/Listing/3067-49th-St-Astoria-NY/16229275/,16229275,Multifamily,1928,,,,Low Rise,33%,2100,5.54%,,3,,,4791.6,,6,,,,,,,6/4/2019,2019-11-09,,
312,nan,772 SAINT JOHNS PLACE,NY,11216.0,,,,,,,2395000.0,656.1643835616438,0,,C,https://www.loopnet.com/Listing/772-Saint-Johns-Pl-Brooklyn-NY/16223152/,16223152,Multifamily,1920,,,,Low Rise,,3650,,,3,,,1742.4,,5,,,,,,,6/3/2019,2019-11-09,,
313,nan,1420 LEHIGH STATION ROAD,NY,14467.0,,,,,,,575000.0,80.37461559966452,0,,,https://www.loopnet.com/Listing/1420-Lehigh-Station-Rd-Henrietta-NY/16223063/,16223063,Multifamily,1880,,,,Garden,100%,7154,10.20%,,2,,,24393.600000000002,,9,,,,,,,6/3/2019,2019-11-09,,
314,nan,8114 STATE ROAD,NY,14033.0,,,,,,,645000.0,698.0519480519481,0,,,https://www.loopnet.com/Listing/8114-State-Rd-Colden-NY/16208820/,16208820,Multifamily,1970,,,,,,924,,,1,,,248292.0,,25,,,,,,,5/31/2019,2019-11-09,,
315,nan,132 SAINT NICHOLAS AVENUE,NY,11237.0,,,,,,,3000000.0,451.1956685215822,0,,C,https://www.loopnet.com/Listing/132-Saint-Nicholas-Ave-Brooklyn-NY/16204258/,16204258,Multifamily,2009,,,,Low Rise,,6649,5.42%,,3,,,2178.0,,5,,,,,,,5/31/2019,2019-11-09,,
316,nan,458 WEST 20 STREET,NY,11223.0,,,,,,,7750000.0,905.373831775701,0,,C,https://www.loopnet.com/Listing/458-W-20th-St-New-York-NY/16186931/,16186931,Multifamily,1900,,,,Mid Rise,,8560,2.97%,,5,22.5,,2178.0,,19,,,,,,,5/30/2019,2019-11-09,,
317,nan,343 GRAND STREET,NY,10002.0,,,,,,,4490000.0,1166.2337662337663,0,,C,https://www.loopnet.com/Listing/343-Grand-St-New-York-NY/16185590/,16185590,Multifamily,1901,,,,,,3850,,151477.0,3,,151477.0,1742.4,124998.0,3,0.0,0.0,0.0,,,,3/29/2017,2019-11-09,,
318,nan,1873 GREENE AVENUE,NY,11385.0,,,,,,,1499999.0,576.9226923076923,0,,,https://www.loopnet.com/Listing/1873-Greene-Ave-Ridgewood-NY/16150017/,16150017,Multifamily,1931,,,,,,2600,3.60%,,70,,,,,4,,,,,,,5/24/2019,2019-11-09,,
319,nan,1706 HIMROD STREET,NY,11385.0,,,,,,,1900000.0,389.7435897435897,0,,C,https://www.loopnet.com/Listing/1706-Himrod-St-Ridgewood-NY/16126371/,16126371,Multifamily,1930,,,,High Rise,83%,4875,5.77%,135000.0,3,,135000.0,2613.6,109715.0,6,0.0,0.0,0.0,,,,5/22/2019,2019-11-09,,
320,nan,2444 PROSPECT AVENUE,NY,10458.0,,,,,,,750000.0,397.2457627118644,0,,,https://www.loopnet.com/Listing/2444-Prospect-Ave-Bronx-NY/16123154/,16123154,Specialty,1901,,,,,,1888,5.46%,,2,,,1742.4,,,,,,,,,5/21/2019,2019-11-09,,
321,nan,346 CLINTON STREET,NY,11231.0,,,,,,,3999999.0,798.7218450479234,0,,C,https://www.loopnet.com/Listing/346-Clinton-St-Brooklyn-NY/16117303/,16117303,Multifamily,1900,,,,Mid Rise,,5008,,,4,,,2178.0,,4,,,,,,,5/21/2019,2019-11-09,,
322,nan,103-119 FLATBUSH CAMP ROAD,NY,12477.0,,,,,,,675000.0,112.5,0,,C,https://www.loopnet.com/Listing/103-119-Flatbush-Camp-Rd-Saugerties-NY/16117128/,16117128,Multifamily,1960,,,,,,6000,9.60%,99300.0,2,,99300.0,313632.0,65084.0,10,0.0,0.0,0.0,,,,5/21/2019,2019-11-09,,
323,nan,1285 SHAKESPEARE AVENUE,NY,10452.0,,,,,,,950000.0,,0,,C,https://www.loopnet.com/Listing/1285-Shakespeare-Ave-Bronx-NY/16085135/,16085135,Retail,1930,,,,,,,7.58%,,3,,,1306.8,,,,,,,,,5/17/2019,2019-11-09,,
324,nan,4331 44 STREET,NY,11104.0,,,,,,,1590000.0,795.0,0,,,https://www.loopnet.com/Listing/4331-44th-St-Sunnyside-NY/16084975/,16084975,Multifamily,1950,,,,,100%,2000,,56400.0,2,,56400.0,,47926.0,2,0.0,0.0,0.0,,,,5/17/2019,2019-11-09,,
325,nan,527 OAK STREET,NY,13203.0,,,,,,,320000.0,45.68817818389492,0,,C,https://www.loopnet.com/Listing/527-Oak-St-Syracuse-NY/16071189/,16071189,Multifamily,1930,,,,Low Rise,100%,7004,,65136.0,2,,67325.0,9147.6,32020.0,9,24128.0,8988.0,2189.0,,,,5/16/2019,2019-11-09,,
326,nan,966 SENECA AVENUE,NY,11385.0,,,,,,,1399000.0,413.4160756501182,0,,,https://www.loopnet.com/Listing/966-Seneca-Ave-Ridgewood-NY/16068854/,16068854,Multifamily,1910,,,,,,3384,,,3,,,,,3,,,,,,,5/16/2019,2019-11-09,,
327,nan,18705-18721 BAISLEY BOULEVARD,NY,11412.0,,,,,,,4388000.0,237.44588744588745,0,,B,https://www.loopnet.com/Listing/18705-18721-Baisley-Blvd-Jamaica-NY/16067856/,16067856,Multifamily,1954,,,,Low Rise,100%,18480,8.42%,,2,,,32234.399999999998,,24,,,,,,,8/12/2019,2019-11-09,,
328,nan,4819 47 STREET,NY,11377.0,,,,,,,1397000.0,352.77777777777777,0,,C,https://www.loopnet.com/Listing/4819-47th-St-Woodside-NY/16051208/,16051208,Multifamily,1928,,,,Low Rise,,3960,3.28%,91632.0,3,,91632.0,2178.0,58365.0,6,18700.0,14567.0,0.0,,,,5/15/2019,2019-11-09,,
329,nan,144 WARSAW STREET,NY,14621.0,,,,,,,199000.0,19.16594433208129,0,,C,https://www.loopnet.com/Listing/144-Warsaw-St-Lackawanna-NY/16042326/,16042326,Multifamily,1957,,,,Low Rise,,10383,,,2,,,,,11,,,,,,,5/14/2019,2019-11-09,,
330,nan,4721 CHURCH AVENUE,NY,11203.0,,,,,,,4500000.0,432.6923076923077,0,,C,https://www.loopnet.com/Listing/4721-Church-Ave-Brooklyn-NY/16039882/,16039882,Multifamily,1929,,,,Low Rise,,10400,5.68%,,3,,,3920.3999999999996,,8,,,,,,,5/14/2019,2019-11-09,,
331,nan,446 CLINTON STREET,NY,11231.0,,,,,,,4999999.0,985.2214778325123,0,,C,https://www.loopnet.com/Listing/446-Clinton-St-Brooklyn-NY/16039800/,16039800,Multifamily,1900,,,,Mid Rise,,5075,,239000.0,5,,239000.0,2178.0,0.0,5,,,0.0,,,,5/14/2019,2019-11-09,,
332,nan,1639 BROADWAY,NY,11207.0,,,,,,,2499000.0,341.160409556314,0,,C,https://www.loopnet.com/Listing/1639-Broadway-Brooklyn-NY/16027509/,16027509,Multifamily,1931,,,,Mid Rise,100%,7325,6.68%,170000.0,4,,170000.0,2178.0,120000.0,6,0.0,0.0,0.0,,,,5/12/2019,2019-11-09,,
333,nan,102 PATCHEN AVENUE,NY,11221.0,,,,,,,2750000.0,589.8755898755899,0,,C,https://www.loopnet.com/Listing/102-Patchen-Ave-Brooklyn-NY/16019763/,16019763,Multifamily,1931,,,,Low Rise,,4662,5.14%,,3,,,1742.4,,6,,,,,,,5/11/2019,2019-11-09,,
334,nan,54 7 AVENUE SOUTH,NY,11223.0,,,,,,,11950000.0,2070.3395703395704,0,,C,https://www.loopnet.com/Listing/54-Seventh-Ave-S-New-York-NY/16012201/,16012201,Multifamily,1901,,,,Mid Rise,,5772,,,4,,,3484.8,,8,,,,,,,5/10/2019,2019-11-09,,
335,nan,4318 42 STREET,NY,11104.0,,,,,,,1899999.0,359.84829545454545,0,,,https://www.loopnet.com/Listing/4318-42nd-St-Sunnyside-NY/15999347/,15999347,Multifamily,1931,,,,Low Rise,,5280,3.51%,,3,,,2178.0,,6,,,,,,,5/9/2019,2019-11-09,,
336,nan,233 SHORE ROAD,NY,11769.0,,,,,,,14000000.0,756.0619970837608,0,,B,https://www.loopnet.com/Listing/233-Shore-Rd-Long-Beach-NY/15991362/,15991362,Multifamily,1950,,,,Low Rise,,18517,,,3,,,33976.8,,40,,,,,,,5/8/2019,2019-11-09,,
337,nan,308 WEST 82 STREET,NY,10024.0,,,,,,,20000000.0,800.0,0,,B,https://www.loopnet.com/Listing/308-W-82nd-St-New-York-NY/15991018/,15991018,Multifamily,1906,,,,Mid Rise,,25000,4.04%,,12,15.54,,2613.6,,49,,,,,,,5/8/2019,2019-11-09,,
338,nan,437 COLUMBUS AVENUE,NY,13210.0,,,,,,,745000.0,74.77667369266285,0,,,https://www.loopnet.com/Listing/437-Columbus-Ave-Syracuse-NY/15977811/,15977811,Multifamily,1957,,,,,100%,9963,8.20%,,3,12.03,,6534.0,,12,,,,,,,5/7/2019,2019-11-09,,
339,nan,89-06-89-08 SOUTH CONDUIT AVENUE,NY,11422.0,,,,,,,1080000.0,187.1101871101871,0,,B,https://www.loopnet.com/Listing/89-06-89-08-S-Conduit-Ave-Howard-Beach-NY/15973594/,15973594,Multifamily,2004,,,,Low Rise,100%,5772,8.18%,93840.0,3,,93840.0,3920.3999999999996,88330.0,4,0.0,0.0,0.0,,,,5/7/2019,2019-11-09,,
340,nan,1021 OLEAN ROAD,NY,14052.0,,,,,,,1250000.0,250.0,0,,C,https://www.loopnet.com/Listing/1021-Olean-Rd-East-Aurora-NY/15973589/,15973589,Multifamily,1880,,,,,70%,5000,9.36%,161413.0,1,,161413.0,344124.0,97658.0,51,31536.0,32219.0,0.0,,,,5/7/2019,2019-11-09,,
341,nan,139 LEFFERTS PLACE,NY,11238.0,,,,,,,1499000.0,416.3888888888889,0,,,https://www.loopnet.com/Listing/139-Lefferts-Pl-Brooklyn-NY/15969184/,15969184,Multifamily,1931,,,,,,3600,,,4,,,,,4,,,,,,,5/6/2019,2019-11-09,,
342,nan,437 FRANKLIN AVENUE,NY,11216.0,,,,,,,1850000.0,430.2325581395349,0,,C,https://www.loopnet.com/Listing/437-Franklin-Ave-Brooklyn-NY/15968580/,15968580,Multifamily,1899,,,,Mid Rise,,4300,,,4,,,1742.4,,4,,,,,,,5/6/2019,2019-11-09,,
343,nan,180 BRIGGS STREET,NY,12095.0,,,,,,,895000.0,38.697682462815635,0,,B,https://www.loopnet.com/Listing/180-Briggs-St-Johnstown-NY/15963658/,15963658,Multifamily,2003,,,,Low Rise,100%,23128,3.50%,,2,8,,75794.4,,24,,,,,,,5/5/2019,2019-11-09,,
344,nan,105 SEAVIEW AVENUE,NY,10304.0,,,,,,,1450000.0,251.73611111111111,0,,C,https://www.loopnet.com/Listing/105-Seaview-Ave-Staten-Island-NY/15960713/,15960713,Multifamily,1931,,,,Low Rise,100%,5760,5.52%,,3,14.6,,4791.6,,6,,,,,,,5/5/2019,2019-11-09,,
345,nan,11113 38 AVENUE,NY,,,,,,,,2588000.0,517.6,0,,B,https://www.loopnet.com/Listing/11113-38th-Ave-Corona-NY/15943894/,15943894,Multifamily,2006,,,,Mid Rise,100%,5000,5.19%,149340.0,4,,149340.0,3049.2000000000003,134419.0,6,12953.0,1968.0,0.0,,,,5/3/2019,2019-11-09,,
346,nan,2319 STEINWAY STREET,NY,11105.0,,,,,,,2399000.0,550.2293577981651,0,,C,https://www.loopnet.com/Listing/2319-Steinway-St-Astoria-NY/15943848/,15943848,Multifamily,1930,,,,Low Rise,,4360,,,3,,,2178.0,,6,,,,,,,5/3/2019,2019-11-09,,
347,nan,3530 MICKLE AVENUE,NY,10469.0,,,,,,,9690000.0,453.5455183711678,0,,A,https://www.loopnet.com/Listing/3530-Mickle-Ave-Bronx-NY/15940089/,15940089,Multifamily,2019,,,,Mid Rise,100%,21365,6.10%,,4,,,18295.2,,28,,,,,,,5/3/2019,2019-11-09,,
348,nan,82-76 116 STREET,NY,11418.0,,,,,,,15800000.0,628.8807514726955,0,,B,https://www.loopnet.com/Listing/82-76-116th-St-Richmond-Hill-NY/15935304/,15935304,Multifamily,2019,,,,Mid Rise,80%,25124,5.05%,,9,,,3049.2000000000003,,30,,,,,,,5/2/2019,2019-11-09,,
349,nan,34-28 44 STREET,NY,11101.0,,,,,,,4650000.0,618.0223285486443,0,,C,https://www.loopnet.com/Listing/34-28-44-St-Astoria-NY/15926682/,15926682,Multifamily,1928,,,,,,7524,4.11%,263739.0,3,17.6,263739.0,2613.6,191476.0,12,0.0,0.0,0.0,,,,5/2/2019,2019-11-09,,
350,nan,503 EAST 116 STREET,NY,,,,,,,,5500000.0,698.4126984126984,0,,B,https://www.loopnet.com/Listing/503-E-116th-St-New-York-NY/15919619/,15919619,Multifamily,1910,,,,Mid Rise,100%,7875,4.94%,,5,,,20037.600000000002,,9,,,,,,,2/4/2019,2019-11-09,,
351,nan,1918 PACIFIC STREET,NY,11233.0,,,,,,,1125000.0,378.7878787878788,0,,C,https://www.loopnet.com/Listing/1918-Pacific-St-Brooklyn-NY/15916664/,15916664,Multifamily,2000,,,,Low Rise,,2970,,,3,,,2178.0,,3,,,,,,,5/1/2019,2019-11-09,,
352,nan,714 SAW MILL RIVER ROAD,NY,,,,,,,,2300000.0,383.3333333333333,0,,,https://www.loopnet.com/Listing/714-Saw-Mill-River-Rd-Yorktown-Heights-NY/15895231/,15895231,Multifamily,2009,,,,,100%,6000,6.00%,,2,13.13,,36590.4,,5,,,,,,,4/28/2019,2019-11-09,,
353,nan,2772 WILLIAMSBRIDGE,NY,10469.0,,,,,,,1250000.0,192.6040061633282,0,,C,https://www.loopnet.com/Listing/2772-Williamsbridge-Bronx-NY/15891483/,15891483,Multifamily,1931,,,,Low Rise,100%,6490,,52481.0,3,,52481.0,2613.6,16124.0,7,23357.0,13000.0,0.0,,,,4/27/2019,2019-11-09,,
354,nan,16 MCGUINNESS BOULEVARD SOUTH,NY,11222.0,,,,,,,1625950.0,518.9754229173317,0,,B,https://www.loopnet.com/Listing/16-McGuinness-Blvd-S-Brooklyn-NY/15879004/,15879004,Multifamily,2008,,,,,,3133,,,6,,,2613.6,,2,,,,,,,4/26/2019,2019-11-09,,
355,nan,304 STUYVESANT AVENUE,NY,11233.0,,,,,,,3150000.0,378.6057692307692,0,,B,https://www.loopnet.com/Listing/304-Stuyvesant-Ave-Brooklyn-NY/15870582/,15870582,Multifamily,1910,,,,Mid Rise,100%,8320,5.20%,,4,12.98,,2613.6,,16,,,,,,,4/25/2019,2019-11-09,,
356,nan,1094 COUNTY ROAD 24 STREET,NY,12470.0,,,,,,,299900.0,131.53508771929825,0,,C,https://www.loopnet.com/Listing/1094-County-Road-24-Purling-NY/15821361/,15821361,Multifamily,1965,,,,,100%,2280,9.63%,34920.0,1,,36000.0,41817.6,29252.0,3,2360.0,3308.0,1080.0,,,,4/25/2019,2019-11-09,,
357,nan,75-79 MIDDLE ROAD,NY,12901.0,,,,,,,985000.0,182.40740740740742,0,,C,https://www.loopnet.com/Listing/75-79-Middle-Rd-Sayville-NY/15815968/,15815968,Multifamily,1902,,,,,,5400,6.54%,,2,,,5227.2,,4,,,,,,,4/24/2019,2019-11-09,,
358,nan,85 WEST CHIPPEWA STREET,NY,14202.0,,,,,,,1525000.0,283.9851024208566,0,,C,https://www.loopnet.com/Listing/85-W-Chippewa-St-Buffalo-NY/15805703/,15805703,Multifamily,1910,,,,Low Rise,,5370,,130800.0,3,,130800.0,,125800.0,5,0.0,0.0,0.0,,,,4/23/2019,2019-11-09,,
359,nan,2083 PACIFIC STREET,NY,11233.0,,,,,,,1450000.0,431.54761904761904,0,,C,https://www.loopnet.com/Listing/2083-Pacific-St-Brooklyn-NY/15804875/,15804875,Multifamily,1901,,,,Low Rise,,3360,6.71%,101600.0,4,13.73,105600.0,2178.0,97258.0,3,2200.0,2142.0,4000.0,,,,4/23/2019,2019-11-09,,
360,nan,1168-1174 CLAY AVENUE,NY,10456.0,,,,,,,3460000.0,334.687560456568,0,,B,https://www.loopnet.com/Listing/1168-1174-Clay-Ave-Bronx-NY/15800736/,15800736,Multifamily,2006,,,,Mid Rise,100%,10338,6.00%,,3,,,6098.400000000001,,12,,,,,,,4/22/2019,2019-11-09,,
361,nan,235 MAIN STREET,NY,12561.0,,,,,,,895000.0,413.7771613499769,0,,,https://www.loopnet.com/Listing/235-Main-St-New-Paltz-NY/15795839/,15795839,Multifamily,1965,,,,Mid Rise,100%,2163,,,2,,,20037.600000000002,,4,,,,,,,4/21/2019,2019-11-09,,
362,nan,223 EAST 96 STREET,NY,,,,,,,,8950000.0,471.05263157894734,0,,C,https://www.loopnet.com/Listing/223-E-96th-St-New-York-NY/15780739/,15780739,Multifamily,1920,,,,Mid Rise,,19000,6.10%,,5,12.4,,10454.4,,20,,,,,,,4/18/2019,2019-11-09,,
363,nan,2241 HOLLAND AVENUE,NY,10467.0,,,,,,,9900000.0,280.5168310098606,0,,C,https://www.loopnet.com/Listing/2241-Holland-Ave-Bronx-NY/15766096/,15766096,Multifamily,1948,,,,Mid Rise,,35292,4.00%,,6,,,,,48,,,,,,,4/17/2019,2019-11-09,,
364,nan,402 WEST 22 STREET,NY,11944.0,,,,,,,6350000.0,1325.4017950323523,0,,C,https://www.loopnet.com/Listing/402-W-22nd-St-New-York-NY/15763837/,15763837,Multifamily,1900,,,,Mid Rise,,4791,3.76%,,5,,,871.2,,8,,,,,,,4/17/2019,2019-11-09,,
365,nan,607 WOODWARD AVENUE,NY,11385.0,,,,,,,1900000.0,367.1497584541063,0,,C,https://www.loopnet.com/Listing/607-Woodward-Ave-Ridgewood-NY/15756109/,15756109,Multifamily,1915,,,,Low Rise,,5175,,,3,16,,2613.6,,8,,,,,,,4/16/2019,2019-11-09,,
366,nan,12 KNOWLTON AVENUE,NY,14606.0,,,,,,,600000.0,50.692801622169654,0,,,https://www.loopnet.com/Listing/12-Knowlton-Ave-Lackawanna-NY/15742623/,15742623,Multifamily,1938,,,,Low Rise,100%,11836,7.90%,101135.0,2,,104184.0,18730.8,47388.0,16,23242.0,30505.0,5209.0,,,,4/15/2019,2019-11-09,,
367,nan,1142 METCALF AVENUE,NY,10472.0,,,,,,,1200000.0,194.61563412260784,0,,C,https://www.loopnet.com/Listing/1142-Metcalf-Ave-Bronx-NY/15703630/,15703630,Multifamily,1929,,,,Low Rise,,6166,5.29%,,3,,,2613.6,,6,,,,,,,4/11/2019,2019-11-09,,
368,nan,315 87 STREET,NY,11209.0,,,,,,,4500000.0,310.3448275862069,0,,,https://www.loopnet.com/Listing/315-87th-St-Brooklyn-NY/15703375/,15703375,Multifamily,1927,,,,,,14500,,,4,,,,,16,,,,,,,4/11/2019,2019-11-09,,
369,nan,20 OLIVER STREET,NY,11209.0,,,,,,,3700000.0,452.59938837920487,0,,C,https://www.loopnet.com/Listing/20-Oliver-St-Brooklyn-NY/15703336/,15703336,Multifamily,2006,,,,Mid Rise,,8175,,,7,,,1742.4,,7,,,,,,,4/11/2019,2019-11-09,,
370,nan,561 WEST 161 STREET,NY,10032.0,,,,,,,2500000.0,513.9802631578947,0,,B,https://www.loopnet.com/Listing/561-W-161st-St-New-York-NY/15691423/,15691423,Multifamily,1920,,,,Mid Rise,100%,4864,4.71%,,4,,,1742.4,,8,,,,,,,4/10/2019,2019-11-09,,
371,nan,91-96 MAIN STREET,NY,12401.0,,,,,,,750000.0,117.1875,0,,C,https://www.loopnet.com/Listing/91-96-Main-St-Kingston-NY/15691185/,15691185,Multifamily,1929,,,,Low Rise,,6400,5.89%,,2,,,7840.799999999999,,7,,,,,,,4/10/2019,2019-11-09,,
372,nan,23 FLOHR AVENUE,NY,14224.0,,,,,,,249000.0,36.61764705882353,0,,B,https://www.loopnet.com/Listing/23-Flohr-Ave-West-Seneca-NY/15680386/,15680386,Multifamily,,,,,,,6800,8.27%,,2,,,,,4,,,,,,,6/2/2017,2019-11-09,,
373,nan,257 COOPER STREET,NY,11237.0,,,,,,,3800000.0,469.1358024691358,0,,B,https://www.loopnet.com/Listing/257-Cooper-St-Brooklyn-NY/15677763/,15677763,Multifamily,1904,,,,Mid Rise,100%,8100,5.37%,,3,,,3049.2000000000003,,12,,,,,,,4/9/2019,2019-11-09,,
374,nan,222 EAST 61 STREET,NY,,,,,,,,7000000.0,871.5139442231076,0,,,https://www.loopnet.com/Listing/222-E-61st-St-New-York-NY/15672267/,15672267,Multifamily,1931,,,,Garden,,8032,1.83%,,4,,,,,3,,,,,,,4/8/2019,2019-11-09,,
375,nan,829 SUFFOLK AVENUE,NY,11717.0,,,,,,,3950000.0,246.875,0,,C,https://www.loopnet.com/Listing/829-Suffolk-Ave-Brentwood-NY/15671633/,15671633,Multifamily,1994,,,,Low Rise,100%,16000,5.23%,317940.0,3,,317940.0,108900.0,206674.0,19,43608.0,67658.0,0.0,,,,4/8/2019,2019-11-09,,
376,nan,349 EAST 139 STREET,NY,10454.0,,,,,,,795000.0,254.80769230769232,0,,,https://www.loopnet.com/Listing/349-E-139th-St-Bronx-NY/15671054/,15671054,Multifamily,1901,,,,,,3120,,,4,,,,,2,,,,,,,4/8/2019,2019-11-09,,
377,nan,235 STOCKHOLM STREET,NY,11237.0,,,,,,,1699000.0,323.6190476190476,0,,,https://www.loopnet.com/Listing/235-Stockholm-St-Brooklyn-NY/15670261/,15670261,Multifamily,1931,,,,,,5250,4.97%,,3,,,,,6,,,,,,,4/8/2019,2019-11-09,,
378,nan,19 LAWRENCE STREET,NY,10705.0,,,,,,,2400000.0,141.76018901358535,0,,C,https://www.loopnet.com/Listing/19-Lawrence-St-Yonkers-NY/15642268/,15642268,Multifamily,1967,,,,Mid Rise,,16930,8.52%,,5,9.4,,3484.8,,11,,,,,,,4/5/2019,2019-11-09,,
379,nan,310 EAST 9 STREET,NY,,,,,,,,9495000.0,1379.2852992446253,0,,,https://www.loopnet.com/Listing/310-E-9th-St-New-York-NY/15631536/,15631536,Multifamily,1865,,,,Low Rise,,6884,,,5,,,2178.0,,3,,,,,,,4/4/2019,2019-11-09,,
380,nan,2527 18 STREET,NY,10003.0,,,,,,,10750000.0,703.8103967526515,0,,B,https://www.loopnet.com/Listing/2527-18th-St-Astoria-NY/15631357/,15631357,Multifamily,2008,,,,Mid Rise,100%,15274,3.62%,441590.0,5,31,403546.0,4791.6,417101.0,14,21057.0,3432.0,0.0,,,,4/4/2019,2019-11-09,,
381,nan,413 68 STREET,NY,12763.0,,,,,,,1800000.0,333.3333333333333,0,,C,https://www.loopnet.com/Listing/413-68th-St-Brooklyn-NY/15629238/,15629238,Multifamily,1915,,,,Low Rise,100%,5400,,,3,,,2178.0,,6,,,,,,,4/4/2019,2019-11-09,,
382,nan,8712 98 STREET,NY,11421.0,,,,,,,3300000.0,220.0,0,,C,https://www.loopnet.com/Listing/8712-98th-St-Jamaica-NY/15617538/,15617538,Multifamily,1931,,,,Mid Rise,100%,15000,2.56%,170676.0,4,,170676.0,4356.0,84431.0,16,0.0,0.0,0.0,,,,4/3/2019,2019-11-09,,
383,nan,416-422 BOSTON STREET,NY,13206.0,,,,,,,595000.0,75.89285714285714,0,,C,https://www.loopnet.com/Listing/416-422-Boston-St-Syracuse-NY/15607371/,15607371,Multifamily,1955,,,,Low Rise,100%,7840,10.06%,79500.0,2,,79500.0,5227.2,59151.0,10,10000.0,10349.0,0.0,,,,4/2/2019,2019-11-09,,
384,nan,2815 BEVERLEY ROAD,NY,11226.0,,,,,,,10500000.0,223.40425531914894,0,,C,https://www.loopnet.com/Listing/2815-Beverley-Rd-Brooklyn-NY/15606256/,15606256,Multifamily,1960,,,,Mid Rise,100%,47000,4.04%,,7,,,7405.200000000001,,64,,,,,,,4/2/2019,2019-11-09,,
385,nan,14018 ASH AVENUE,NY,11355.0,,,,,,,11500000.0,296.34592588774933,0,,C,https://www.loopnet.com/Listing/14018-Ash-Ave-Flushing-NY/15598717/,15598717,Multifamily,1932,,,,Mid Rise,92%,38806,3.91%,,6,14.25,,9583.2,,54,,,,,,,4/1/2019,2019-11-09,,
386,nan,252 MADISON STREET,NY,11216.0,,,,,,,3100000.0,326.797385620915,0,,B,https://www.loopnet.com/Listing/252-Madison-St-Brooklyn-NY/15598625/,15598625,Multifamily,1931,,,,Mid Rise,,9486,4.68%,0.0,4,,0.0,3049.2000000000003,145000.0,9,,,0.0,,,,4/1/2019,2019-11-09,,
387,nan,254-256 UNION AVENUE,NY,11772.0,,,,,,,1600000.0,257.0281124497992,0,,C,https://www.loopnet.com/Listing/254-256-Union-Ave-New-Rochelle-NY/15577671/,15577671,Multifamily,1940,,,,,,6225,6.01%,,3,,,3920.3999999999996,,8,,,,,,,3/29/2019,2019-11-09,,
388,nan,548 3 AVENUE,NY,10016.0,,,,,,,12000000.0,2288.329519450801,0,,C,https://www.loopnet.com/Listing/548-Third-Ave-New-York-NY/15569945/,15569945,Multifamily,1910,,,,Mid Rise,,5244,3.15%,,4,,,1742.4,,4,,,,,,,3/28/2019,2019-11-09,,
389,nan,346 BUTLER STREET,NY,11217.0,,,,,,,14500000.0,366.16161616161617,0,,,https://www.loopnet.com/Listing/346-Butler-St-Brooklyn-NY/15567977/,15567977,Multifamily,1986,,,,Mid Rise,100%,39600,,,3,,,,,9,,,,,,,3/28/2019,2019-11-09,,
390,nan,493 VAN DUZER STREET,NY,10304.0,,,,,,,999999.0,476.19,0,,C,https://www.loopnet.com/Listing/493-Van-Duzer-St-Staten-Island-NY/15562050/,15562050,Multifamily,1901,,,,Low Rise,,2100,7.00%,64000.0,3,,64000.0,3484.8,49804.0,3,10000.0,4196.0,0.0,,,,3/27/2019,2019-11-09,,
