,Metro,Submarket,Year,Quarter,Inventory (SF/Units),Completions,Conversions,Vac %,Vacant Stock,Occupied Stock,Net Absorption,Asking Rent $,Asking Rent % Chg,Eff Rent $,Eff Rent % Chg,Cons/Abs Ratio,Abs/Occ Stk Ratio,Gr Rev/Unit $,WHRK rent %,WHRK vac %
0,PHL,Camden,1989,Y,5347,0,0,0.085,454,4893,,493,,470.0,,,,451.14,0.006706395340728466,0.084726640152847
1,PHL,Camden,1990,Y,5462,115,0,0.081,442,5020,127.0,494,0.002,481.0,0.023,0.9,2.5,454.02,0.009151859099533616,0.0812922884482887
2,PHL,Camden,1991,Y,5462,0,0,0.091,497,4965,-55.0,501,0.014,485.0,0.008,0.0,-1.1,455.41,0.015771096669355153,0.09127742159190728
3,PHL,Camden,1992,Y,5462,0,0,0.092,503,4959,-6.0,513,0.024,496.0,0.023,0.0,-0.1,465.76,0.02623190596360011,0.0921192436420662
4,PHL,Camden,1993,Y,5462,0,0,0.079,431,5031,72.0,515,0.004,502.0,0.012,0.0,1.4,474.36,0.013252140097639416,0.07902115650685917
5,PHL,Camden,1994,Y,5462,0,0,0.076,415,5047,16.0,524,0.017,509.0,0.014,0.0,0.3,484.19,0.02258875791871159,0.07606657268851151
6,PHL,Camden,1995,Y,5462,0,0,0.078,426,5036,-11.0,545,0.04,530.0,0.041,0.0,-0.2,502.49,0.041106246095130486,0.07783071295438188
7,PHL,Camden,1996,Y,5462,0,0,0.058,317,5145,109.0,567,0.04,554.0,0.045,0.0,2.1,534.09,0.047662725901524,0.05761491833540966
8,PHL,Camden,1997,Y,5462,0,0,0.054,295,5167,22.0,580,0.023,573.0,0.034,0.0,0.4,548.67,0.02984819255917174,0.053988799679440896
9,PHL,Camden,1998,Y,5462,0,0,0.055,300,5162,-5.0,593,0.022,586.0,0.023,0.0,-0.1,560.43,0.027813375184503716,0.05497262730626386
10,PHL,Camden,1999,Q1,5462,0,0,0.064,350,5112,-50.0,596,0.005,584.0,-0.003,0.0,-1.0,557.81,,
11,PHL,Camden,1999,Q2,5462,0,0,0.056,306,5156,44.0,603,0.012,589.0,0.009,0.0,0.9,569.22,,
12,PHL,Camden,1999,Q3,5462,0,0,0.021,115,5347,191.0,603,0.0,597.0,0.014,0.0,3.6,590.3,,
13,PHL,Camden,1999,Q4,5462,0,0,0.023,126,5336,-11.0,604,0.002,604.0,0.012,0.0,-0.2,590.07,,
14,PHL,Camden,1999,Y,5462,0,0,0.023,126,5336,174.0,604,0.019,604.0,0.031,0.0,3.3,590.07,0.035242082654046575,0.022783676337046047
15,PHL,Camden,2000,Q1,5462,0,0,0.032,175,5287,-49.0,603,-0.002,603.0,-0.002,0.0,-0.9,583.68,,
16,PHL,Camden,2000,Q2,5462,0,0,0.023,126,5336,49.0,603,0.0,600.0,-0.005,0.0,0.9,589.09,,
17,PHL,Camden,2000,Q3,5462,0,0,0.018,98,5364,28.0,623,0.033,621.0,0.035,0.0,0.5,611.82,,
18,PHL,Camden,2000,Q4,5462,0,0,0.036,197,5265,-99.0,630,0.011,626.0,0.008,0.0,-1.9,607.28,,
19,PHL,Camden,2000,Y,5462,0,0,0.036,197,5265,-71.0,630,0.043,626.0,0.036,0.0,-1.3,607.28,0.045342664188454354,0.03600068049781184
20,PHL,Camden,2001,Q1,5462,0,0,0.035,191,5271,6.0,642,0.019,638.0,0.019,0.0,0.1,619.55,,
21,PHL,Camden,2001,Q2,5462,0,0,0.044,240,5222,-49.0,652,0.016,649.0,0.017,0.0,-0.9,623.35,,
22,PHL,Camden,2001,Q3,5462,0,0,0.041,224,5238,16.0,650,-0.003,646.0,-0.005,0.0,0.3,623.34,,
23,PHL,Camden,2001,Q4,5462,0,0,0.044,240,5222,-16.0,642,-0.012,636.0,-0.015,0.0,-0.3,613.79,,
24,PHL,Camden,2001,Y,5462,0,0,0.044,240,5222,-43.0,642,0.019,636.0,0.016,0.0,-0.8,613.79,0.02474030925270117,0.04408870681896912
25,PHL,Camden,2002,Q1,5462,0,0,0.048,262,5200,-22.0,646,0.006,638.0,0.003,0.0,-0.4,615.01,,
26,PHL,Camden,2002,Q2,5462,0,0,0.06,328,5134,-66.0,656,0.015,644.0,0.009,0.0,-1.3,616.61,,
27,PHL,Camden,2002,Q3,5462,0,0,0.068,371,5091,-43.0,665,0.014,654.0,0.016,0.0,-0.8,619.83,,
28,PHL,Camden,2002,Q4,5462,0,0,0.069,377,5085,-6.0,669,0.006,654.0,0.0,0.0,-0.1,622.82,,
29,PHL,Camden,2002,Y,5462,0,0,0.069,377,5085,-137.0,669,0.042,654.0,0.028,0.0,-2.7,622.82,0.038122830323973345,0.0690606642964099
30,PHL,Camden,2003,Q1,5462,0,0,0.076,415,5047,-38.0,678,0.013,664.0,0.015,0.0,-0.8,626.49,,
31,PHL,Camden,2003,Q2,5462,0,0,0.059,322,5140,93.0,676,-0.003,662.0,-0.003,0.0,1.8,636.15,,
32,PHL,Camden,2003,Q3,5462,0,0,0.044,240,5222,82.0,688,0.018,674.0,0.018,0.0,1.6,657.77,,
33,PHL,Camden,2003,Q4,5278,0,-184,0.052,274,5004,-218.0,689,0.001,677.0,0.004,0.0,-4.4,653.23,,
34,PHL,Camden,2003,Y,5278,0,-184,0.052,274,5004,-81.0,689,0.03,677.0,0.035,0.0,-1.6,653.23,0.031642394790279714,0.052239844092267174
35,PHL,Camden,2004,Q1,5619,341,0,0.08,450,5169,165.0,718,0.042,703.0,0.038,2.1,3.2,660.5,,
36,PHL,Camden,2004,Q2,5619,0,0,0.083,466,5153,-16.0,724,0.008,707.0,0.006,0.0,-0.3,663.96,,
37,PHL,Camden,2004,Q3,5619,0,0,0.087,489,5130,-23.0,736,0.017,707.0,0.0,0.0,-0.4,671.95,,
38,PHL,Camden,2004,Q4,5619,0,0,0.091,511,5108,-22.0,753,0.023,722.0,0.021,0.0,-0.4,684.52,,
39,PHL,Camden,2004,Y,5619,341,0,0.091,511,5108,104.0,753,0.093,722.0,0.066,3.3,2.0,684.52,0.07565113631283282,0.09166420868421737
40,PHL,Camden,2005,Q1,5619,0,0,0.093,523,5096,-12.0,771,0.024,738.0,0.022,0.0,-0.2,699.24,,
41,PHL,Camden,2005,Q2,5619,0,0,0.096,539,5080,-16.0,765,-0.008,731.0,-0.009,0.0,-0.3,691.62,,
42,PHL,Camden,2005,Q3,5619,0,0,0.083,466,5153,73.0,762,-0.004,731.0,0.0,0.0,1.4,698.81,,
43,PHL,Camden,2005,Q4,5619,0,0,0.08,450,5169,16.0,777,0.02,746.0,0.021,0.0,0.3,714.77,,
44,PHL,Camden,2005,Y,5619,0,0,0.08,450,5169,61.0,777,0.032,746.0,0.033,0.0,1.2,714.77,0.03575476053343523,0.08025375038918353
45,PHL,Camden,2006,Q1,5619,0,0,0.076,427,5192,23.0,778,0.001,749.0,0.004,0.0,0.4,718.88,,
46,PHL,Camden,2006,Q2,5619,0,0,0.071,399,5220,28.0,796,0.023,765.0,0.021,0.0,0.5,739.48,,
47,PHL,Camden,2006,Q3,5619,0,0,0.064,360,5259,39.0,812,0.02,780.0,0.02,0.0,0.7,759.98,,
48,PHL,Camden,2006,Q4,5619,0,0,0.069,388,5231,-28.0,814,0.002,785.0,0.006,0.0,-0.5,757.79,,
49,PHL,Camden,2006,Y,5619,0,0,0.069,388,5231,62.0,814,0.048,785.0,0.052,0.0,1.2,757.79,0.05053037853933047,0.06868830128801544
50,PHL,Camden,2007,Q1,5619,0,0,0.062,348,5271,40.0,818,0.005,787.0,0.003,0.0,0.8,767.34,,
51,PHL,Camden,2007,Q2,5281,0,0,0.064,338,4943,-328.0,834,0.02,804.0,0.022,0.0,-6.6,780.62,,
52,PHL,Camden,2007,Q3,5281,0,0,0.055,290,4991,48.0,846,0.014,811.0,0.009,0.0,1.0,799.54,,
53,PHL,Camden,2007,Q4,5281,0,0,0.069,364,4917,-74.0,863,0.02,824.0,0.016,0.0,-1.5,803.52,,
54,PHL,Camden,2007,Y,5281,0,0,0.069,364,4917,-314.0,863,0.06,824.0,0.05,0.0,-6.4,803.52,0.04568871019968093,0.06873232517552712
55,PHL,Camden,2008,Q1,5281,0,0,0.06,317,4964,47.0,867,0.005,829.0,0.006,0.0,0.9,814.96,,
56,PHL,Camden,2008,Q2,5281,0,0,0.058,306,4975,11.0,883,0.018,841.0,0.014,0.0,0.2,831.84,,
57,PHL,Camden,2008,Q3,5281,0,0,0.053,280,5001,26.0,883,0.0,832.0,-0.011,0.0,0.5,836.18,,
58,PHL,Camden,2008,Q4,5281,0,0,0.056,296,4985,-16.0,876,-0.008,831.0,-0.001,0.0,-0.3,826.9,,
59,PHL,Camden,2008,Y,5281,0,0,0.056,296,4985,68.0,876,0.015,831.0,0.008,0.0,1.4,826.9,0.023885822568799422,0.055929987897777526
60,PHL,Camden,2009,Q1,5281,0,0,0.059,312,4969,-16.0,883,0.008,838.47,0.009,0.0,-0.3,830.88,,
61,PHL,Camden,2009,Q2,5281,0,0,0.063,333,4948,-21.0,883,0.0,838.5,0.0,0.0,-0.4,827.4,,
62,PHL,Camden,2009,Q3,5281,0,0,0.09,475,4806,-142.0,880,-0.003,828.36,-0.012,0.0,-3.0,800.92,,
63,PHL,Camden,2009,Q4,5281,0,0,0.084,444,4837,31.0,889,0.01,838.19,0.012,0.0,0.6,814.3,,
64,PHL,Camden,2009,Y,5281,0,0,0.084,444,4837,-148.0,889,0.015,838.19,0.009,0.0,-3.1,814.3,0.011830908836636601,0.08351018575387133
65,PHL,Camden,2010,Q1,5181,0,-100,0.077,399,4782,-55.0,893,0.004,841.29,0.004,0.0,-1.2,824.27,,
66,PHL,Camden,2010,Q2,5181,0,0,0.071,368,4813,31.0,898,0.006,848.07,0.008,0.0,0.6,834.28,,
67,PHL,Camden,2010,Q3,5181,0,0,0.068,352,4829,16.0,897,-0.001,847.2,-0.001,0.0,0.3,836.02,,
68,PHL,Camden,2010,Q4,5181,0,0,0.075,389,4792,-37.0,893,-0.005,843.82,-0.004,0.0,-0.8,825.79,,
69,PHL,Camden,2010,Y,5181,0,-100,0.075,389,4792,-45.0,893,0.004,843.82,0.007,0.0,-0.9,825.79,0.007669546541727828,0.07442015581062882
70,PHL,Camden,2011,Q1,5181,0,0,0.069,357,4824,32.0,901,0.009,852.37,0.01,0.0,0.7,838.73,,
71,PHL,Camden,2011,Q2,5181,0,0,0.063,326,4855,31.0,898,-0.003,851.04,-0.002,0.0,0.6,841.59,,
72,PHL,Camden,2011,Q3,5181,0,0,0.061,316,4865,10.0,901,0.003,854.39,0.004,0.0,0.2,846.22,,
73,PHL,Camden,2011,Q4,5181,0,0,0.064,332,4849,-16.0,913,0.013,864.87,0.012,0.0,-0.3,854.34,,
74,PHL,Camden,2011,Y,5181,0,0,0.064,332,4849,57.0,913,0.022,864.87,0.025,0.0,1.2,854.34,0.02848631516273468,0.06351146686147618
75,PHL,Camden,2012,Q1,5181,0,0,0.053,275,4906,57.0,917,0.005,871.74,0.008,0.0,1.2,868.6,,
76,PHL,Camden,2012,Q2,5181,0,0,0.052,269,4912,6.0,929,0.012,884.67,0.015,0.0,0.1,880.42,,
77,PHL,Camden,2012,Q3,5181,0,0,0.05,259,4922,10.0,930,0.002,886.8,0.002,0.0,0.2,883.62,,
78,PHL,Camden,2012,Q4,5181,0,0,0.044,228,4953,31.0,944,0.014,900.14,0.015,0.0,0.6,902.04,,
79,PHL,Camden,2012,Y,5181,0,0,0.044,228,4953,104.0,944,0.034,900.14,0.041,0.0,2.1,902.04,0.04263615045562162,0.04421116794450804
80,PHL,Camden,2013,Q1,5181,0,0,0.044,228,4953,0.0,942,-0.002,898.78,-0.002,,0.0,900.39,,
81,PHL,Camden,2013,Q2,5181,0,0,0.051,264,4917,-36.0,948,0.006,905.38,0.007,0.0,-0.7,899.63,,
82,PHL,Camden,2013,Q3,5181,0,0,0.049,254,4927,10.0,947,-0.001,904.93,0.0,0.0,0.2,900.86,,
83,PHL,Camden,2013,Q4,5181,0,0,0.039,202,4979,52.0,992,0.047,948.78,0.048,0.0,1.0,953.38,,
84,PHL,Camden,2013,Y,5181,0,0,0.039,202,4979,26.0,992,0.051,948.78,0.054,0.0,0.5,953.38,0.054435386221301445,0.03939830053924645
85,PHL,Camden,2014,Q1,5181,0,0,0.035,181,5000,21.0,1035,0.044,993.23,0.047,0.0,0.4,999.15,,
86,PHL,Camden,2014,Q2,5181,0,0,0.033,171,5010,10.0,1048,0.012,1006.29,0.013,0.0,0.2,1013.3,,
87,PHL,Camden,2014,Q3,5181,0,0,0.035,181,5000,-10.0,1047,0.0,1005.77,-0.001,0.0,-0.2,1010.82,,
88,PHL,Camden,2014,Q4,5251,70,0,0.033,173,5078,78.0,1054,0.006,1010.88,0.005,0.9,1.5,1019.21,,
89,PHL,Camden,2014,Y,5251,70,0,0.033,173,5078,99.0,1054,0.062,1010.88,0.065,0.7,1.9,1019.21,0.06435895683550194,0.03319501932157405
90,PHL,Camden,2015,Q1,5251,0,0,0.031,165,5086,8.0,1055,0.001,1011.61,0.001,0.0,0.2,1021.37,,
91,PHL,Camden,2015,Q2,5251,0,0,0.03,159,5092,6.0,1057,0.002,1014.0,0.002,0.0,0.1,1024.7,,
92,PHL,Camden,2015,Q3,5251,0,0,0.027,142,5109,17.0,1067,0.01,1025.01,0.011,0.0,0.3,1037.94,,
93,PHL,Camden,2015,Q4,5251,0,0,0.029,152,5099,-10.0,1060,-0.006,1018.54,-0.006,0.0,-0.2,1029.34,,
94,PHL,Camden,2015,Y,5251,0,0,0.029,152,5099,21.0,1060,0.006,1018.54,0.008,0.0,0.4,1029.34,0.016170618256242324,0.030003705609408796
95,PHL,Camden,2016,Q1,5251,0,0,0.027,142,5109,10.0,1058,-0.001,1028.01,0.009,0.0,0.2,1029.87,,
96,PHL,Camden,2016,Q2,5251,0,0,0.026,134,5117,8.0,1062,0.003,1031.2,0.003,0.0,0.2,1035.05,,
97,PHL,Camden,2016,Q3,5251,0,0,0.026,134,5117,0.0,1063,0.001,1031.68,0.0,,0.0,1036.22,,
98,PHL,Camden,2016,Q4,5251,0,0,0.026,134,5117,0.0,1085,0.021,1055.88,0.023,,0.0,1057.51,,
99,PHL,Camden,2016,Y,5251,0,0,0.026,134,5117,18.0,1085,0.024,1055.88,0.037,0.0,0.4,1057.51,0.03168526243031913,0.02645827777212617
100,PHL,Camden,2017,Q1,5251,0,0,0.022,113,5138,21.0,1083,-0.002,1053.71,-0.002,0.0,0.4,1060.11,,
101,PHL,Camden,2017,Q2,5251,0,0,0.022,113,5138,0.0,1095,0.011,1064.08,0.01,,0.0,1071.72,,
102,PHL,Camden,2017,Q3,5251,0,0,0.023,118,5133,-5.0,1102,0.007,1072.03,0.007,0.0,-0.1,1077.71,,
103,PHL,Camden,2017,Q4,5503,252,0,0.043,237,5266,133.0,1139,0.034,1100.86,0.027,1.9,2.5,1090.36,,
104,PHL,Camden,2017,Y,5503,252,0,0.043,237,5266,149.0,1139,0.05,1100.86,0.043,1.7,2.8,1090.36,0.047029644439340615,0.04268588793415269
105,PHL,Camden,2018,Q1,5503,0,0,0.041,226,5277,11.0,1143,0.003,1106.15,0.005,0.0,0.2,1096.42,,
106,PHL,Camden,2018,Q2,5503,0,0,0.041,226,5277,0.0,1151,0.007,1115.06,0.008,,0.0,1104.11,,
107,PHL,Camden,2018,Q3,5503,0,0,0.04,220,5283,6.0,1174,0.02,1135.75,0.019,0.0,0.1,1126.99,,
108,PHL,Camden,2018,Q4,5503,0,0,0.038,209,5294,11.0,1171,-0.003,1133.39,-0.002,0.0,0.2,1126.49,,
109,PHL,Camden,2018,Y,5503,0,0,0.038,209,5294,28.0,1171,0.028,1133.39,0.03,0.0,0.5,1126.49,0.03366956026533554,0.03728668532965458
110,PHL,Camden,2019,Q1,5503,0,0,0.033,182,5321,27.0,1164,-0.006,1130.01,-0.003,0.0,0.5,1125.48,,
111,PHL,Camden,2019,Q2,5748,245,0,0.056,322,5426,105.0,1204,0.034,1163.12,0.029,2.3,1.9,1136.67,,
112,PHL,Camden,2019,Y,5748,245,0,0.049,284,5464,170.0,1215,0.038,1174.17,0.036,1.4,3.1,1155.07,0.036486153275629235,0.048618102032120705
113,PHL,Camden,2020,Y,5863,115,0,0.05,294,5569,105.0,1240,0.02,1195.79,0.018,1.1,1.9,1177.77,0.023441685140768678,0.04912140484642867
114,PHL,Camden,2021,Y,5863,0,0,0.061,358,5505,-64.0,1249,0.007,1206.04,0.009,0.0,-1.2,1172.74,0.00915773174567562,0.06098148988278226
115,PHL,Camden,2022,Y,5863,0,0,0.064,373,5490,-15.0,1256,0.006,1212.01,0.005,0.0,-0.3,1176.44,0.00972801322669667,0.06362874146718177
116,PHL,Camden,2023,Y,5863,0,0,0.058,343,5520,30.0,1261,0.004,1216.95,0.004,0.0,0.5,1187.37,0.010256478650981662,0.05806830748859225
117,PHL,Camden,2024,Y,5863,0,0,0.058,343,5520,0.0,1264,0.002,1220.94,0.003,,0.0,1190.22,0.007499597637985461,0.05814864909232696
118,PHL,Camden,2025,Y,5863,0,0,0.061,359,5504,-16.0,1269,0.004,1226.21,0.004,0.0,-0.3,1191.4,0.008245034286885982,0.061082428618100336
119,PHL,Camden,2026,Y,5863,0,0,0.066,389,5474,-30.0,1272,0.002,1229.85,0.003,0.0,-0.5,1187.51,0.005494411800926005,0.06661471622906878
120,PHL,Camden,2027,Y,5863,0,0,0.072,419,5444,-30.0,1272,0.0,1231.88,0.002,0.0,-0.6,1181.48,0.0028433600937477375,0.07213701745826338
121,PHL,Camden,2028,Y,5863,0,0,0.07,411,5452,8.0,1275,0.002,1235.94,0.003,0.0,0.1,1185.58,0.006141400502508855,0.07056576322528599
