,Metro,Submarket,Year,Quarter,Inventory (SF/Units),Completions,Conversions,Vac %,Vacant Stock,Occupied Stock,Net Absorption,Asking Rent $,Asking Rent % Chg,Eff Rent $,Eff Rent % Chg,Cons/Abs Ratio,Abs/Occ Stk Ratio,Gr Rev/Unit $,WHRK rent %,WHRK vac %
0,PHL,Center City,1989,Y,14679,0,0,0.078,1145,13534,,699,,671.0,,,,644.48,0.002901290404168864,0.07705187958489382
1,PHL,Center City,1990,Y,14679,0,0,0.099,1453,13226,-308.0,720,0.03,683.0,0.018,0.0,-2.3,648.73,0.034884100334092505,0.09472839068808
2,PHL,Center City,1991,Y,14679,0,0,0.109,1600,13079,-147.0,740,0.028,705.0,0.032,0.0,-1.1,659.34,0.03339684863372983,0.10398484927040456
3,PHL,Center City,1992,Y,14679,0,0,0.086,1262,13417,338.0,749,0.012,719.0,0.02,0.0,2.5,684.61,0.015268073823777682,0.08399961601556706
4,PHL,Center City,1993,Y,14679,0,0,0.053,778,13901,484.0,775,0.035,767.0,0.067,0.0,3.5,733.92,0.038541456086290025,0.05357770652855566
5,PHL,Center City,1994,Y,14679,0,0,0.044,646,14033,132.0,810,0.045,807.0,0.052,0.0,0.9,774.35,0.04956472110071836,0.0449917532307506
6,PHL,Center City,1995,Y,14679,0,0,0.043,631,14048,15.0,841,0.038,836.0,0.036,0.0,0.1,804.85,0.04261030408521627,0.044363973121852626
7,PHL,Center City,1996,Y,14679,0,0,0.037,543,14136,88.0,895,0.064,884.0,0.057,0.0,0.6,861.89,0.06866985645990914,0.038080687326197515
8,PHL,Center City,1997,Y,14679,0,0,0.039,572,14107,-29.0,932,0.041,921.0,0.042,0.0,-0.2,895.68,0.045678895685112186,0.04086669266447384
9,PHL,Center City,1998,Y,14679,0,0,0.03,440,14239,132.0,1014,0.088,1003.0,0.089,0.0,0.9,983.61,0.09341902829678153,0.03117727829740738
10,PHL,Center City,1999,Q1,14679,0,0,0.013,191,14488,249.0,1025,0.011,1021.0,0.018,0.0,1.7,1011.66,,
11,PHL,Center City,1999,Q2,14993,314,0,0.023,345,14648,160.0,1068,0.042,1067.0,0.045,2.0,1.1,1043.42,,
12,PHL,Center City,1999,Q3,14993,0,0,0.013,195,14798,150.0,1084,0.015,1081.0,0.013,0.0,1.0,1069.9,,
13,PHL,Center City,1999,Q4,15302,309,0,0.016,245,15057,259.0,1093,0.008,1086.0,0.005,1.2,1.7,1075.5,,
14,PHL,Center City,1999,Y,15302,623,0,0.016,245,15057,818.0,1093,0.078,1086.0,0.083,0.8,5.4,1075.5,0.0748627152017366,0.015980090444809393
15,PHL,Center City,2000,Q1,15302,0,0,0.014,214,15088,31.0,1148,0.05,1143.0,0.052,0.0,0.2,1131.95,,
16,PHL,Center City,2000,Q2,15302,0,0,0.013,199,15103,15.0,1181,0.029,1176.0,0.029,0.0,0.1,1165.64,,
17,PHL,Center City,2000,Q3,15302,0,0,0.014,214,15088,-15.0,1199,0.015,1193.0,0.014,0.0,-0.1,1182.23,,
18,PHL,Center City,2000,Q4,15370,68,0,0.01,154,15216,128.0,1221,0.018,1213.0,0.017,0.5,0.8,1208.77,,
19,PHL,Center City,2000,Y,15370,68,0,0.01,154,15216,159.0,1221,0.117,1213.0,0.117,0.4,1.0,1208.77,0.12206712379406864,0.009511297016848982
20,PHL,Center City,2001,Q1,15370,0,0,0.016,246,15124,-92.0,1220,-0.001,1211.0,-0.002,0.0,-0.6,1200.47,,
21,PHL,Center City,2001,Q2,15370,0,0,0.023,354,15016,-108.0,1262,0.034,1232.0,0.017,0.0,-0.7,1232.93,,
22,PHL,Center City,2001,Q3,15370,0,0,0.016,246,15124,108.0,1267,0.004,1225.0,-0.006,0.0,0.7,1246.72,,
23,PHL,Center City,2001,Q4,15601,231,0,0.029,452,15149,25.0,1274,0.006,1197.0,-0.023,9.2,0.2,1237.09,,
24,PHL,Center City,2001,Y,15601,231,0,0.029,452,15149,-67.0,1274,0.043,1197.0,-0.013,-3.4,-0.4,1237.09,0.04189502351889648,0.029162710065546396
25,PHL,Center City,2002,Q1,15601,0,0,0.033,515,15086,-63.0,1279,0.004,1221.0,0.02,0.0,-0.4,1236.78,,
26,PHL,Center City,2002,Q2,16030,429,0,0.048,769,15261,175.0,1290,0.009,1229.0,0.007,2.5,1.1,1228.12,,
27,PHL,Center City,2002,Q3,16272,242,0,0.042,683,15589,328.0,1308,0.014,1245.0,0.013,0.7,2.1,1253.1,,
28,PHL,Center City,2002,Q4,16192,120,-200,0.058,939,15253,-336.0,1317,0.007,1240.0,-0.004,-0.4,-2.2,1240.63,,
29,PHL,Center City,2002,Y,16192,791,-200,0.058,939,15253,104.0,1317,0.034,1240.0,0.036,7.6,0.7,1240.63,0.029185029427284456,0.05603458400974378
30,PHL,Center City,2003,Q1,16192,0,0,0.056,907,15285,32.0,1325,0.006,1259.0,0.015,0.0,0.2,1250.78,,
31,PHL,Center City,2003,Q2,16192,0,0,0.049,793,15399,114.0,1320,-0.004,1258.0,-0.001,0.0,0.7,1255.35,,
32,PHL,Center City,2003,Q3,16192,0,0,0.038,615,15577,178.0,1349,0.022,1289.0,0.025,0.0,1.1,1297.76,,
33,PHL,Center City,2003,Q4,16387,195,0,0.056,918,15469,-108.0,1354,0.004,1293.0,0.003,-1.8,-0.7,1278.15,,
34,PHL,Center City,2003,Y,16387,195,0,0.056,918,15469,216.0,1354,0.028,1293.0,0.043,0.9,1.4,1278.15,0.030571745024959376,0.05502183118983709
35,PHL,Center City,2004,Q1,16234,0,-153,0.058,942,15292,-177.0,1371,0.013,1312.0,0.015,0.0,-1.2,1291.45,,
36,PHL,Center City,2004,Q2,16303,69,0,0.051,831,15472,180.0,1380,0.007,1333.0,0.016,0.4,1.2,1309.66,,
37,PHL,Center City,2004,Q3,15709,306,-900,0.06,943,14766,-706.0,1412,0.023,1357.0,0.018,-0.4,-4.8,1327.24,,
38,PHL,Center City,2004,Q4,15580,88,-217,0.06,935,14645,-121.0,1416,0.003,1358.0,0.001,-0.7,-0.8,1331.02,,
39,PHL,Center City,2004,Y,15580,463,-1270,0.06,935,14645,-824.0,1416,0.046,1358.0,0.05,-0.6,-5.6,1331.02,0.049017117493363536,0.05890415264088572
40,PHL,Center City,2005,Q1,15282,0,-298,0.056,856,14426,-219.0,1424,0.006,1371.0,0.01,0.0,-1.5,1344.24,,
41,PHL,Center City,2005,Q2,15021,0,-261,0.055,826,14195,-231.0,1440,0.011,1386.0,0.011,0.0,-1.6,1360.81,,
42,PHL,Center City,2005,Q3,15021,0,0,0.049,736,14285,90.0,1430,-0.007,1386.0,0.0,0.0,0.6,1359.93,,
43,PHL,Center City,2005,Q4,14932,265,-354,0.046,687,14245,-40.0,1439,0.006,1396.0,0.007,-6.6,-0.3,1372.79,,
44,PHL,Center City,2005,Y,14932,265,-913,0.046,687,14245,-400.0,1439,0.016,1396.0,0.028,-0.7,-2.8,1372.79,0.019537809786423846,0.04855474170452222
45,PHL,Center City,2006,Q1,14760,0,-172,0.052,768,13992,-253.0,1436,-0.002,1396.0,0.0,0.0,-1.8,1361.28,,
46,PHL,Center City,2006,Q2,14057,50,-753,0.05,703,13354,-638.0,1457,0.015,1415.0,0.014,-0.1,-4.8,1384.13,,
47,PHL,Center City,2006,Q3,14881,824,0,0.049,729,14152,798.0,1478,0.014,1433.0,0.013,1.0,5.6,1405.59,,
48,PHL,Center City,2006,Q4,14881,0,0,0.044,655,14226,74.0,1501,0.016,1451.0,0.013,0.0,0.5,1434.93,,
49,PHL,Center City,2006,Y,14881,874,-925,0.044,655,14226,-19.0,1501,0.043,1451.0,0.039,-46.0,-0.1,1434.93,0.03957233942757309,0.04510658806310108
50,PHL,Center City,2007,Q1,14881,0,0,0.041,610,14271,45.0,1522,0.014,1480.0,0.02,0.0,0.3,1459.61,,
51,PHL,Center City,2007,Q2,14881,0,0,0.047,699,14182,-89.0,1542,0.013,1507.0,0.018,0.0,-0.6,1469.57,,
52,PHL,Center City,2007,Q3,14881,0,0,0.048,714,14167,-15.0,1554,0.008,1511.0,0.003,0.0,-0.1,1479.44,,
53,PHL,Center City,2007,Q4,14881,0,0,0.05,744,14137,-30.0,1571,0.011,1520.0,0.006,0.0,-0.2,1492.46,,
54,PHL,Center City,2007,Y,14881,0,0,0.05,744,14137,-89.0,1571,0.047,1520.0,0.048,0.0,-0.6,1492.46,0.054371347134695894,0.05182307767926551
55,PHL,Center City,2008,Q1,14881,0,0,0.052,774,14107,-30.0,1585,0.009,1537.0,0.011,0.0,-0.2,1502.56,,
56,PHL,Center City,2008,Q2,14881,0,0,0.049,729,14152,45.0,1622,0.023,1576.0,0.025,0.0,0.3,1542.54,,
57,PHL,Center City,2008,Q3,14881,0,0,0.056,833,14048,-104.0,1626,0.002,1587.0,0.007,0.0,-0.7,1534.98,,
58,PHL,Center City,2008,Q4,14881,0,0,0.052,774,14107,59.0,1609,-0.01,1558.0,-0.018,0.0,0.4,1525.31,,
59,PHL,Center City,2008,Y,14881,0,0,0.052,774,14107,-30.0,1609,0.024,1558.0,0.025,0.0,-0.2,1525.31,0.031195872712517527,0.054669632832483765
60,PHL,Center City,2009,Q1,14881,0,0,0.059,878,14003,-104.0,1605,-0.002,1553.83,-0.003,0.0,-0.7,1510.39,,
61,PHL,Center City,2009,Q2,15023,142,0,0.06,901,14122,119.0,1628,0.014,1561.0,0.005,1.2,0.8,1530.43,,
62,PHL,Center City,2009,Q3,15023,0,0,0.062,931,14092,-30.0,1625,-0.002,1562.63,0.001,0.0,-0.2,1524.37,,
63,PHL,Center City,2009,Q4,15208,185,0,0.061,920,14288,196.0,1610,-0.009,1550.06,-0.008,0.9,1.4,1512.67,,
64,PHL,Center City,2009,Y,15208,327,0,0.061,920,14288,181.0,1610,0.001,1550.06,-0.005,1.8,1.3,1512.67,0.003989036567830609,0.062442136618114874
65,PHL,Center City,2010,Q1,15208,0,0,0.063,966,14242,-46.0,1587,-0.014,1532.58,-0.011,0.0,-0.3,1486.14,,
66,PHL,Center City,2010,Q2,15353,145,0,0.066,1006,14347,105.0,1611,0.015,1552.95,0.013,1.4,0.7,1505.53,,
67,PHL,Center City,2010,Q3,15353,0,0,0.06,914,14439,92.0,1651,0.024,1598.91,0.03,0.0,0.6,1552.26,,
68,PHL,Center City,2010,Q4,15353,0,0,0.055,852,14501,62.0,1657,0.004,1606.13,0.005,0.0,0.4,1564.93,,
69,PHL,Center City,2010,Y,15353,145,0,0.055,852,14501,213.0,1657,0.029,1606.13,0.036,0.7,1.5,1564.93,0.03504879419170498,0.05689880191807561
70,PHL,Center City,2011,Q1,15353,0,0,0.05,760,14593,92.0,1666,0.006,1616.9,0.007,0.0,0.6,1583.65,,
71,PHL,Center City,2011,Q2,15353,0,0,0.05,762,14591,-2.0,1683,0.01,1632.3,0.01,0.0,0.0,1599.13,,
72,PHL,Center City,2011,Q3,15353,0,0,0.043,654,14699,108.0,1699,0.009,1649.91,0.011,0.0,0.7,1626.19,,
73,PHL,Center City,2011,Q4,15353,0,0,0.039,593,14760,61.0,1692,-0.004,1645.04,-0.003,0.0,0.4,1626.6,,
74,PHL,Center City,2011,Y,15353,0,0,0.039,593,14760,259.0,1692,0.021,1645.04,0.024,0.0,1.8,1626.6,0.026920830181291815,0.0416359903209686
75,PHL,Center City,2012,Q1,15452,99,0,0.036,550,14902,142.0,1702,0.006,1660.31,0.009,0.7,1.0,1641.62,,
76,PHL,Center City,2012,Q2,15578,126,0,0.034,523,15055,153.0,1723,0.012,1685.03,0.015,0.8,1.0,1665.43,,
77,PHL,Center City,2012,Q3,15689,111,0,0.031,480,15209,154.0,1747,0.014,1709.75,0.015,0.7,1.0,1693.2,,
78,PHL,Center City,2012,Q4,15892,203,0,0.034,534,15358,149.0,1741,-0.003,1701.36,-0.005,1.4,1.0,1682.07,,
79,PHL,Center City,2012,Y,15892,539,0,0.034,534,15358,598.0,1741,0.029,1701.36,0.034,0.9,3.9,1682.07,0.028939394018818912,0.03446465165567183
80,PHL,Center City,2013,Q1,15892,0,0,0.033,518,15374,16.0,1745,0.003,1706.77,0.003,0.0,0.1,1688.49,,
81,PHL,Center City,2013,Q2,16370,478,0,0.05,820,15550,176.0,1775,0.017,1728.37,0.013,2.7,1.1,1685.83,,
82,PHL,Center City,2013,Q3,16370,0,0,0.049,804,15566,16.0,1776,0.001,1729.99,0.001,0.0,0.1,1688.72,,
83,PHL,Center City,2013,Q4,16701,331,0,0.057,954,15747,181.0,1815,0.022,1768.74,0.022,1.8,1.1,1710.98,,
84,PHL,Center City,2013,Y,16701,809,0,0.057,954,15747,389.0,1815,0.043,1768.74,0.04,2.1,2.5,1710.98,0.04361856805559642,0.055353960597900945
85,PHL,Center City,2014,Q1,16701,0,0,0.049,820,15881,134.0,1821,0.004,1775.66,0.004,0.0,0.8,1731.69,,
86,PHL,Center City,2014,Q2,17088,387,0,0.057,976,16112,231.0,1850,0.016,1801.48,0.015,1.7,1.4,1743.89,,
87,PHL,Center City,2014,Q3,17387,299,0,0.061,1068,16319,207.0,1854,0.002,1806.43,0.003,1.4,1.3,1740.14,,
88,PHL,Center City,2014,Q4,17387,0,0,0.057,991,16396,77.0,1848,-0.003,1800.06,-0.004,0.0,0.5,1742.95,,
89,PHL,Center City,2014,Y,17387,686,0,0.057,991,16396,649.0,1848,0.019,1800.06,0.018,1.1,4.0,1742.95,0.02004723068029244,0.05546046861559986
90,PHL,Center City,2015,Q1,17387,0,0,0.048,836,16551,155.0,1883,0.019,1837.64,0.021,0.0,0.9,1792.71,,
91,PHL,Center City,2015,Q2,17537,150,0,0.047,817,16720,169.0,1937,0.028,1893.92,0.031,0.9,1.0,1846.52,,
92,PHL,Center City,2015,Q3,17596,59,0,0.047,820,16776,56.0,1969,0.017,1927.6,0.018,1.1,0.3,1877.44,,
93,PHL,Center City,2015,Q4,17832,236,0,0.049,876,16956,180.0,2011,0.021,1967.85,0.021,1.3,1.1,1912.37,,
94,PHL,Center City,2015,Y,17832,445,0,0.049,876,16956,560.0,2011,0.088,1967.85,0.093,0.8,3.3,1912.37,0.09404221374968955,0.04427184882219905
95,PHL,Center City,2016,Q1,17832,0,0,0.048,858,16974,18.0,1970,-0.02,1952.55,-0.008,0.0,0.1,1875.27,,
96,PHL,Center City,2016,Q2,18266,434,0,0.066,1200,17066,92.0,2047,0.039,2025.41,0.037,4.7,0.5,1912.52,,
97,PHL,Center City,2016,Q3,18936,670,0,0.082,1555,17381,315.0,2102,0.027,2077.26,0.026,2.1,1.8,1929.55,,
98,PHL,Center City,2016,Q4,19439,503,0,0.1,1946,17493,112.0,2151,0.023,2113.56,0.017,4.5,0.6,1935.26,,
99,PHL,Center City,2016,Y,19439,1607,0,0.1,1946,17493,537.0,2151,0.069,2113.56,0.074,3.0,3.1,1935.26,0.07090903329431456,0.10126896852432658
100,PHL,Center City,2017,Q1,19530,91,0,0.084,1637,17893,400.0,2135,-0.007,2055.31,-0.028,0.2,2.2,1955.79,,
101,PHL,Center City,2017,Q2,19737,207,0,0.074,1455,18282,389.0,2154,0.009,1990.15,-0.032,0.5,2.1,1995.18,,
102,PHL,Center City,2017,Q3,20148,411,0,0.074,1495,18653,371.0,2199,0.021,2031.6,0.021,1.1,2.0,2036.09,,
103,PHL,Center City,2017,Q4,20434,286,0,0.078,1592,18842,189.0,2223,0.011,2054.24,0.011,1.5,1.0,2050.26,,
104,PHL,Center City,2017,Y,20434,995,0,0.078,1592,18842,1349.0,2223,0.034,2054.24,-0.028,0.7,7.2,2050.26,0.028681159561467485,0.0769023880795864
105,PHL,Center City,2018,Q1,21228,794,0,0.09,1913,19315,473.0,2319,0.043,2136.15,0.04,1.7,2.4,2110.32,,
106,PHL,Center City,2018,Q2,21590,362,0,0.09,1934,19656,341.0,2339,0.008,2155.69,0.009,1.1,1.7,2129.18,,
107,PHL,Center City,2018,Q3,21893,303,0,0.078,1719,20174,518.0,2406,0.029,2197.51,0.019,0.6,2.6,2217.49,,
108,PHL,Center City,2018,Q4,23389,1496,0,0.089,2082,21307,1133.0,2461,0.023,2230.2,0.015,1.3,5.3,2242.15,,
109,PHL,Center City,2018,Y,23389,2955,0,0.089,2082,21307,2465.0,2461,0.107,2230.2,0.086,1.2,11.6,2242.15,0.08058904558649219,0.08752608723253819
110,PHL,Center City,2019,Q1,23679,290,0,0.085,2015,21664,357.0,2463,0.001,2238.14,0.004,0.8,1.6,2253.7,,
111,PHL,Center City,2019,Q2,23999,320,0,0.082,1959,22040,376.0,2502,0.016,2271.35,0.015,0.9,1.7,2297.87,,
112,PHL,Center City,2019,Y,24303,914,0,0.085,2066,22237,930.0,2595,0.054,2336.2,0.048,1.0,4.2,2374.07,0.04913680784289169,0.0871375840361458
113,PHL,Center City,2020,Y,25289,986,0,0.088,2233,23056,819.0,2729,0.052,2437.91,0.044,1.2,3.6,2487.83,0.046050230860829024,0.0927577530879994
114,PHL,Center City,2021,Y,25521,232,0,0.088,2251,23270,214.0,2847,0.043,2514.58,0.031,1.1,0.9,2595.59,0.04396946243204399,0.09432080592567431
115,PHL,Center City,2022,Y,25602,81,0,0.083,2122,23480,210.0,2924,0.027,2572.92,0.023,0.4,0.9,2681.73,0.027565933729054328,0.08708412847048781
116,PHL,Center City,2023,Y,25675,73,0,0.079,2026,23649,169.0,2990,0.023,2625.7,0.021,0.4,0.7,2754.49,0.022456930230355516,0.08118006030160564
117,PHL,Center City,2024,Y,25751,76,0,0.076,1949,23802,153.0,3048,0.019,2673.88,0.018,0.5,0.6,2817.76,0.01751467235028242,0.0763877460331015
118,PHL,Center City,2025,Y,25827,76,0,0.073,1878,23949,147.0,3118,0.023,2728.73,0.021,0.5,0.6,2890.99,0.020579876464010608,0.07167784397760478
119,PHL,Center City,2026,Y,25906,79,0,0.07,1806,24100,151.0,3195,0.025,2790.61,0.023,0.5,0.6,2972.27,0.021521648599852842,0.06699150260101333
120,PHL,Center City,2027,Y,25976,70,0,0.066,1725,24251,151.0,3281,0.027,2862.97,0.026,0.5,0.6,3063.37,0.022674062472401172,0.061844014611486434
121,PHL,Center City,2028,Y,26043,67,0,0.062,1612,24431,180.0,3373,0.028,2941.91,0.028,0.4,0.7,3164.05,0.02253437069946423,0.05480172619467199
