,APT#,ADDRESS,STATE,ZIP,BATH,BED,RENT,RETAIL SF,UNIT SF,RENT PSF,ASKING PRICE,PRICE PSF,COMM,BUILD OUT,A B C CLASS,LINK,LISTING ID,PROPERTY TYPE,YEAR BUILT,RETAIL BASEMENT,RETAIL GROUND,RETAIL HIGH FLOOR,APARTMENT STYLE,OCCUP,GSF,CAP RATE,EFFECTIVE GROSS INCOME,# FLOORS,GROSS RENT MULTIPLIER,GROSS RENTAL INCOME,LAND SF,NET OPERATING INCOME,# UNITS,OPERATING EXPENSES,RE TAXES,VACANCY,WASHER/DRYER,PET POLICY,CONCIERGE,DATE CREATED,LAST UPDATED,PRICE CHANGE,SCRAPED DATE
0,nan,1801-1803 NORTH HOWARD STREET,PA,19122.0,,,,,,,3950000.0,131.66666666666666,0,,C,https://www.loopnet.com/Listing/1801-1803-N-Howard-St-Philadelphia-PA/16324537/,16324537,Multifamily,1915,,,,Mid Rise,100%,30000,5.06%,,5,,,10890.0,,13,,,,,,,6/12/2019,2019-11-03,,
1,nan,2301-03 NORTH BROAD STREET,PA,19132.0,,,,,,,2695000.0,184.58904109589042,0,,B,https://www.loopnet.com/Listing/2301-03-N-Broad-St-Philadelphia-PA/17230022/,17230022,Multifamily,1915,,,,Mid Rise,,14600,6.16%,,4,,,6534.0,,12,,,,,,,9/18/2019,2019-11-03,,
2,nan,2234 NORTH BROAD STREET,PA,19132.0,,,,,,,1950000.0,57.35294117647059,0,,,https://www.loopnet.com/Listing/2234-N-Broad-St-Philadelphia-PA/16743603/,16743603,Multifamily,,,,,Mid Rise,100%,34000,,,5,,,,,30,,,,,,,7/27/2019,2019-11-03,,
3,nan,1526 NORTH 18 STREET,PA,19121.0,,,,,,,395000.0,146.40474425500372,0,,,https://www.loopnet.com/Listing/1526-N-18th-St-Philadelphia-PA/17402023/,17402023,Multifamily,1915,,,,,83%,2698,,,3,,,,,6,,,,,,,10/8/2019,2019-11-03,,
4,nan,2640 EAST ALLEGHENY AVENUE,PA,19134.0,,,,,,,289900.0,277.151051625239,0,,,https://www.loopnet.com/Listing/2640-E-Allegheny-Ave-Philadelphia-PA/17291525/,17291525,Multifamily,1920,,,,,,1046,,,2,,,,,2,,,,,,,9/25/2019,2019-11-03,,
5,nan,1327 NORTH FRANKLIN STREET,PA,19122.0,,,,,,,1025000.0,190.59129788025288,0,,C,https://www.loopnet.com/Listing/1327-N-Franklin-St-Philadelphia-PA/17181232/,17181232,Multifamily,2017,,,,Mid Rise,100%,5378,6.53%,,4,6.53,,1742.4,,4,,,,,,,9/12/2019,2019-11-03,,
6,nan,3027 RICHMOND STREET,PA,19134.0,,,,,,,899000.0,280.5867665418227,0,,,https://www.loopnet.com/Listing/3027-Richmond-St-Philadelphia-PA/17178338/,17178338,Multifamily,1915,,,,Garden,100%,3204,6.00%,,3,,,,,5,,,,,,,9/12/2019,2019-11-03,,
7,nan,6604 WOODLAND AVENUE,PA,19142.0,,,,,,,640000.0,336.8421052631579,0,,,https://www.loopnet.com/Listing/6604-Woodland-Ave-Philadelphia-PA/17171317/,17171317,Multifamily,1915,,,,,,1900,,,3,,,,,3,,,,,,,9/11/2019,2019-11-03,,
8,nan,2025 SOUTH 11 STREET,PA,19148.0,,,,,,,359000.0,249.30555555555554,0,,,https://www.loopnet.com/Listing/2025-S-11th-St-Philadelphia-PA/17140464/,17140464,Multifamily,1920,,,,Low Rise,100%,1440,5.00%,22200.0,2,,22200.0,871.2,17978.0,2,1000.0,3222.0,0.0,,,,9/8/2019,2019-11-03,,
9,nan,113 EAST GIRARD AVENUE,PA,19125.0,,,,,,,765000.0,500.0,0,,C,https://www.loopnet.com/Listing/113-E-Girard-Ave-Philadelphia-PA/17100493/,17100493,Multifamily,1915,,,,Low Rise,,1530,6.00%,,3,,,435.6,,3,,,,,,,9/4/2019,2019-11-03,,
10,nan,2006 WALNUT STREET,PA,19103.0,,,,,,,3800000.0,345.45454545454544,0,,C,https://www.loopnet.com/Listing/2006-Walnut-St-Philadelphia-PA/17100411/,17100411,Multifamily,1888,,,,Mid Rise,,11000,5.00%,,4,,,3049.2000000000003,,13,,,,,,,5/29/2018,2019-11-03,,
11,nan,2031-2033 SOUTH JUNIPER STREET,PA,19148.0,,,,,,,2850000.0,263.4011090573013,0,,B,https://www.loopnet.com/Listing/2031-2033-S-Juniper-St-Philadelphia-PA/17093877/,17093877,Multifamily,2018,,,,,100%,10820,,,3,,,,,8,,,,,,,9/3/2019,2019-11-03,,
12,nan,1702-1704 NORTH 18 STREET,PA,19121.0,,,,,,,2350000.0,213.63636363636363,0,,B,https://www.loopnet.com/Listing/1702-1704-N-18th-St-Philadelphia-PA/17088898/,17088898,Multifamily,2016,,,,Mid Rise,100%,11000,6.40%,,4,,,3049.2000000000003,,7,,,,,,,9/2/2019,2019-11-03,,
13,nan,4059 BARING STREET,PA,19104.0,,,,,,,1990000.0,266.5773610180844,0,,B,https://www.loopnet.com/Listing/4059-Baring-St-Philadelphia-PA/17048883/,17048883,Multifamily,2019,,,,Mid Rise,,7465,6.70%,150000.0,4,,150000.0,2178.0,133330.0,5,0.0,0.0,0.0,,,,8/28/2019,2019-11-03,,
14,nan,1827 WEST DIAMOND STREET,PA,19121.0,,,,,,,1395000.0,202.76162790697674,0,,,https://www.loopnet.com/Listing/1827-W-Diamond-St-Philadelphia-PA/16933072/,16933072,Multifamily,2018,,,,Low Rise,,6880,,,4,,,,,6,,,,,,,8/15/2019,2019-11-03,,
15,nan,17 SOUTH 44 STREET,PA,19104.0,,,,,,,1750000.0,238.6797599563557,0,,B,https://www.loopnet.com/Listing/17-S-44th-St-Philadelphia-PA/16753242/,16753242,Multifamily,2016,,,,Mid Rise,83%,7332,6.06%,,6,,,1306.8,,6,,,,,,,7/29/2019,2019-11-03,,
16,nan,1843 NORTH 6 STREET,PA,19122.0,,,,,,,999999.0,249.99975,0,,B,https://www.loopnet.com/Listing/1843-N-6th-St-Philadelphia-PA/16583808/,16583808,Multifamily,2019,,,,,,4000,6.53%,,4,,,1742.4,,4,,,,,,,7/11/2019,2019-11-03,,
17,nan,1841 NORTH 6 STREET,PA,19122.0,,,,,,,999999.0,249.99975,0,,B,https://www.loopnet.com/Listing/1841-N-6th-St-Philadelphia-PA/16583789/,16583789,Multifamily,2019,,,,,,4000,6.53%,,4,,,1742.4,,4,,,,,,,7/11/2019,2019-11-03,,
18,nan,1436 SOUTH 12 STREET,PA,19147.0,,,,,,,849900.0,269.8095238095238,0,,,https://www.loopnet.com/Listing/1436-S-12th-St-Philadelphia-PA/16574083/,16574083,Multifamily,1900,,,,,100%,3150,,52800.0,3,,52800.0,1306.8,0.0,4,0.0,4548.0,0.0,,,,7/10/2019,2019-11-03,,
19,nan,1544 NORTH WILLINGTON STREET,PA,19121.0,,,,,,,925000.0,308.3333333333333,0,,B,https://www.loopnet.com/Listing/1544-N-Willington-St-Philadelphia-PA/16547442/,16547442,Multifamily,2014,,,,,,3000,,81360.0,3,,81360.0,1742.4,61020.0,3,0.0,0.0,0.0,,,,7/8/2019,2019-11-03,,
20,nan,1724 MONUMENT STREET,PA,19121.0,,,,,,,665000.0,221.66666666666666,0,,,https://www.loopnet.com/Listing/1724-Monument-St-Philadelphia-PA/16501975/,16501975,Multifamily,2016,,,,,100%,3000,6.70%,,4,,,,,2,,,,,,,7/2/2019,2019-11-03,,
21,nan,1728-1732 SOUTH 2 STREET,PA,19148.0,,,,,,,3900000.0,207.138304652645,0,,C,https://www.loopnet.com/Listing/1728-1732-S-2nd-St-Philadelphia-PA/16461681/,16461681,Multifamily,1915,,,,Low Rise,,18828,5.85%,,3,,,6098.400000000001,,12,,,,,,,6/27/2019,2019-11-03,,
22,nan,2409 WEST THOMPSON STREET,PA,19121.0,,,,,,,899999.0,243.24297297297298,0,,A,https://www.loopnet.com/Listing/2409-W-Thompson-St-Philadelphia-PA/16306428/,16306428,Multifamily,2019,,,,,,3700,,69000.0,4,,69000.0,1306.8,58650.0,3,0.0,0.0,0.0,,,,6/10/2019,2019-11-03,,
23,nan,2411 WEST THOMPSON STREET,PA,19121.0,,,,,,,574999.0,191.66633333333334,0,,,https://www.loopnet.com/Listing/2411-W-Thompson-St-Philadelphia-PA/16301656/,16301656,Multifamily,1915,,,,,,3000,,,4,,,1306.8,,2,,,,,,,6/10/2019,2019-11-03,,
24,nan,829 NORTH 41 STREET,PA,18102.0,,,,,,,409900.0,149.65315808689303,0,,C,https://www.loopnet.com/Listing/829-N-41st-St-Philadelphia-PA/16173260/,16173260,Multifamily,1925,,,,Low Rise,100%,2739,,,3,,,1306.8,,5,,,,,,,5/28/2019,2019-11-03,,
25,nan,1538-1544 FRANKFORD AVENUE,PA,19125.0,,,,,,,2550000.0,335.9683794466403,0,,C,https://www.loopnet.com/Listing/1538-1544-Frankford-Ave-Philadelphia-PA/16107902/,16107902,Multifamily,1920,,,,Garden,,7590,,,3,,,,,6,,,,,,,5/20/2019,2019-11-03,,
26,nan,4236 CHESTNUT STREET,PA,19104.0,,,,,,,1500000.0,220.2966661771185,0,,C,https://www.loopnet.com/Listing/4236-Chestnut-St-Philadelphia-PA/15916112/,15916112,Multifamily,1900,,,,Low Rise,,6809,7.70%,,3,,,1742.4,,12,,,,,,,5/1/2019,2019-11-03,,
27,nan,322 SOUTH 11 STREET,PA,36547.0,,,,,,,2250000.0,387.9310344827586,0,,C,https://www.loopnet.com/Listing/322-S-11th-St-Philadelphia-PA/15799475/,15799475,Multifamily,1890,,,,Mid Rise,,5800,,,4,,,3049.2000000000003,,11,,,,,,,4/22/2019,2019-11-03,,
28,nan,1335 NORTH MARSTON STREET,PA,19121.0,,,,,,,2849999.0,319.04164334490093,0,,B,https://www.loopnet.com/Listing/1335-N-Marston-St-Philadelphia-PA/15547871/,15547871,Multifamily,2019,,,,Mid Rise,,8933,,,4,,,,,8,,,,,,,3/26/2019,2019-11-03,,
29,nan,1113-1115 SPRUCE STREET,PA,19013.0,,,,,,,3950000.0,403.55537392725785,0,,C,https://www.loopnet.com/Listing/1113-1115-Spruce-St-Philadelphia-PA/15295337/,15295337,Multifamily,1899,,,,Mid Rise,,9788,,,4,,,3484.8,,15,,,,,,,2/27/2019,2019-11-03,,
30,nan,1703 SOUTH 19 STREET,PA,19145.0,,,,,,,449900.0,168.6281859070465,0,,C,https://www.loopnet.com/Listing/1703-S-19th-St-Philadelphia-PA/14709191/,14709191,Multifamily,1915,,,,Low Rise,100%,2668,,,3,,,871.2,,3,,,,,,,12/24/2018,2019-11-03,,
31,nan,800-820 NORTH 48 STREET,PA,19139.0,,,,,,,31000000.0,162.93493114685168,0,,A,https://www.loopnet.com/Listing/800-820-N-48th-St-Philadelphia-PA/14331813/,14331813,Multifamily,2014,,,,Mid Rise,77%,190260,5.96%,,4,,,,,86,,,,,,,11/8/2018,2019-11-03,,
32,nan,1839-1843 NORTH 6 STREET,PA,19122.0,,,,,,,2999999.0,249.99991666666668,0,,B,https://www.loopnet.com/Listing/1839-1843-N-6th-St-Philadelphia-PA/12790454/,12790454,Multifamily,2019,,,,Mid Rise,,12000,6.53%,,4,,,1742.4,,12,,,,,,,6/7/2018,2019-11-03,,
33,nan,4316 PINE STREET,PA,19104.0,,,,,,,610000.0,329.72972972972974,0,,C,https://www.loopnet.com/Listing/4316-Pine-St-Philadelphia-PA/11034309/,11034309,Specialty,1905,,,,,,1850,5.70%,42000.0,3,,42000.0,1742.4,34775.0,,3144.0,4081.0,0.0,,,,12/20/2017,2019-11-03,,
34,nan,323 SOUTH 51 STREET,PA,19143.0,,,,,,,690000.0,170.87667161961366,0,,,https://www.loopnet.com/Listing/323-S-51st-St-Philadelphia-PA/17499357/,17499357,Multifamily,1910,,,,Low Rise,,4038,16.38%,127200.0,3,,127200.0,,113000.0,7,9800.0,4400.0,0.0,,,,10/19/2019,2019-11-03,,
35,nan,1540 RIDGE AVENUE,PA,19130.0,,,,,,,2950000.0,280.95238095238096,0,,B,https://www.loopnet.com/Listing/1540-Ridge-Ave-Philadelphia-PA/16717980/,16717980,Multifamily,2019,,,,Low Rise,,10500,6.17%,,5,,,2178.0,,10,,,,,,,7/25/2019,2019-11-03,,
36,nan,3925 HAVERFORD AVENUE,PA,19104.0,,,,,,,11400000.0,369.60186746206716,0,,B,https://www.loopnet.com/Listing/3925-Haverford-Ave-Philadelphia-PA/15755348/,15755348,Multifamily,2018,,,,Mid Rise,,30844,,,4,,,,,33,,,,,,,4/16/2019,2019-11-03,,
37,nan,3105 HAMILTON STREET,PA,19104.0,,,,,,,7100000.0,591.6666666666666,0,,B,https://www.loopnet.com/Listing/3105-Hamilton-St-Philadelphia-PA/17606718/,17606718,Multifamily,2014,,,,Low Rise,,12000,6.10%,,3,,,,,21,,,,,,,11/1/2019,2019-11-03,,
38,nan,1706 NORTH SYDENHAM STREET,PA,19121.0,,,,,,,4800000.0,131.36288998357963,0,,B,https://www.loopnet.com/Listing/1706-N-Sydenham-St-Philadelphia-PA/17606712/,17606712,Multifamily,2005,,,,Mid Rise,100%,36540,6.50%,,4,,,9147.6,,27,,,,,,,11/1/2019,2019-11-03,,
39,nan,4258 CHESTNUT STREET,PA,19104.0,,,,,,,17200000.0,382.22222222222223,0,,B,https://www.loopnet.com/Listing/4258-Chestnut-St-Philadelphia-PA/17606694/,17606694,Multifamily,2017,,,,Mid Rise,100%,45000,6.00%,,5,,,,,45,,,,,,,11/1/2019,2019-11-03,,
40,nan,2519 CECILL B MOORE AVENUE,PA,19121.0,,,,,,,799999.0,260.16227642276425,0,,C,https://www.loopnet.com/Listing/2519-Cecill-B-Moore-Ave-Philadelphia-PA/17533914/,17533914,Multifamily,2019,,,,Low Rise,,3075,,,3,,,1306.8,,3,,,,,,,10/23/2019,2019-11-03,,
41,nan,2521 CECIL B MOORE AVENUE,PA,19121.0,,,,,,,824999.0,268.29235772357725,0,,,https://www.loopnet.com/Listing/2521-Cecil-B-Moore-Ave-Philadelphia-PA/17531860/,17531860,Multifamily,2019,,,,Low Rise,,3075,,,3,,,1306.8,,3,,,,,,,10/23/2019,2019-11-03,,
42,nan,2812 CECIL B MOORE AVENUE,PA,19121.0,,,,,,,849999.0,314.81444444444446,0,,,https://www.loopnet.com/Listing/2812-Cecil-B-Moore-Ave-Philadelphia-PA/17531767/,17531767,Multifamily,2019,,,,Low Rise,,2700,,,3,,,1306.8,,3,,,,,,,10/23/2019,2019-11-03,,
43,nan,2114 NORTH 17 STREET,PA,18102.0,,,,,,,755000.0,247.94745484400656,0,,,https://www.loopnet.com/Listing/2114-N-17th-St-Philadelphia-PA/17517549/,17517549,Multifamily,2016,,,,,,3045,8.20%,,4,,,,,2,,,,,,,10/21/2019,2019-11-03,,
44,nan,2221 FRANKFORD AVENUE,PA,19125.0,,,,,,,699999.0,302.37537796976244,0,,C,https://www.loopnet.com/Listing/2221-Frankford-Ave-Philadelphia-PA/17491586/,17491586,Multifamily,1900,,,,Low Rise,,2315,,,3,,,1306.8,,2,,,,,,,10/18/2019,2019-11-03,,
45,nan,1533 WEST RITNER STREET,PA,19145.0,,,,,,,479900.0,251.78384050367262,0,,,https://www.loopnet.com/Listing/1533-W-Ritner-St-Philadelphia-PA/17451591/,17451591,Multifamily,1920,,,,,100%,1906,,,3,,,,,3,,,,,,,10/14/2019,2019-11-03,,
46,nan,2035 EAST ALLEGHENY AVENUE,PA,19134.0,,,,,,,419000.0,111.91239316239316,0,,C,https://www.loopnet.com/Listing/2035-E-Allegheny-Ave-Philadelphia-PA/17251247/,17251247,Multifamily,1925,,,,Low Rise,,3744,,,3,,,2178.0,,5,,,,,,,9/20/2019,2019-11-03,,
47,nan,58 SOUTH 2 STREET,PA,19106.0,,,,,,,1250000.0,401.92926045016077,0,,C,https://www.loopnet.com/Listing/58-S-2nd-St-Philadelphia-PA/17103507/,17103507,Multifamily,1900,,,,,,3110,10.56%,,4,,,871.2,,3,,,,,,,9/4/2019,2019-11-03,,
48,nan,2918 D STREET,PA,19134.0,,,,,,,155000.0,82.88770053475936,0,,,https://www.loopnet.com/Listing/2918-D-St-Philadelphia-PA/16914996/,16914996,Multifamily,1935,,,,Low Rise,100%,1870,,,3,,,2613.6,,4,,,,,,,8/14/2019,2019-11-03,,
49,nan,1200 WASHINGTON AVENUE,PA,19076.0,,,,,,,12500000.0,334.06381955208724,0,,B,https://www.loopnet.com/Listing/1200-Washington-Ave-Philadelphia-PA/16461479/,16461479,Multifamily,2017,,,,Mid Rise,96%,37418,6.00%,,4,,,10890.0,,50,,,,,,,6/27/2019,2019-11-03,,
50,nan,2110 WEST MASTER STREET,PA,19121.0,,,,,,,790000.0,197.5,0,,,https://www.loopnet.com/Listing/2110-W-Master-St-Philadelphia-PA/16419169/,16419169,Multifamily,2018,,,,,100%,4000,7.64%,,4,,,,,3,,,,,,,6/22/2019,2019-11-03,,
51,nan,626 CARPENTER STREET,PA,19147.0,,,,,,,675000.0,289.9484536082474,0,,,https://www.loopnet.com/Listing/626-Carpenter-St-Philadelphia-PA/16380852/,16380852,Multifamily,1915,,,,Mid Rise,100%,2328,5.30%,,3,,,1306.8,,3,,,,,,,6/18/2019,2019-11-03,,
52,nan,2220 DELANCEY PLACE,PA,19382.0,,,,,,,1350000.0,434.7826086956522,0,,C,https://www.loopnet.com/Listing/2220-Delancey-Pl-Philadelphia-PA/16253863/,16253863,Multifamily,1900,,,,Low Rise,,3105,,,3,,,1742.4,,5,,,,,,,6/5/2019,2019-11-03,,
53,nan,7416 WHITAKER AVENUE,PA,19120.0,,,,,,,639900.0,101.25,0,,,https://www.loopnet.com/Listing/7416-Whitaker-Ave-Philadelphia-PA/16095337/,16095337,Multifamily,1962,,,,Low Rise,86%,6320,,,3,,,5662.8,,7,,,,,,,5/18/2019,2019-11-03,,
54,nan,1436 POPLAR STREET,PA,19130.0,,,,,,,1395000.0,278.38754739572937,0,,,https://www.loopnet.com/Listing/1436-Poplar-St-Philadelphia-PA/15610293/,15610293,Multifamily,2016,,,,,,5011,,,4,,,,,5,,,,,,,4/2/2019,2019-11-03,,
55,nan,1501 WEST ALLEGHENY AVENUE,PA,19132.0,,,,,,,4300000.0,238.99510893730547,0,,B,https://www.loopnet.com/Listing/1501-W-Allegheny-Ave-Philadelphia-PA/15538966/,15538966,Multifamily,1914,,,,Low Rise,100%,17992,4.81%,242712.0,3,,249600.0,6969.6,202785.0,18,33127.0,6800.0,7488.0,,,,3/25/2019,2019-11-03,,
56,nan,125 WEST GIRARD AVENUE,PA,19123.0,,,,,,,369000.0,222.9607250755287,0,,,https://www.loopnet.com/Listing/125-W-Girard-Ave-Philadelphia-PA/15453499/,15453499,Multifamily,1925,,,,,,1655,,,2,,,,,2,,,,,,,3/15/2019,2019-11-03,,
57,nan,238 SOUTH 22 STREET,PA,36542.0,,,,,,,1200000.0,348.12880765883375,0,,C,https://www.loopnet.com/Listing/238-S-22nd-St-Philadelphia-PA/15277438/,15277438,Multifamily,1920,,,,Low Rise,,3447,6.36%,,3,,,871.2,,5,,,,,,,2/25/2019,2019-11-03,,
58,nan,319 SOUTH 12 STREET,PA,19107.0,,,,,,,2150000.0,540.8805031446541,0,,C,https://www.loopnet.com/Listing/319-S-12th-St-Philadelphia-PA/15277303/,15277303,Multifamily,1890,,,,Low Rise,,3975,5.41%,,4,,,1742.4,,8,,,,,,,2/25/2019,2019-11-03,,
59,nan,2854 KENSINGTON AVENUE,PA,19134.0,,,,,,,199000.0,92.12962962962963,0,,C,https://www.loopnet.com/Listing/2854-Kensington-Ave-Philadelphia-PA/14035654/,14035654,Multifamily,,,,,Low Rise,,2160,,,3,,,,,7,,,,,,,10/10/2018,2019-11-03,,
60,nan,2809 WEST GIRARD AVENUE,PA,19130.0,,,,,,,780000.0,216.66666666666666,0,,C,https://www.loopnet.com/Listing/2809-W-Girard-Ave-Philadelphia-PA/12673435/,12673435,Multifamily,,,,,Low Rise,,3600,9.06%,,3,10,,1742.4,,4,,,,,,,5/25/2018,2019-11-03,,
